\relax 
\providecommand\hyper@newdestlabel[2]{}
\providecommand\HyperFirstAtBeginDocument{\AtBeginDocument}
\HyperFirstAtBeginDocument{\ifx\hyper@anchor\@undefined
\global\let\oldcontentsline\contentsline
\gdef\contentsline#1#2#3#4{\oldcontentsline{#1}{#2}{#3}}
\global\let\oldnewlabel\newlabel
\gdef\newlabel#1#2{\newlabelxx{#1}#2}
\gdef\newlabelxx#1#2#3#4#5#6{\oldnewlabel{#1}{{#2}{#3}}}
\AtEndDocument{\ifx\hyper@anchor\@undefined
\let\contentsline\oldcontentsline
\let\newlabel\oldnewlabel
\fi}
\fi}
\global\let\hyper@last\relax 
\gdef\HyperFirstAtBeginDocument#1{#1}
\providecommand\HyField@AuxAddToFields[1]{}
\providecommand\HyField@AuxAddToCoFields[2]{}
\catcode `"\active 
\@writefile{toc}{\beamer@endinputifotherversion {3.36pt}}
\@writefile{nav}{\beamer@endinputifotherversion {3.36pt}}
\select@language{brazilian}
\@writefile{toc}{\select@language{brazilian}}
\@writefile{lof}{\select@language{brazilian}}
\@writefile{lot}{\select@language{brazilian}}
\@writefile{nav}{\headcommand {\slideentry {0}{0}{1}{1/1}{}{0}}}
\@writefile{nav}{\headcommand {\beamer@framepages {1}{1}}}
\@writefile{nav}{\headcommand {\slideentry {0}{0}{2}{2/2}{}{0}}}
\@writefile{nav}{\headcommand {\beamer@framepages {2}{2}}}
\@writefile{toc}{\beamer@sectionintoc {1}{Introdu\IeC {\c c}\IeC {\~a}o}{3}{0}{1}}
\@writefile{nav}{\headcommand {\sectionentry {1}{Introdu\IeC {\c c}\IeC {\~a}o}{3}{Introdu\IeC {\c c}\IeC {\~a}o}{0}}}
\@writefile{nav}{\headcommand {\beamer@sectionpages {1}{2}}}
\@writefile{nav}{\headcommand {\beamer@subsectionpages {1}{2}}}
\@writefile{nav}{\headcommand {\slideentry {1}{0}{1}{3/3}{}{0}}}
\@writefile{nav}{\headcommand {\beamer@framepages {3}{3}}}
\newlabel{fig:pw_uso}{{4}{4}{Introdução}{Doc-Start}{}}
\@writefile{snm}{\beamer@slide {fig:pw_uso}{4}}
\@writefile{nav}{\headcommand {\slideentry {1}{0}{2}{4/5}{}{0}}}
\@writefile{nav}{\headcommand {\beamer@framepages {4}{5}}}
\@writefile{toc}{\beamer@subsectionintoc {1}{1}{Problema}{6}{0}{1}}
\@writefile{nav}{\headcommand {\beamer@subsectionentry {0}{1}{1}{6}{Problema}}\headcommand {\beamer@subsectionpages {3}{5}}}
\@writefile{nav}{\headcommand {\slideentry {1}{1}{1}{6/8}{Problema}{0}}}
\@writefile{nav}{\headcommand {\beamer@framepages {6}{8}}}
\@writefile{toc}{\beamer@subsectionintoc {1}{2}{Objetivos}{9}{0}{1}}
\@writefile{nav}{\headcommand {\beamer@subsectionentry {0}{1}{2}{9}{Objetivos}}\headcommand {\beamer@subsectionpages {6}{8}}}
\@writefile{nav}{\headcommand {\slideentry {1}{2}{1}{9/10}{Objetivos}{0}}}
\@writefile{nav}{\headcommand {\beamer@framepages {9}{10}}}
\@writefile{toc}{\beamer@sectionintoc {2}{Fundamenta\IeC {\c c}\IeC {\~a}o Te\IeC {\'o}rica}{11}{0}{2}}
\@writefile{nav}{\headcommand {\sectionentry {2}{Fundamenta\IeC {\c c}\IeC {\~a}o Te\IeC {\'o}rica}{11}{Fundamenta\IeC {\c c}\IeC {\~a}o Te\IeC {\'o}rica}{0}}}
\@writefile{nav}{\headcommand {\beamer@sectionpages {3}{10}}}
\@writefile{nav}{\headcommand {\beamer@subsectionpages {9}{10}}}
\@writefile{nav}{\headcommand {\slideentry {2}{0}{1}{11/11}{}{0}}}
\@writefile{nav}{\headcommand {\beamer@framepages {11}{11}}}
\@writefile{toc}{\beamer@subsectionintoc {2}{1}{Pilha TCP/IP}{12}{0}{2}}
\@writefile{nav}{\headcommand {\beamer@subsectionentry {0}{2}{1}{12}{Pilha TCP/IP}}\headcommand {\beamer@subsectionpages {11}{11}}}
\newlabel{fig:msg-tcp}{{8}{12}{Pilha TCP/IP}{Doc-Start}{}}
\@writefile{snm}{\beamer@slide {fig:msg-tcp}{12}}
\@writefile{nav}{\headcommand {\slideentry {2}{1}{1}{12/12}{Pilha TCP/IP}{0}}}
\@writefile{nav}{\headcommand {\beamer@framepages {12}{12}}}
\@writefile{toc}{\beamer@subsectionintoc {2}{2}{Tecnologias para Comunica\IeC {\c c}\IeC {\~a}o Sem Fio}{13}{0}{2}}
\@writefile{nav}{\headcommand {\beamer@subsectionentry {0}{2}{2}{13}{Tecnologias para Comunica\IeC {\c c}\IeC {\~a}o Sem Fio}}\headcommand {\beamer@subsectionpages {12}{12}}}
\newlabel{fig:range-net}{{9}{13}{Tecnologias para Comunicação Sem Fio}{Doc-Start}{}}
\@writefile{snm}{\beamer@slide {fig:range-net}{13}}
\@writefile{nav}{\headcommand {\slideentry {2}{2}{1}{13/14}{Tecnologias para Comunica\IeC {\c c}\IeC {\~a}o Sem Fio}{0}}}
\@writefile{nav}{\headcommand {\beamer@framepages {13}{14}}}
\@writefile{toc}{\beamer@subsubsectionintoc {2}{2}{1}{Bluetooth Low Energy}{15}{0}{2}}
\@writefile{nav}{\headcommand {\beamer@subsubsectionentry {0}{2}{2}{1}{15}{Bluetooth Low Energy}}}
\newlabel{fig:ble-pdu}{{10}{15}{Bluetooth Low Energy}{Doc-Start}{}}
\@writefile{snm}{\beamer@slide {fig:ble-pdu}{15}}
\@writefile{nav}{\headcommand {\slideentry {2}{2}{2}{15/15}{Tecnologias para Comunica\IeC {\c c}\IeC {\~a}o Sem Fio}{0}}}
\@writefile{nav}{\headcommand {\beamer@framepages {15}{15}}}
\@writefile{toc}{\beamer@subsectionintoc {2}{3}{Physical Web}{16}{0}{2}}
\@writefile{nav}{\headcommand {\beamer@subsectionentry {0}{2}{3}{16}{Physical Web}}\headcommand {\beamer@subsectionpages {13}{15}}}
\@writefile{toc}{\beamer@subsubsectionintoc {2}{3}{1}{Beacons}{16}{0}{2}}
\@writefile{nav}{\headcommand {\beamer@subsubsectionentry {0}{2}{3}{1}{16}{Beacons}}}
\newlabel{fig:beacons}{{11}{16}{Beacons}{Doc-Start}{}}
\@writefile{snm}{\beamer@slide {fig:beacons}{16}}
\@writefile{nav}{\headcommand {\slideentry {2}{3}{1}{16/16}{Physical Web}{0}}}
\@writefile{nav}{\headcommand {\beamer@framepages {16}{16}}}
\@writefile{toc}{\beamer@subsubsectionintoc {2}{3}{2}{Eddystone}{17}{0}{2}}
\@writefile{nav}{\headcommand {\beamer@subsubsectionentry {0}{2}{3}{2}{17}{Eddystone}}}
\newlabel{fig:eddy}{{12}{17}{Eddystone}{Doc-Start}{}}
\@writefile{snm}{\beamer@slide {fig:eddy}{17}}
\@writefile{nav}{\headcommand {\slideentry {2}{3}{2}{17/17}{Physical Web}{0}}}
\@writefile{nav}{\headcommand {\beamer@framepages {17}{17}}}
\@writefile{toc}{\beamer@sectionintoc {3}{Mecanismos para Localiza\IeC {\c c}\IeC {\~a}o de Dispositivos BLE}{18}{0}{3}}
\@writefile{nav}{\headcommand {\sectionentry {3}{Mecanismos para Localiza\IeC {\c c}\IeC {\~a}o de Dispositivos BLE}{18}{Mecanismos para Localiza\IeC {\c c}\IeC {\~a}o de Dispositivos BLE}{0}}}
\@writefile{nav}{\headcommand {\beamer@sectionpages {11}{17}}}
\@writefile{nav}{\headcommand {\beamer@subsectionpages {16}{17}}}
\@writefile{nav}{\headcommand {\slideentry {3}{0}{1}{18/18}{}{0}}}
\@writefile{nav}{\headcommand {\beamer@framepages {18}{18}}}
\@writefile{toc}{\beamer@subsectionintoc {3}{1}{Flutua\IeC {\c c}\IeC {\~a}o do RSSI}{19}{0}{3}}
\@writefile{nav}{\headcommand {\beamer@subsectionentry {0}{3}{1}{19}{Flutua\IeC {\c c}\IeC {\~a}o do RSSI}}\headcommand {\beamer@subsectionpages {18}{18}}}
\newlabel{fig:flut}{{14}{19}{Flutuação do RSSI}{Doc-Start}{}}
\@writefile{snm}{\beamer@slide {fig:flut}{19}}
\@writefile{nav}{\headcommand {\slideentry {3}{1}{1}{19/19}{Flutua\IeC {\c c}\IeC {\~a}o do RSSI}{0}}}
\@writefile{nav}{\headcommand {\beamer@framepages {19}{19}}}
\@writefile{toc}{\beamer@subsectionintoc {3}{2}{Modelos de Propaga\IeC {\c c}\IeC {\~a}o do Sinal}{20}{0}{3}}
\@writefile{nav}{\headcommand {\beamer@subsectionentry {0}{3}{2}{20}{Modelos de Propaga\IeC {\c c}\IeC {\~a}o do Sinal}}\headcommand {\beamer@subsectionpages {19}{19}}}
\newlabel{tab:modelos-comp}{{15}{20}{Modelos de Propagação do Sinal}{Doc-Start}{}}
\@writefile{snm}{\beamer@slide {tab:modelos-comp}{20}}
\@writefile{nav}{\headcommand {\slideentry {3}{2}{1}{20/20}{Modelos de Propaga\IeC {\c c}\IeC {\~a}o do Sinal}{0}}}
\@writefile{nav}{\headcommand {\beamer@framepages {20}{20}}}
\@writefile{toc}{\beamer@subsectionintoc {3}{3}{Filtros}{21}{0}{3}}
\@writefile{nav}{\headcommand {\beamer@subsectionentry {0}{3}{3}{21}{Filtros}}\headcommand {\beamer@subsectionpages {20}{20}}}
\@writefile{nav}{\headcommand {\slideentry {3}{3}{1}{21/21}{Filtros}{0}}}
\@writefile{nav}{\headcommand {\beamer@framepages {21}{21}}}
\@writefile{toc}{\beamer@subsectionintoc {3}{4}{Trilatera\IeC {\c c}\IeC {\~a}o}{22}{0}{3}}
\@writefile{nav}{\headcommand {\beamer@subsectionentry {0}{3}{4}{22}{Trilatera\IeC {\c c}\IeC {\~a}o}}\headcommand {\beamer@subsectionpages {21}{21}}}
\newlabel{fig:trilatera1}{{17}{22}{Trilateração}{Doc-Start}{}}
\@writefile{snm}{\beamer@slide {fig:trilatera1}{22}}
\@writefile{nav}{\headcommand {\slideentry {3}{4}{1}{22/22}{Trilatera\IeC {\c c}\IeC {\~a}o}{0}}}
\@writefile{nav}{\headcommand {\beamer@framepages {22}{22}}}
\newlabel{fig:trilatera2}{{18}{23}{Trilateração}{Doc-Start}{}}
\@writefile{snm}{\beamer@slide {fig:trilatera2}{23}}
\@writefile{nav}{\headcommand {\slideentry {3}{4}{2}{23/23}{Trilatera\IeC {\c c}\IeC {\~a}o}{0}}}
\@writefile{nav}{\headcommand {\beamer@framepages {23}{23}}}
\newlabel{fig:trilatera3}{{19}{24}{Trilateração}{Doc-Start}{}}
\@writefile{snm}{\beamer@slide {fig:trilatera3}{24}}
\@writefile{nav}{\headcommand {\slideentry {3}{4}{3}{24/24}{Trilatera\IeC {\c c}\IeC {\~a}o}{0}}}
\@writefile{nav}{\headcommand {\beamer@framepages {24}{24}}}
\newlabel{fig:trilatera4}{{20}{25}{Trilateração}{Doc-Start}{}}
\@writefile{snm}{\beamer@slide {fig:trilatera4}{25}}
\@writefile{nav}{\headcommand {\slideentry {3}{4}{4}{25/25}{Trilatera\IeC {\c c}\IeC {\~a}o}{0}}}
\@writefile{nav}{\headcommand {\beamer@framepages {25}{25}}}
\@writefile{toc}{\beamer@sectionintoc {4}{Resultados}{26}{0}{4}}
\@writefile{nav}{\headcommand {\sectionentry {4}{Resultados}{26}{Resultados}{0}}}
\@writefile{nav}{\headcommand {\beamer@sectionpages {18}{25}}}
\@writefile{nav}{\headcommand {\beamer@subsectionpages {22}{25}}}
\@writefile{nav}{\headcommand {\slideentry {4}{0}{1}{26/26}{}{0}}}
\@writefile{nav}{\headcommand {\beamer@framepages {26}{26}}}
\@writefile{toc}{\beamer@subsectionintoc {4}{1}{Metodologia de Coleta de Informa\IeC {\c c}\IeC {\~o}es}{27}{0}{4}}
\@writefile{nav}{\headcommand {\beamer@subsectionentry {0}{4}{1}{27}{Metodologia de Coleta de Informa\IeC {\c c}\IeC {\~o}es}}\headcommand {\beamer@subsectionpages {26}{26}}}
\newlabel{fig:flux-interface}{{22}{27}{Metodologia de Coleta de Informações}{Doc-Start}{}}
\@writefile{snm}{\beamer@slide {fig:flux-interface}{27}}
\@writefile{nav}{\headcommand {\slideentry {4}{1}{1}{27/27}{Metodologia de Coleta de Informa\IeC {\c c}\IeC {\~o}es}{0}}}
\@writefile{nav}{\headcommand {\beamer@framepages {27}{27}}}
\@writefile{toc}{\beamer@subsectionintoc {4}{2}{Ambientes de Testes}{28}{0}{4}}
\@writefile{nav}{\headcommand {\beamer@subsectionentry {0}{4}{2}{28}{Ambientes de Testes}}\headcommand {\beamer@subsectionpages {27}{27}}}
\newlabel{fig:dist_4m}{{1(a)}{28}{Subfigure 1(a)}{Doc-Start}{}}
\@writefile{snm}{\beamer@slide {fig:dist_4m}{28}}
\newlabel{sub@fig:dist_4m}{{(a)}{28}{Subfigure 1(a)\relax }{Doc-Start}{}}
\newlabel{fig:casa_samuel}{{1(b)}{28}{Subfigure 1(b)}{Doc-Start}{}}
\@writefile{snm}{\beamer@slide {fig:casa_samuel}{28}}
\newlabel{sub@fig:casa_samuel}{{(b)}{28}{Subfigure 1(b)\relax }{Doc-Start}{}}
\newlabel{fig:COMNET2}{{1(c)}{28}{Subfigure 1(c)}{Doc-Start}{}}
\@writefile{snm}{\beamer@slide {fig:COMNET2}{28}}
\newlabel{sub@fig:COMNET2}{{(c)}{28}{Subfigure 1(c)\relax }{Doc-Start}{}}
\newlabel{fig:DEP}{{1(d)}{28}{Subfigure 1(d)}{Doc-Start}{}}
\@writefile{snm}{\beamer@slide {fig:DEP}{28}}
\newlabel{sub@fig:DEP}{{(d)}{28}{Subfigure 1(d)\relax }{Doc-Start}{}}
\@writefile{nav}{\headcommand {\slideentry {4}{2}{1}{28/28}{Ambientes de Testes}{0}}}
\@writefile{nav}{\headcommand {\beamer@framepages {28}{28}}}
\@writefile{toc}{\beamer@subsectionintoc {4}{3}{An\IeC {\'a}lise dos Filtros}{29}{0}{4}}
\@writefile{nav}{\headcommand {\beamer@subsectionentry {0}{4}{3}{29}{An\IeC {\'a}lise dos Filtros}}\headcommand {\beamer@subsectionpages {28}{28}}}
\@writefile{nav}{\headcommand {\slideentry {4}{3}{1}{29/29}{An\IeC {\'a}lise dos Filtros}{0}}}
\@writefile{nav}{\headcommand {\beamer@framepages {29}{29}}}
\@writefile{toc}{\beamer@subsectionintoc {4}{4}{Calibra\IeC {\c c}\IeC {\~a}o dos Modelos de Propaga\IeC {\c c}\IeC {\~a}o}{30}{0}{4}}
\@writefile{nav}{\headcommand {\beamer@subsectionentry {0}{4}{4}{30}{Calibra\IeC {\c c}\IeC {\~a}o dos Modelos de Propaga\IeC {\c c}\IeC {\~a}o}}\headcommand {\beamer@subsectionpages {29}{29}}}
\newlabel{tab:modelos-comp2}{{25}{30}{Calibração dos Modelos de Propagação}{Doc-Start}{}}
\@writefile{snm}{\beamer@slide {tab:modelos-comp2}{30}}
\@writefile{nav}{\headcommand {\slideentry {4}{4}{1}{30/30}{Calibra\IeC {\c c}\IeC {\~a}o dos Modelos de Propaga\IeC {\c c}\IeC {\~a}o}{0}}}
\@writefile{nav}{\headcommand {\beamer@framepages {30}{30}}}
\@writefile{toc}{\beamer@subsectionintoc {4}{5}{Calibra\IeC {\c c}\IeC {\~a}o da Converg\IeC {\^e}ncia de RSSI}{31}{0}{4}}
\@writefile{nav}{\headcommand {\beamer@subsectionentry {0}{4}{5}{31}{Calibra\IeC {\c c}\IeC {\~a}o da Converg\IeC {\^e}ncia de RSSI}}\headcommand {\beamer@subsectionpages {30}{30}}}
\newlabel{fig:teste}{{26}{31}{Calibração da Convergência de RSSI}{Doc-Start}{}}
\@writefile{snm}{\beamer@slide {fig:teste}{31}}
\@writefile{nav}{\headcommand {\slideentry {4}{5}{1}{31/31}{Calibra\IeC {\c c}\IeC {\~a}o da Converg\IeC {\^e}ncia de RSSI}{0}}}
\@writefile{nav}{\headcommand {\beamer@framepages {31}{31}}}
\newlabel{fig:conv}{{27}{32}{Calibração da Convergência de RSSI}{Doc-Start}{}}
\@writefile{snm}{\beamer@slide {fig:conv}{32}}
\@writefile{nav}{\headcommand {\slideentry {4}{5}{2}{32/32}{Calibra\IeC {\c c}\IeC {\~a}o da Converg\IeC {\^e}ncia de RSSI}{0}}}
\@writefile{nav}{\headcommand {\beamer@framepages {32}{32}}}
\@writefile{toc}{\beamer@subsectionintoc {4}{6}{Estimativa de dist\IeC {\^a}ncia}{33}{0}{4}}
\@writefile{nav}{\headcommand {\beamer@subsectionentry {0}{4}{6}{33}{Estimativa de dist\IeC {\^a}ncia}}\headcommand {\beamer@subsectionpages {31}{32}}}
\newlabel{fig:max_dist}{{28}{33}{Estimativa de distância}{Doc-Start}{}}
\@writefile{snm}{\beamer@slide {fig:max_dist}{33}}
\@writefile{nav}{\headcommand {\slideentry {4}{6}{1}{33/33}{Estimativa de dist\IeC {\^a}ncia}{0}}}
\@writefile{nav}{\headcommand {\beamer@framepages {33}{33}}}
\newlabel{tab:dist_var}{{29}{34}{Estimativa de distância}{Doc-Start}{}}
\@writefile{snm}{\beamer@slide {tab:dist_var}{34}}
\newlabel{tab:distanciaIon}{{29}{34}{Estimativa de distância}{Doc-Start}{}}
\@writefile{snm}{\beamer@slide {tab:distanciaIon}{34}}
\newlabel{fig:comp_dist}{{29}{34}{Estimativa de distância}{Doc-Start}{}}
\@writefile{snm}{\beamer@slide {fig:comp_dist}{34}}
\@writefile{nav}{\headcommand {\slideentry {4}{6}{2}{34/34}{Estimativa de dist\IeC {\^a}ncia}{0}}}
\@writefile{nav}{\headcommand {\beamer@framepages {34}{34}}}
\@writefile{toc}{\beamer@subsectionintoc {4}{7}{Posicionamento}{35}{0}{4}}
\@writefile{nav}{\headcommand {\beamer@subsectionentry {0}{4}{7}{35}{Posicionamento}}\headcommand {\beamer@subsectionpages {33}{34}}}
\newlabel{fig:trilatera_app}{{30}{35}{Posicionamento}{Doc-Start}{}}
\@writefile{snm}{\beamer@slide {fig:trilatera_app}{35}}
\newlabel{tab:Pos_Real-Estimada}{{30}{35}{Posicionamento}{Doc-Start}{}}
\@writefile{snm}{\beamer@slide {tab:Pos_Real-Estimada}{35}}
\@writefile{nav}{\headcommand {\slideentry {4}{7}{1}{35/35}{Posicionamento}{0}}}
\@writefile{nav}{\headcommand {\beamer@framepages {35}{35}}}
\@writefile{toc}{\beamer@subsectionintoc {4}{8}{Prova de Conceito}{36}{0}{4}}
\@writefile{nav}{\headcommand {\beamer@subsectionentry {0}{4}{8}{36}{Prova de Conceito}}\headcommand {\beamer@subsectionpages {35}{35}}}
\@writefile{nav}{\headcommand {\slideentry {4}{8}{1}{36/36}{Prova de Conceito}{0}}}
\@writefile{nav}{\headcommand {\beamer@framepages {36}{36}}}
\@writefile{toc}{\beamer@sectionintoc {5}{Conclus\IeC {\~a}o}{37}{0}{5}}
\@writefile{nav}{\headcommand {\sectionentry {5}{Conclus\IeC {\~a}o}{37}{Conclus\IeC {\~a}o}{0}}}
\@writefile{nav}{\headcommand {\beamer@sectionpages {26}{36}}}
\@writefile{nav}{\headcommand {\beamer@subsectionpages {36}{36}}}
\@writefile{nav}{\headcommand {\slideentry {5}{0}{1}{37/37}{}{0}}}
\@writefile{nav}{\headcommand {\beamer@framepages {37}{37}}}
\@writefile{nav}{\headcommand {\slideentry {5}{0}{2}{38/38}{}{0}}}
\@writefile{nav}{\headcommand {\beamer@framepages {38}{38}}}
\@writefile{toc}{\beamer@subsectionintoc {5}{1}{Trabalhos Futuros}{39}{0}{5}}
\@writefile{nav}{\headcommand {\beamer@subsectionentry {0}{5}{1}{39}{Trabalhos Futuros}}\headcommand {\beamer@subsectionpages {37}{38}}}
\@writefile{nav}{\headcommand {\slideentry {5}{1}{1}{39/39}{Trabalhos Futuros}{0}}}
\@writefile{nav}{\headcommand {\beamer@framepages {39}{39}}}
\@writefile{toc}{\beamer@subsectionintoc {5}{2}{Obrigado}{40}{0}{5}}
\@writefile{nav}{\headcommand {\beamer@subsectionentry {0}{5}{2}{40}{Obrigado}}\headcommand {\beamer@subsectionpages {39}{39}}}
\@writefile{nav}{\headcommand {\slideentry {5}{2}{1}{40/40}{Obrigado}{0}}}
\@writefile{nav}{\headcommand {\beamer@framepages {40}{40}}}
\@writefile{nav}{\headcommand {\beamer@partpages {1}{40}}}
\@writefile{nav}{\headcommand {\beamer@subsectionpages {40}{40}}}
\@writefile{nav}{\headcommand {\beamer@sectionpages {37}{40}}}
\@writefile{nav}{\headcommand {\beamer@documentpages {40}}}
\@writefile{nav}{\headcommand {\def \inserttotalframenumber {35}}}
