\BOOKMARK [1][-]{section.1}{Introdu\347\343o}{}% 1
\BOOKMARK [2][-]{subsection.1.1}{Requisitos}{section.1}% 2
\BOOKMARK [2][-]{subsection.1.2}{Instala\347\343o}{section.1}% 3
\BOOKMARK [1][-]{section.2}{Tema UnB}{}% 4
\BOOKMARK [2][-]{subsection.2.1}{Marca UnB}{section.2}% 5
\BOOKMARK [2][-]{subsection.2.2}{Cor}{section.2}% 6
\BOOKMARK [2][-]{subsection.2.3}{Fonte}{section.2}% 7
\BOOKMARK [2][-]{subsection.2.4}{Estrutura Interna}{section.2}% 8
\BOOKMARK [2][-]{subsection.2.5}{Estrutura Externa}{section.2}% 9
\BOOKMARK [1][-]{section.3}{Classe UnBeamer}{}% 10
\BOOKMARK [2][-]{subsection.3.1}{Op\347\365es}{section.3}% 11
\BOOKMARK [2][-]{subsection.3.2}{Blocos}{section.3}% 12
\BOOKMARK [2][-]{subsection.3.3}{Comandos Auxiliares}{section.3}% 13
\BOOKMARK [2][-]{subsection.3.4}{Exemplo de Apresenta\347\343o}{section.3}% 14
\BOOKMARK [2][-]{subsection.3.5}{Exemplo de P\364ster}{section.3}% 15
