-58
-58
-57
-58
-58
-57
-56
-57
-57
-57
-58
-55
-56
-54
-54
-54
-54
-55
-52
-53
-57
-55
-54
-54
-56
-56
-56
-54
-53
-54
-55
-53
-54
-52
-53
-54
-55
-54
-55
-54
-55
-54
-54
-55
-52
-54
-54
-56
-56
-54
-53
-56
-55
-54
-54
-55
-54
-54
-54
-54
-54
-53
-54
-54
-53
-54
-54
-54
-58
-56
-56
-56
-56
-56
-56
-56
-56
-56
-55
-56
-56
-57
-56
-57
-57
-55
-55
-55
-55
-57
-55
-57
-56
-55
-55
-55
-57
-56
-56
-55
-56