Q = 1.5 R = 0.1
-58;-58.00
-57;-57.48
-58;-57.67
-59;-58.08
-59;-58.33
-59;-58.50
-55;-57.65
-59;-57.97
-58;-57.98
-56;-57.52
-57;-57.40
-55;-56.85
-57;-56.89
-58;-57.14
-59;-57.56
-59;-57.89
-53;-56.78
-53;-55.92
-60;-56.85
-60;-57.56
-59;-57.89
-56;-57.46
-57;-57.36
-61;-58.18
-59;-58.37
Q = 1.5 R = 0.3
-58;-58.26
-57;-57.84
-58;-57.90
-59;-58.29
-59;-58.54
-59;-58.70
-55;-57.38
-59;-57.96
-58;-57.97
-56;-57.27
-57;-57.17
-55;-56.39
-57;-56.61
-58;-57.11
-59;-57.79
-59;-58.22
-53;-56.35
-53;-55.15
-60;-56.89
-60;-58.00
-59;-58.36
-56;-57.51
-57;-57.33
-61;-58.64
-59;-58.77
Q = 1.5 R = 0.7
-58;-58.42
-57;-57.74
-58;-57.87
-59;-58.42
-59;-58.70
-59;-58.85
-55;-56.97
-59;-57.96
-58;-57.98
-56;-57.01
-57;-57.01
-55;-56.03
-57;-56.50
-58;-57.23
-59;-58.10
-59;-58.54
-53;-55.83
-53;-54.45
-60;-57.16
-60;-58.55
-59;-58.77
-56;-57.42
-57;-57.21
-61;-59.06
-59;-59.03
Q = 4.0 R = 0.1
-58;-58.85
-57;-58.55
-58;-58.46
-59;-58.55
-59;-58.61
-59;-58.67
-55;-58.12
-59;-58.25
-58;-58.22
-56;-57.89
-57;-57.76
-55;-57.35
-57;-57.30
-58;-57.40
-59;-57.64
-59;-57.84
-53;-57.13
-53;-56.53
-60;-57.03
-60;-57.47
-59;-57.69
-56;-57.44
-57;-57.38
-61;-57.91
-59;-58.07
Q = 4.0 R = 0.3
-58;-58.06
-57;-57.84
-58;-57.88
-59;-58.13
-59;-58.33
-59;-58.49
-55;-57.66
-59;-57.98
-58;-57.99
-56;-57.51
-57;-57.39
-55;-56.82
-57;-56.86
-58;-57.13
-59;-57.58
-59;-57.92
-53;-56.74
-53;-55.85
-60;-56.84
-60;-57.60
-59;-57.93
-56;-57.47
-57;-57.36
-61;-58.23
-59;-58.41
Q = 4.0 R = 0.7
-58;-58.29
-57;-57.88
-58;-57.92
-59;-58.28
-59;-58.53
-59;-58.69
-55;-57.43
-59;-57.97
-58;-57.98
-56;-57.31
-57;-57.20
-55;-56.45
-57;-56.64
-58;-57.10
-59;-57.75
-59;-58.17
-53;-56.41
-53;-55.25
-60;-56.87
-60;-57.93
-59;-58.29
-56;-57.51
-57;-57.34
-61;-58.58
-59;-58.73
