-57;-56,00;-56,01;-55,79
-55;-55,00;-55,00;-55,41
-59;-57,00;-57,02;-56,24
-70;-61,33;-61,53;-58,41
-71;-63,75;-64,09;-60,69
-58;-62,60;-62,70;-59,79
-55;-61,33;-61,14;-59,69
-56;-60,57;-60,19;-59,47
-57;-60,12;-59,64;-59,25
-56;-59,67;-59,03;-59,02
-67;-60,40;-60,31;-59,79
-74;-61,64;-62,45;-60,80
-58;-61,33;-61,77;-60,53
-58;-61,08;-61,20;-60,42
-58;-60,86;-60,72;-60,20
-58;-60,67;-60,31;-60,12
-62;-60,75;-60,56;-60,27
-70;-61,29;-61,96;-60,97
-57;-61,06;-61,23;-60,52
-57;-60,84;-60,61;-60,42
-58;-60,70;-60,22;-60,22
-57;-60,52;-59,75;-60,08
-68;-60,86;-60,96;-60,69
-59;-60,78;-60,67;-60,22
-59;-60,71;-60,43;-60,24
-58;-60,60;-60,07;-60,12
-55;-60,60;-59,33;-59,73
-55;-60,44;-58,70;-59,51
-62;-60,12;-59,18;-60,16
-55;-59,48;-58,57;-59,30
