-63;-63,67;-63,64;-64,08
-62;-62,00;-62,00;-63,24
-64;-63,00;-63,01;-63,58
-86;-70,67;-70,99;-67,21
-74;-71,50;-71,80;-66,78
-66;-70,40;-70,48;-67,40
-76;-71,33;-71,59;-68,40
-62;-70,00;-69,82;-67,93
-78;-71,00;-71,24;-69,20
-77;-71,67;-72,19;-69,84
-61;-70,60;-70,40;-68,70
-62;-69,82;-69,09;-68,27
-75;-70,25;-70,00;-69,13
-65;-69,85;-69,24;-68,68
-67;-69,64;-68,90;-68,71
-62;-69,13;-67,88;-68,11
-76;-69,56;-69,08;-69,00
-62;-69,12;-68,03;-68,26
-64;-68,83;-67,44;-68,23
-64;-68,58;-66,93;-67,84
-70;-68,65;-67,38;-68,17
-66;-68,52;-67,18;-67,92
-63;-68,27;-66,57;-67,67
-72;-68,43;-67,36;-68,00
-72;-68,58;-68,04;-68,09
-68;-65,67;-65,72;-65,88
-65;-65,00;-65,00;-65,50
-67;-66,00;-66,01;-65,90
-71;-67,67;-67,74;-66,69
-67;-67,50;-67,54;-66,44
-71;-68,20;-68,33;-67,13
-70;-68,50;-68,67;-67,27
-68;-68,43;-68,54;-67,50
-66;-68,12;-68,10;-67,32
-69;-68,22;-68,25;-67,55
-85;-69,90;-70,93;-69,09
-64;-69,36;-69,85;-68,55
-69;-69,33;-69,72;-68,79
-66;-69,08;-69,16;-68,45
-69;-69,07;-69,13;-68,61
-65;-68,80;-68,52;-68,25
-67;-68,69;-68,29;-68,30
-64;-68,41;-67,66;-67,92
-67;-68,33;-67,56;-68,03
-64;-68,11;-67,04;-67,69
-68;-68,10;-67,18;-67,88
-68;-68,10;-67,30;-67,83
-65;-67,95;-66,96;-67,63
-64;-67,78;-66,53;-67,41
-64;-67,62;-66,16;-67,33
-69;-68,33;-68,31;-68,50
-67;-67,00;-67,00;-67,90
-68;-67,50;-67,51;-68,06
-68;-67,67;-67,68;-68,01
-70;-68,25;-68,31;-68,32
-70;-68,60;-68,69;-68,50
-69;-68,67;-68,76;-68,49
-70;-68,86;-68,99;-68,69
-69;-68,88;-68,99;-68,66
-69;-68,89;-68,99;-68,73
-68;-68,80;-68,83;-68,65
-68;-68,73;-68,70;-68,61
-64;-68,33;-67,98;-68,25
-64;-68,00;-67,38;-67,94
-69;-68,07;-67,62;-68,20
-67;-68,00;-67,53;-68,06
-68;-68,00;-67,60;-68,10
-66;-67,88;-67,36;-67,92
-65;-67,72;-67,01;-67,79
-70;-67,84;-67,45;-67,96
-77;-68,30;-68,85;-68,52
-76;-68,67;-69,90;-68,93
-83;-69,32;-71,82;-69,59
-73;-69,48;-71,99;-69,60
-70;-69,50;-71,70;-69,48
-64;-64,50;-64,49;-64,51
-70;-70,00;-70,00;-66,33
-66;-68,00;-67,98;-66,26
-66;-67,33;-67,29;-66,24
-64;-66,50;-66,40;-65,89
-61;-65,40;-65,16;-65,33
-67;-65,67;-65,54;-65,44
-66;-65,71;-65,62;-65,43
-62;-65,25;-64,99;-65,07
-62;-64,89;-64,50;-64,90
-60;-64,40;-63,78;-64,38
-61;-64,09;-63,34;-64,27
-64;-64,08;-63,44;-64,18
-62;-63,92;-63,23;-64,00
-68;-64,21;-63,94;-64,34
-61;-64,00;-63,50;-63,89
-67;-64,19;-64,02;-64,24
-61;-64,00;-63,58;-63,85
-61;-63,83;-63,20;-63,75
-72;-64,26;-64,49;-64,50
-70;-64,55;-65,30;-64,78
-62;-64,43;-64,81;-64,34
-63;-64,36;-64,55;-64,30
-64;-64,35;-64,47;-64,34
-62;-64,25;-64,11;-64,19
