-74;-73,00;-72,99;-72,97
-74;-74,00;-74,00;-73,16
-69;-71,50;-71,47;-72,55
-70;-71,00;-70,96;-72,25
-70;-70,75;-70,70;-72,10
-70;-70,60;-70,54;-71,83
-75;-71,33;-71,44;-72,23
-75;-71,86;-72,10;-72,42
-74;-72,12;-72,43;-72,45
-69;-71,78;-71,86;-72,15
-69;-71,50;-71,40;-72,02
-70;-71,36;-71,18;-71,84
-75;-71,67;-71,77;-72,18
-75;-71,92;-72,26;-72,34
-70;-71,79;-71,92;-72,04
-70;-71,67;-71,63;-71,92
-70;-71,56;-71,39;-71,86
-74;-71,71;-71,78;-72,04
-74;-71,83;-72,10;-72,10
-70;-71,74;-71,80;-71,94
-70;-71,65;-71,53;-71,89
-74;-71,76;-71,89;-72,05
-69;-71,64;-71,47;-71,76
-70;-71,57;-71,25;-71,72
-74;-71,67;-71,66;-71,94
-82;-76,86;-77,02;-76,92
-74;-74,00;-74,00;-76,53
-74;-74,00;-74,00;-76,36
-70;-72,67;-72,61;-75,59
-74;-73,00;-72,99;-75,70
-71;-72,60;-72,53;-75,10
-70;-72,17;-72,02;-74,81
-70;-71,86;-71,65;-74,31
-72;-71,88;-71,71;-74,31
-73;-72,00;-71,92;-74,13
-68;-71,60;-71,29;-73,67
-76;-72,00;-72,03;-73,92
-74;-72,17;-72,33;-73,82
-72;-72,15;-72,28;-73,72
-70;-72,00;-71,94;-73,52
-69;-71,80;-71,50;-73,24
-69;-71,62;-71,13;-73,12
-68;-71,41;-70,67;-72,74
-70;-71,33;-70,57;-72,83
-72;-71,37;-70,78;-72,80
-70;-71,30;-70,67;-72,64
-71;-71,29;-70,71;-72,59
-70;-71,23;-70,61;-72,48
-70;-71,17;-70,52;-72,38
-71;-71,17;-70,59;-72,40
