\relax 
\providecommand\hyper@newdestlabel[2]{}
\catcode `"\active 
\providecommand\HyperFirstAtBeginDocument{\AtBeginDocument}
\HyperFirstAtBeginDocument{\ifx\hyper@anchor\@undefined
\global\let\oldcontentsline\contentsline
\gdef\contentsline#1#2#3#4{\oldcontentsline{#1}{#2}{#3}}
\global\let\oldnewlabel\newlabel
\gdef\newlabel#1#2{\newlabelxx{#1}#2}
\gdef\newlabelxx#1#2#3#4#5#6{\oldnewlabel{#1}{{#2}{#3}}}
\AtEndDocument{\ifx\hyper@anchor\@undefined
\let\contentsline\oldcontentsline
\let\newlabel\oldnewlabel
\fi}
\fi}
\global\let\hyper@last\relax 
\gdef\HyperFirstAtBeginDocument#1{#1}
\providecommand\HyField@AuxAddToFields[1]{}
\providecommand\HyField@AuxAddToCoFields[2]{}
\providecommand*\tocstyle@set@width[4]{}
\providecommand\@newglossary[4]{}
\@newglossary{main}{glg}{gls}{glo}
\@newglossary{acronym}{alg}{acr}{acn}
\providecommand\@glsorder[1]{}
\providecommand\@istfilename[1]{}
\@istfilename{main.ist}
\@glsorder{word}
\select@language{american}
\@writefile{toc}{\select@language{american}}
\@writefile{lof}{\select@language{american}}
\@writefile{lot}{\select@language{american}}
\select@language{american}
\@writefile{toc}{\select@language{american}}
\@writefile{lof}{\select@language{american}}
\@writefile{lot}{\select@language{american}}
\select@language{brazil}
\@writefile{toc}{\select@language{brazil}}
\@writefile{lof}{\select@language{brazil}}
\@writefile{lot}{\select@language{brazil}}
\tocstyle@set@width {unum}{toc}{}{30.02785pt}
\tocstyle@set@width {num}{toc}{0}{13.5pt}
\tocstyle@set@width {skip}{toc}{0}{0.0pt}
\tocstyle@set@width {num}{toc}{1}{20.88887pt}
\tocstyle@set@width {skip}{toc}{1}{13.5pt}
\tocstyle@set@width {num}{toc}{2}{30.02785pt}
\tocstyle@set@width {skip}{toc}{2}{34.38887pt}
\citation{ZBLE}
\citation{ble-arduino}
\@writefile{brf}{\backcite{ZBLE}{{ix}{(document)}{Doc-Start}}}
\@writefile{brf}{\backcite{ble-arduino}{{ix}{(document)}{Doc-Start}}}
\tocstyle@set@width {unum}{lof}{}{26.76385pt}
\tocstyle@set@width {num}{lof}{1}{26.76385pt}
\tocstyle@set@width {skip}{lof}{1}{17.62474pt}
\citation{ocupacao-BLE}
\citation{2016:turco}
\@writefile{brf}{\backcite{ocupacao-BLE}{{xi}{(document)}{Doc-Start}}}
\@writefile{brf}{\backcite{2016:turco}{{xi}{(document)}{Doc-Start}}}
\tocstyle@set@width {unum}{lot}{}{20.88887pt}
\tocstyle@set@width {num}{lot}{1}{20.88887pt}
\tocstyle@set@width {skip}{lot}{1}{17.62474pt}
\citation{2015:EnablingIot}
\citation{2016:turco}
\citation{2015:smartcities}
\citation{2000:webpresence}
\citation{2000:webpresence}
\@writefile{toc}{\contentsline {chapter}{\numberline {1}Introdu\IeC {\c c}\IeC {\~a}o}{1}{chapter.1}}
\@writefile{lof}{\addvspace {10\p@ }}
\@writefile{lot}{\addvspace {10\p@ }}
\newlabel{1_Introducao}{{1}{1}{Introdução}{chapter.1}{}}
\@writefile{brf}{\backcite{2015:EnablingIot}{{1}{1}{chapter.1}}}
\@writefile{brf}{\backcite{2016:turco}{{1}{1}{chapter.1}}}
\@writefile{brf}{\backcite{2015:smartcities}{{1}{1}{chapter.1}}}
\@writefile{brf}{\backcite{2000:webpresence}{{1}{1}{chapter.1}}}
\@writefile{brf}{\backcite{2000:webpresence}{{1}{1}{chapter.1}}}
\citation{PhyGoogle}
\citation{2000:webpresence}
\citation{1999:Triggers}
\citation{BKON}
\citation{Levine:2016}
\citation{2012:context_browser}
\citation{Brookwood:2016}
\citation{eddystone_PW:2016}
\citation{ABI}
\citation{Eddystone}
\@writefile{brf}{\backcite{PhyGoogle}{{2}{1}{chapter.1}}}
\@writefile{brf}{\backcite{2000:webpresence}{{2}{1}{chapter.1}}}
\@writefile{brf}{\backcite{1999:Triggers}{{2}{1}{chapter.1}}}
\@writefile{brf}{\backcite{BKON}{{2}{1}{chapter.1}}}
\@writefile{brf}{\backcite{Levine:2016}{{2}{1}{chapter.1}}}
\@writefile{brf}{\backcite{2012:context_browser}{{2}{1}{chapter.1}}}
\@writefile{brf}{\backcite{Brookwood:2016}{{2}{1}{chapter.1}}}
\@writefile{lof}{\contentsline {figure}{\numberline {1.1}{\ignorespaces Possibilidade para uso de \textit  {Physical Web}}}{2}{figure.1.1}}
\newlabel{fig:uso_pw}{{1.1}{2}{Possibilidade para uso de \textit {Physical Web}}{figure.1.1}{}}
\@writefile{brf}{\backcite{eddystone_PW:2016}{{2}{1}{figure.1.1}}}
\@writefile{brf}{\backcite{ABI}{{2}{1}{figure.1.1}}}
\citation{ibeacon}
\citation{eddystone_PW:2016}
\citation{2012:context_browser}
\citation{2016:turco}
\citation{2011:Fingerlateration}
\citation{Combined:2013}
\citation{Comparison:2011}
\@writefile{brf}{\backcite{Eddystone}{{3}{1}{figure.1.1}}}
\@writefile{brf}{\backcite{ibeacon}{{3}{1}{figure.1.1}}}
\@writefile{brf}{\backcite{eddystone_PW:2016}{{3}{1}{figure.1.1}}}
\newlabel{fig:beacon}{{1.2}{3}{Introdução}{figure.1.2}{}}
\@writefile{lof}{\contentsline {figure}{\numberline {1.2}{\ignorespaces \textit  {Beacon} Ion KST \textit  {Technologies}}}{3}{figure.1.2}}
\@writefile{brf}{\backcite{2012:context_browser}{{3}{1}{figure.1.2}}}
\@writefile{toc}{\contentsline {section}{\numberline {1.1}Problema}{4}{section.1.1}}
\newlabel{Problema}{{1.1}{4}{Problema}{section.1.1}{}}
\@writefile{brf}{\backcite{2016:turco}{{4}{1.1}{section.1.1}}}
\@writefile{brf}{\backcite{2011:Fingerlateration}{{4}{1.1}{section.1.1}}}
\@writefile{brf}{\backcite{Combined:2013}{{4}{1.1}{section.1.1}}}
\@writefile{brf}{\backcite{Comparison:2011}{{4}{1.1}{section.1.1}}}
\@writefile{toc}{\contentsline {section}{\numberline {1.2}Objetivos}{4}{section.1.2}}
\newlabel{Objetivos}{{1.2}{4}{Objetivos}{section.1.2}{}}
\@writefile{toc}{\contentsline {subsection}{\numberline {1.2.1}Objetivo Geral}{4}{subsection.1.2.1}}
\newlabel{Objetivo_Geral}{{1.2.1}{4}{Objetivo Geral}{subsection.1.2.1}{}}
\@writefile{toc}{\contentsline {subsection}{\numberline {1.2.2}Objetivos Espec\IeC {\'\i }ficos}{4}{subsection.1.2.2}}
\newlabel{Objetivo_Esp}{{1.2.2}{4}{Objetivos Específicos}{subsection.1.2.2}{}}
\@writefile{toc}{\contentsline {section}{\numberline {1.3}Metodologia da Pesquisa}{5}{section.1.3}}
\newlabel{Metodologia}{{1.3}{5}{Metodologia da Pesquisa}{section.1.3}{}}
\@writefile{toc}{\contentsline {section}{\numberline {1.4}Estrutura do Trabalho}{5}{section.1.4}}
\newlabel{Estrutura}{{1.4}{5}{Estrutura do Trabalho}{section.1.4}{}}
\citation{kurose}
\citation{TanenbaumBook}
\citation{garcia}
\citation{kurose}
\@writefile{toc}{\contentsline {chapter}{\numberline {2}Fundamenta\IeC {\c c}\IeC {\~a}o Te\IeC {\'o}rica}{7}{chapter.2}}
\@writefile{lof}{\addvspace {10\p@ }}
\@writefile{lot}{\addvspace {10\p@ }}
\newlabel{2_Fundamentos}{{2}{7}{Fundamentação Teórica}{chapter.2}{}}
\@writefile{toc}{\contentsline {section}{\numberline {2.1}Pilha TCP/IP}{7}{section.2.1}}
\newlabel{TCP/IP}{{2.1}{7}{Pilha TCP/IP}{section.2.1}{}}
\@writefile{brf}{\backcite{kurose}{{7}{2.1}{section.2.1}}}
\@writefile{brf}{\backcite{TanenbaumBook}{{7}{2.1}{section.2.1}}}
\@writefile{brf}{\backcite{garcia}{{7}{2.1}{section.2.1}}}
\@writefile{brf}{\backcite{kurose}{{7}{2.1}{section.2.1}}}
\citation{TanenbaumBook}
\citation{kurose}
\newlabel{fig:msg-tcpip}{{2.1}{8}{Pilha TCP/IP}{figure.2.1}{}}
\@writefile{lof}{\contentsline {figure}{\numberline {2.1}{\ignorespaces Caminho de uma mensagem desde o remetente at\IeC {\'e} o destinat\IeC {\'a}rio}}{8}{figure.2.1}}
\@writefile{brf}{\backcite{TanenbaumBook}{{8}{2.1}{figure.2.1}}}
\@writefile{brf}{\backcite{kurose}{{9}{2.1}{figure.2.1}}}
\@writefile{lof}{\contentsline {figure}{\numberline {2.2}{\ignorespaces Camadas da pilha \acrshort {TCP}/\acrshort {IP}}}{9}{figure.2.2}}
\newlabel{fig:tcp/ip}{{2.2}{9}{Camadas da pilha \acrshort {TCP}/\acrshort {IP}}{figure.2.2}{}}
\@writefile{toc}{\contentsline {subsection}{\numberline {2.1.1}Camada de Aplica\IeC {\c c}\IeC {\~a}o}{9}{subsection.2.1.1}}
\@writefile{toc}{\contentsline {subsection}{\numberline {2.1.2}Camada de Transporte}{9}{subsection.2.1.2}}
\@writefile{toc}{\contentsline {subsection}{\numberline {2.1.3}Camada de Rede}{10}{subsection.2.1.3}}
\@writefile{toc}{\contentsline {subsection}{\numberline {2.1.4}Camada de Enlace}{10}{subsection.2.1.4}}
\citation{kurose}
\@writefile{toc}{\contentsline {subsubsection}{Endere\IeC {\c c}os MAC}{11}{section*.10}}
\@writefile{brf}{\backcite{kurose}{{11}{2.1.4}{section*.10}}}
\newlabel{fig:endereco-mac}{{2.3}{11}{Endereços MAC}{figure.2.3}{}}
\@writefile{lof}{\contentsline {figure}{\numberline {2.3}{\ignorespaces Endere\IeC {\c c}o \acrshort {MAC} de acordo com a \acrshort {IEEE}}}{11}{figure.2.3}}
\@writefile{toc}{\contentsline {subsubsection}{Detec\IeC {\c c}\IeC {\~a}o de Erros}{11}{section*.11}}
\citation{TanenbaumBook}
\@writefile{toc}{\contentsline {subsubsection}{Cyclic Redundancy Check}{12}{section*.12}}
\newlabel{fig:crc}{{2.4}{12}{Cyclic Redundancy Check}{figure.2.4}{}}
\@writefile{lof}{\contentsline {figure}{\numberline {2.4}{\ignorespaces Exemplo do c\IeC {\'a}lculo para o \acrshort {CRC}}}{12}{figure.2.4}}
\@writefile{toc}{\contentsline {subsection}{\numberline {2.1.5}Camada F\IeC {\'\i }sica}{12}{subsection.2.1.5}}
\citation{IEEE802.15}
\citation{IEEE802.15.4}
\citation{IEEE802.15.1}
\@writefile{toc}{\contentsline {section}{\numberline {2.2}Tecnologias para Comunica\IeC {\c c}\IeC {\~a}o Sem Fio}{13}{section.2.2}}
\newlabel{Tec_comm}{{2.2}{13}{Tecnologias para Comunicação Sem Fio}{section.2.2}{}}
\@writefile{brf}{\backcite{TanenbaumBook}{{13}{2.2}{section.2.2}}}
\newlabel{fig:range-net}{{2.5}{13}{Tecnologias para Comunicação Sem Fio}{figure.2.5}{}}
\@writefile{lof}{\contentsline {figure}{\numberline {2.5}{\ignorespaces Abrang\IeC {\^e}ncia das diferentes redes}}{13}{figure.2.5}}
\@writefile{brf}{\backcite{IEEE802.15}{{13}{2.2}{figure.2.5}}}
\@writefile{brf}{\backcite{IEEE802.15.4}{{13}{2.2}{figure.2.5}}}
\@writefile{brf}{\backcite{IEEE802.15.1}{{13}{2.2}{figure.2.5}}}
\citation{bsig}
\citation{BluetoothBook}
\@writefile{toc}{\contentsline {subsection}{\numberline {2.2.1}\acrshort {IEEE} 802.15}{14}{subsection.2.2.1}}
\@writefile{toc}{\contentsline {subsection}{\numberline {2.2.2}\acrshort {IEEE} 802.15.1 - \textit  {Bluetooth}}{14}{subsection.2.2.2}}
\newlabel{Bluetooth}{{2.2.2}{14}{\acrshort {IEEE} 802.15.1 - \textit {Bluetooth}}{subsection.2.2.2}{}}
\@writefile{brf}{\backcite{bsig}{{14}{2.2.2}{subsection.2.2.2}}}
\newlabel{fig:slavemaster}{{2.6}{14}{\acrshort {IEEE} 802.15.1 - \textit {Bluetooth}}{figure.2.6}{}}
\@writefile{lof}{\contentsline {figure}{\numberline {2.6}{\ignorespaces Dispositivo mestre estabelecendo conex\IeC {\~o}es com os escravos}}{14}{figure.2.6}}
\@writefile{brf}{\backcite{BluetoothBook}{{14}{2.2.2}{figure.2.6}}}
\newlabel{fig:smartwatch}{{2.7}{15}{\acrshort {IEEE} 802.15.1 - \textit {Bluetooth}}{figure.2.7}{}}
\@writefile{lof}{\contentsline {figure}{\numberline {2.7}{\ignorespaces Rel\IeC {\'o}gio monitor de batimentos card\IeC {\'\i }acos}}{15}{figure.2.7}}
\@writefile{toc}{\contentsline {subsubsection}{\textbf  {\textit  {Bluetooth Low-Energy}}}{15}{section*.13}}
\@writefile{lot}{\contentsline {table}{\numberline {2.1}{\ignorespaces Tipos de PDU}}{16}{table.2.1}}
\newlabel{tab:PDUt}{{2.1}{16}{Tipos de PDU}{table.2.1}{}}
\newlabel{fig:BLE-PDU}{{2.8}{16}{\textbf {\textit {Bluetooth Low-Energy}}}{figure.2.8}{}}
\@writefile{lof}{\contentsline {figure}{\numberline {2.8}{\ignorespaces Modelo de pacotes \textit  {Bluetooth}}}{16}{figure.2.8}}
\citation{TIReport}
\citation{2005:802.15.4}
\citation{2010:interference}
\newlabel{fig:BLE-chan}{{2.9}{17}{\textbf {\textit {Bluetooth Low-Energy}}}{figure.2.9}{}}
\@writefile{lof}{\contentsline {figure}{\numberline {2.9}{\ignorespaces Canais para anuncia\IeC {\c c}\IeC {\~a}o BLE}}{17}{figure.2.9}}
\@writefile{brf}{\backcite{TIReport}{{17}{2.2.2}{figure.2.9}}}
\newlabel{fig:BLE-spectrum}{{2.10}{17}{\textbf {\textit {Bluetooth Low-Energy}}}{figure.2.10}{}}
\@writefile{lof}{\contentsline {figure}{\numberline {2.10}{\ignorespaces Espectro \acrshort {BLE} X \textit  {Wi-Fi}}}{17}{figure.2.10}}
\@writefile{toc}{\contentsline {subsection}{\numberline {2.2.3}\acrshort {IEEE} 802.15.4}{17}{subsection.2.2.3}}
\newlabel{Zigbee}{{2.2.3}{17}{\acrshort {IEEE} 802.15.4}{subsection.2.2.3}{}}
\@writefile{brf}{\backcite{2005:802.15.4}{{17}{2.2.3}{subsection.2.2.3}}}
\@writefile{brf}{\backcite{2010:interference}{{17}{2.2.3}{subsection.2.2.3}}}
\citation{ZBLE}
\@writefile{lof}{\contentsline {figure}{\numberline {2.11}{\ignorespaces Coexist\IeC {\^e}ncia \acrshort {IEEE} 802.15.4 e \acrshort {IEEE} 802.11}}{18}{figure.2.11}}
\newlabel{fig:zbchan}{{2.11}{18}{Coexistência \acrshort {IEEE} 802.15.4 e \acrshort {IEEE} 802.11}{figure.2.11}{}}
\@writefile{lof}{\contentsline {figure}{\numberline {2.12}{\ignorespaces Arquitetura \textit  {Zigbee} (adaptado de Rivero \cite  {ZBLE})}}{18}{figure.2.12}}
\@writefile{brf}{\backcite{ZBLE}{{18}{2.12}{figure.2.12}}}
\newlabel{fig:zbarc}{{2.12}{18}{Arquitetura \textit {Zigbee} (adaptado de Rivero \cite {ZBLE})}{figure.2.12}{}}
\@writefile{toc}{\contentsline {section}{\numberline {2.3}\textit  {Physical Web}}{18}{section.2.3}}
\newlabel{Physical Web}{{2.3}{18}{\textit {Physical Web}}{section.2.3}{}}
\@writefile{toc}{\contentsline {subsection}{\numberline {2.3.1}\textit  {Beacons}}{19}{subsection.2.3.1}}
\@writefile{lof}{\contentsline {figure}{\numberline {2.13}{\ignorespaces Modelos de dispositivos \acrshort {BLE}}}{19}{figure.2.13}}
\newlabel{fig:beacons_modelos}{{2.13}{19}{Modelos de dispositivos \acrshort {BLE}}{figure.2.13}{}}
\citation{ibeacon:2014}
\@writefile{toc}{\contentsline {subsection}{\numberline {2.3.2}Protocolos de Encapsulamento de Informa\IeC {\c c}\IeC {\~o}es}{20}{subsection.2.3.2}}
\newlabel{Encapsulamento}{{2.3.2}{20}{Protocolos de Encapsulamento de Informações}{subsection.2.3.2}{}}
\@writefile{toc}{\contentsline {subsubsection}{iBeacon}{20}{section*.14}}
\newlabel{Encap_ibeacon}{{2.3.2}{20}{iBeacon}{section*.14}{}}
\@writefile{brf}{\backcite{ibeacon:2014}{{20}{2.3.2}{section*.14}}}
\newlabel{fig:ib_spec}{{2.14}{20}{iBeacon}{figure.2.14}{}}
\@writefile{lof}{\contentsline {figure}{\numberline {2.14}{\ignorespaces Especifica\IeC {\c c}\IeC {\~a}o da moldura do iBeacon}}{20}{figure.2.14}}
\@writefile{toc}{\contentsline {subsubsection}{Eddystone}{20}{section*.15}}
\newlabel{Encap_Eddy}{{2.3.2}{20}{Eddystone}{section*.15}{}}
\newlabel{tab:frames}{{2.2}{21}{Eddystone}{table.2.2}{}}
\@writefile{lot}{\contentsline {table}{\numberline {2.2}{\ignorespaces Indica\IeC {\c c}\IeC {\~a}o para tipos de moldura}}{21}{table.2.2}}
\newlabel{tab:URLprefix}{{2.3}{22}{Eddystone}{table.2.3}{}}
\@writefile{lot}{\contentsline {table}{\numberline {2.3}{\ignorespaces Prefixo para terceiro \textit  {byte} Eddystone-URL}}{22}{table.2.3}}
\newlabel{fig:frametypes}{{2.15}{22}{Eddystone}{figure.2.15}{}}
\@writefile{lof}{\contentsline {figure}{\numberline {2.15}{\ignorespaces Moldura dos pacotes UID,URL e TLM do Eddystone}}{22}{figure.2.15}}
\@writefile{toc}{\contentsline {section}{\numberline {2.4}Discuss\IeC {\~a}o}{22}{section.2.4}}
\citation{LOSComparison:2008}
\citation{AccuracyTOA:2012}
\citation{GPSperformance}
\citation{Phone_Limitations:2011}
\@writefile{toc}{\contentsline {chapter}{\numberline {3}Mecanismos para Localiza\IeC {\c c}\IeC {\~a}o de Dispositivos BLE}{23}{chapter.3}}
\@writefile{lof}{\addvspace {10\p@ }}
\@writefile{lot}{\addvspace {10\p@ }}
\newlabel{3_Localizacao}{{3}{23}{Mecanismos para Localização de Dispositivos BLE}{chapter.3}{}}
\newlabel{cap3}{{3}{23}{Mecanismos para Localização de Dispositivos BLE}{chapter.3}{}}
\@writefile{brf}{\backcite{LOSComparison:2008}{{23}{3}{chapter.3}}}
\@writefile{brf}{\backcite{AccuracyTOA:2012}{{23}{3}{chapter.3}}}
\@writefile{brf}{\backcite{GPSperformance}{{23}{3}{chapter.3}}}
\citation{Comparison:2011}
\citation{Recursive_estimation:2001}
\citation{navstar}
\citation{Comparison:2011}
\citation{positioning:2013}
\citation{2015:Dfilter}
\citation{Calibration:2002}
\@writefile{brf}{\backcite{Phone_Limitations:2011}{{24}{3}{chapter.3}}}
\@writefile{brf}{\backcite{Comparison:2011}{{24}{3}{chapter.3}}}
\@writefile{brf}{\backcite{Recursive_estimation:2001}{{24}{3}{chapter.3}}}
\@writefile{brf}{\backcite{navstar}{{24}{3}{chapter.3}}}
\@writefile{brf}{\backcite{Comparison:2011}{{24}{3}{chapter.3}}}
\@writefile{brf}{\backcite{positioning:2013}{{24}{3}{chapter.3}}}
\@writefile{brf}{\backcite{2015:Dfilter}{{24}{3}{chapter.3}}}
\@writefile{brf}{\backcite{Calibration:2002}{{24}{3}{chapter.3}}}
\newlabel{fig:fluxo_local}{{3.1}{24}{Mecanismos para Localização de Dispositivos BLE}{figure.3.1}{}}
\@writefile{lof}{\contentsline {figure}{\numberline {3.1}{\ignorespaces Divis\IeC {\~a}o entre maneiras de localiza\IeC {\c c}\IeC {\~a}o e posicionamento}}{24}{figure.3.1}}
\citation{Comparison:2011}
\@writefile{toc}{\contentsline {section}{\numberline {3.1}\textit  {Fingerprinting}}{25}{section.3.1}}
\newlabel{Fingerprinting}{{3.1}{25}{\textit {Fingerprinting}}{section.3.1}{}}
\@writefile{brf}{\backcite{Comparison:2011}{{25}{3.1}{section.3.1}}}
\@writefile{toc}{\contentsline {section}{\numberline {3.2}\textit  {Time Difference of Arrival} e \textit  {Time of Arrival}}{25}{section.3.2}}
\newlabel{ToA}{{3.2}{25}{\textit {Time Difference of Arrival} e \textit {Time of Arrival}}{section.3.2}{}}
\citation{Comparison:2011}
\newlabel{fig:TDoA}{{3.2}{26}{\textit {Time Difference of Arrival} e \textit {Time of Arrival}}{figure.3.2}{}}
\@writefile{lof}{\contentsline {figure}{\numberline {3.2}{\ignorespaces Posicionamento por TDoA}}{26}{figure.3.2}}
\@writefile{toc}{\contentsline {section}{\numberline {3.3}\textit  {Angle of Arrival}}{26}{section.3.3}}
\newlabel{AoA}{{3.3}{26}{\textit {Angle of Arrival}}{section.3.3}{}}
\newlabel{fig:AoA}{{3.3}{26}{\textit {Angle of Arrival}}{figure.3.3}{}}
\@writefile{lof}{\contentsline {figure}{\numberline {3.3}{\ignorespaces Posicionamento por AoA}}{26}{figure.3.3}}
\@writefile{toc}{\contentsline {section}{\numberline {3.4}Modelos de Propaga\IeC {\c c}\IeC {\~a}o do Sinal}{26}{section.3.4}}
\newlabel{Modelos}{{3.4}{26}{Modelos de Propagação do Sinal}{section.3.4}{}}
\citation{2016:turco}
\citation{Comparison:2011}
\citation{positioning:2013}
\citation{2011:Fingerlateration}
\@writefile{brf}{\backcite{Comparison:2011}{{27}{3.4}{section.3.4}}}
\newlabel{eq:ideal}{{3.2}{27}{Modelos de Propagação do Sinal}{equation.3.4.2}{}}
\@writefile{brf}{\backcite{2016:turco}{{27}{1}{equation.3.4.3}}}
\@writefile{brf}{\backcite{Comparison:2011}{{27}{1}{equation.3.4.3}}}
\@writefile{brf}{\backcite{positioning:2013}{{27}{2}{Item.6}}}
\@writefile{brf}{\backcite{2011:Fingerlateration}{{27}{2}{Item.6}}}
\citation{glomoman}
\citation{2016:turco}
\newlabel{Rapa}{{3}{28}{Modelos de Propagação do Sinal}{Item.7}{}}
\newlabel{eq:rappa}{{3.7}{28}{Modelos de Propagação do Sinal}{equation.3.4.7}{}}
\@writefile{lot}{\contentsline {table}{\numberline {3.1}{\ignorespaces Compara\IeC {\c c}\IeC {\~a}o entre os modelos \textit  {Frii's Transmission Model}, \acrshort {LDPLM} e \acrshort {RPLM}}}{28}{table.3.1}}
\newlabel{tab:modelos-comp}{{3.1}{28}{Comparação entre os modelos \textit {Frii's Transmission Model}, \acrshort {LDPLM} e \acrshort {RPLM}}{table.3.1}{}}
\@writefile{brf}{\backcite{glomoman}{{28}{3.4}{table.3.1}}}
\citation{Kalman_intro}
\citation{Kalman_intro}
\citation{2015:Kalman_explained}
\citation{Comparison:2011}
\@writefile{brf}{\backcite{2016:turco}{{29}{3.4}{equation.3.4.8}}}
\@writefile{toc}{\contentsline {section}{\numberline {3.5}Ru\IeC {\'\i }do do RSSI}{29}{section.3.5}}
\newlabel{Ruido}{{3.5}{29}{Ruído do RSSI}{section.3.5}{}}
\@writefile{brf}{\backcite{Kalman_intro}{{29}{3.5}{section.3.5}}}
\newlabel{fig:Ruido}{{3.4}{29}{Ruído do RSSI}{figure.3.4}{}}
\@writefile{lof}{\contentsline {figure}{\numberline {3.4}{\ignorespaces Ru\IeC {\'\i }do do valor RSSI}}{29}{figure.3.4}}
\@writefile{brf}{\backcite{Kalman_intro}{{29}{2}{Item.9}}}
\@writefile{brf}{\backcite{2015:Kalman_explained}{{29}{2}{Item.9}}}
\@writefile{brf}{\backcite{Comparison:2011}{{29}{2}{Item.9}}}
\citation{2015:Dfilter}
\citation{positioning:2013}
\newlabel{eq:Kalman-geral}{{3.10}{30}{Ruído do RSSI}{equation.3.5.10}{}}
\@writefile{brf}{\backcite{2015:Dfilter}{{30}{3}{Item.10}}}
\@writefile{toc}{\contentsline {section}{\numberline {3.6}Trilatera\IeC {\c c}\IeC {\~a}o}{30}{section.3.6}}
\newlabel{Trilatera}{{3.6}{30}{Trilateração}{section.3.6}{}}
\@writefile{brf}{\backcite{positioning:2013}{{30}{3.6}{section.3.6}}}
\citation{Comparison:2011}
\citation{1999:Triggers}
\newlabel{fig:trilateration}{{3.5}{31}{Trilateração}{figure.3.5}{}}
\@writefile{lof}{\contentsline {figure}{\numberline {3.5}{\ignorespaces Trilatera\IeC {\c c}\IeC {\~a}o}}{31}{figure.3.5}}
\@writefile{brf}{\backcite{Comparison:2011}{{31}{3.6}{figure.3.5}}}
\@writefile{toc}{\contentsline {section}{\numberline {3.7}Estado da Arte}{31}{section.3.7}}
\newlabel{Estado_Arte}{{3.7}{31}{Estado da Arte}{section.3.7}{}}
\@writefile{brf}{\backcite{1999:Triggers}{{31}{3.7}{section.3.7}}}
\citation{1999:GUIDE}
\citation{ble-arduino}
\citation{ble-arduino}
\@writefile{brf}{\backcite{1999:GUIDE}{{32}{3.7}{section.3.7}}}
\@writefile{brf}{\backcite{ble-arduino}{{32}{3.7}{section.3.7}}}
\citation{Combined:2013}
\citation{2011:Fingerlateration}
\newlabel{fig:artigo-arduino}{{3.6}{33}{Estado da Arte}{figure.3.6}{}}
\@writefile{lof}{\contentsline {figure}{\numberline {3.6}{\ignorespaces Arquitetura do sistema (implementado por Deordica e Alexandru \cite  {ble-arduino}}}{33}{figure.3.6}}
\@writefile{brf}{\backcite{ble-arduino}{{33}{3.6}{figure.3.6}}}
\@writefile{brf}{\backcite{Combined:2013}{{33}{3.7}{figure.3.6}}}
\@writefile{brf}{\backcite{2011:Fingerlateration}{{33}{3.7}{figure.3.6}}}
\citation{ocupacao-BLE}
\citation{ocupacao-BLE}
\citation{ocupacao-BLE}
\@writefile{brf}{\backcite{ocupacao-BLE}{{34}{3.7}{figure.3.6}}}
\citation{2016:turco}
\citation{2016:turco}
\@writefile{lot}{\contentsline {table}{\numberline {3.2}{\ignorespaces Matriz de confus\IeC {\~a}o para um dos classificadores (retirada de Filippoupolitis \textit  {et al.} \cite  {ocupacao-BLE})}}{35}{table.3.2}}
\@writefile{brf}{\backcite{ocupacao-BLE}{{35}{3.2}{table.3.2}}}
\newlabel{tab:artigo-presenca}{{3.2}{35}{Matriz de confusão para um dos classificadores (retirada de Filippoupolitis \textit {et al.} \cite {ocupacao-BLE})}{table.3.2}{}}
\@writefile{brf}{\backcite{2016:turco}{{35}{3.7}{table.3.2}}}
\@writefile{lot}{\contentsline {table}{\numberline {3.3}{\ignorespaces Compara\IeC {\c c}\IeC {\~a}o entre a dist\IeC {\^a}ncia real e a calculada (retirada de Vargas \cite  {2016:turco})}}{36}{table.3.3}}
\@writefile{brf}{\backcite{2016:turco}{{36}{3.3}{table.3.3}}}
\newlabel{tab:turco-resultados}{{3.3}{36}{Comparação entre a distância real e a calculada (retirada de Vargas \cite {2016:turco})}{table.3.3}{}}
\@writefile{toc}{\contentsline {section}{\numberline {3.8}Discuss\IeC {\~a}o}{36}{section.3.8}}
\citation{KST}
\citation{2014:Ion}
\citation{2015:Particle}
\citation{ZPLAYspec}
\@writefile{toc}{\contentsline {chapter}{\numberline {4}Avalia\IeC {\c c}\IeC {\~a}o de T\IeC {\'e}cnicas de Localiza\IeC {\c c}\IeC {\~a}o de Dispositivos BLE}{37}{chapter.4}}
\@writefile{lof}{\addvspace {10\p@ }}
\@writefile{lot}{\addvspace {10\p@ }}
\newlabel{4_Ambiente}{{4}{37}{Avaliação de Técnicas de Localização de Dispositivos BLE}{chapter.4}{}}
\@writefile{toc}{\contentsline {section}{\numberline {4.1}Metodologia de Coleta de Informa\IeC {\c c}\IeC {\~o}es}{37}{section.4.1}}
\newlabel{Preliminar}{{4.1}{37}{Metodologia de Coleta de Informações}{section.4.1}{}}
\@writefile{brf}{\backcite{KST}{{37}{4.1}{section.4.1}}}
\@writefile{brf}{\backcite{2014:Ion}{{37}{4.1}{section.4.1}}}
\@writefile{brf}{\backcite{2015:Particle}{{37}{4.1}{section.4.1}}}
\@writefile{brf}{\backcite{ZPLAYspec}{{38}{4.1}{section.4.1}}}
\newlabel{fig:APP_FLUX}{{4.1}{39}{Metodologia de Coleta de Informações}{figure.4.1}{}}
\@writefile{lof}{\contentsline {figure}{\numberline {4.1}{\ignorespaces Fluxograma da interface preliminar}}{39}{figure.4.1}}
\newlabel{fig:APP_INICIAL}{{4.2(a)}{40}{Subfigure 4 4.2(a)}{subfigure.4.2.1}{}}
\newlabel{sub@fig:APP_INICIAL}{{(a)}{40}{Subfigure 4 4.2(a)\relax }{subfigure.4.2.1}{}}
\newlabel{fig:APP_CONFIG}{{4.2(b)}{40}{Subfigure 4 4.2(b)}{subfigure.4.2.2}{}}
\newlabel{sub@fig:APP_CONFIG}{{(b)}{40}{Subfigure 4 4.2(b)\relax }{subfigure.4.2.2}{}}
\newlabel{fig:APP_LOCATOR}{{4.2(c)}{40}{Subfigure 4 4.2(c)}{subfigure.4.2.3}{}}
\newlabel{sub@fig:APP_LOCATOR}{{(c)}{40}{Subfigure 4 4.2(c)\relax }{subfigure.4.2.3}{}}
\newlabel{fig:APP_DETALHES}{{4.2(d)}{40}{Subfigure 4 4.2(d)}{subfigure.4.2.4}{}}
\newlabel{sub@fig:APP_DETALHES}{{(d)}{40}{Subfigure 4 4.2(d)\relax }{subfigure.4.2.4}{}}
\@writefile{lof}{\contentsline {figure}{\numberline {4.2}{\ignorespaces Telas da interface preliminar}}{40}{figure.4.2}}
\@writefile{lof}{\contentsline {subfigure}{\numberline{(a)}{\ignorespaces {Tela inicial}}}{40}{figure.4.2}}
\@writefile{lof}{\contentsline {subfigure}{\numberline{(b)}{\ignorespaces {Tela de configura\IeC {\c c}\IeC {\~a}o do transmissor}}}{40}{figure.4.2}}
\@writefile{lof}{\contentsline {subfigure}{\numberline{(c)}{\ignorespaces {Tela de localiza\IeC {\c c}\IeC {\~a}o}}}{40}{figure.4.2}}
\@writefile{lof}{\contentsline {subfigure}{\numberline{(d)}{\ignorespaces {Tela de detalhamento do \textit {beacon}}}}{40}{figure.4.2}}
\@writefile{toc}{\contentsline {section}{\numberline {4.2}Flutua\IeC {\c c}\IeC {\~a}o da Intensidade do Sinal}{41}{section.4.2}}
\newlabel{Flut}{{4.2}{41}{Flutuação da Intensidade do Sinal}{section.4.2}{}}
\citation{2016:turco}
\citation{Comparison:2011}
\citation{2015:Dfilter}
\newlabel{fig:rssi_semFiltro}{{4.3(a)}{42}{Subfigure 4 4.3(a)}{subfigure.4.3.1}{}}
\newlabel{sub@fig:rssi_semFiltro}{{(a)}{42}{Subfigure 4 4.3(a)\relax }{subfigure.4.3.1}{}}
\newlabel{fig:var_rssi_1m_semfiltro}{{4.3(b)}{42}{Subfigure 4 4.3(b)}{subfigure.4.3.2}{}}
\newlabel{sub@fig:var_rssi_1m_semfiltro}{{(b)}{42}{Subfigure 4 4.3(b)\relax }{subfigure.4.3.2}{}}
\@writefile{lof}{\contentsline {figure}{\numberline {4.3}{\ignorespaces Testes de flutua\IeC {\c c}\IeC {\~a}o do sinal de pot\IeC {\^e}ncia}}{42}{figure.4.3}}
\@writefile{lof}{\contentsline {subfigure}{\numberline{(a)}{\ignorespaces {Vari\IeC {\^a}ncia do RSSI presente quando n\IeC {\~a}o h\IeC {\'a} filtros}}}{42}{figure.4.3}}
\@writefile{lof}{\contentsline {subfigure}{\numberline{(b)}{\ignorespaces {Flutua\IeC {\c c}\IeC {\~a}o de RSSI ao longo de leituras sem filtro - Ion}}}{42}{figure.4.3}}
\@writefile{toc}{\contentsline {section}{\numberline {4.3}An\IeC {\'a}lise de Filtros}{42}{section.4.3}}
\newlabel{Filtros}{{4.3}{42}{Análise de Filtros}{section.4.3}{}}
\@writefile{brf}{\backcite{2016:turco}{{42}{4.3}{section.4.3}}}
\@writefile{brf}{\backcite{Comparison:2011}{{42}{4.3}{section.4.3}}}
\@writefile{brf}{\backcite{2015:Dfilter}{{42}{4.3}{section.4.3}}}
\newlabel{FiltrosTrue}{{4.3}{42}{Análise de Filtros}{section.4.3}{}}
\citation{2015:Kalman_explained}
\newlabel{fig:rssi_mm}{{4.4}{43}{Análise de Filtros}{figure.4.4}{}}
\@writefile{lof}{\contentsline {figure}{\numberline {4.4}{\ignorespaces Vari\IeC {\^a}ncia do RSSI presente na M\IeC {\'e}dia M\IeC {\'o}vel}}{43}{figure.4.4}}
\@writefile{brf}{\backcite{2015:Kalman_explained}{{43}{4.3}{figure.4.4}}}
\newlabel{fig:rssi_comKalman}{{4.5}{44}{Análise de Filtros}{figure.4.5}{}}
\@writefile{lof}{\contentsline {figure}{\numberline {4.5}{\ignorespaces Vari\IeC {\^a}ncia RSSI presente no filtro de Kalman}}{44}{figure.4.5}}
\citation{2015:Dfilter}
\@writefile{brf}{\backcite{2015:Dfilter}{{45}{4.3}{figure.4.5}}}
\newlabel{fig:rssi_df}{{4.6}{45}{Análise de Filtros}{figure.4.6}{}}
\@writefile{lof}{\contentsline {figure}{\numberline {4.6}{\ignorespaces Vari\IeC {\^a}ncia RSSI presente no Filtro Duplo}}{45}{figure.4.6}}
\newlabel{fig:Rssi_filtros}{{4.7}{46}{Análise de Filtros}{figure.4.7}{}}
\@writefile{lof}{\contentsline {figure}{\numberline {4.7}{\ignorespaces RSSI ao longo do tempo observado a 1m de dist\IeC {\^a}ncia}}{46}{figure.4.7}}
\@writefile{toc}{\contentsline {section}{\numberline {4.4}Ambientes de Teste}{46}{section.4.4}}
\newlabel{Ambientes}{{4.4}{46}{Ambientes de Teste}{section.4.4}{}}
\newlabel{fig:dist_4m}{{4.8(a)}{46}{Subfigure 4 4.8(a)}{subfigure.4.8.1}{}}
\newlabel{sub@fig:dist_4m}{{(a)}{46}{Subfigure 4 4.8(a)\relax }{subfigure.4.8.1}{}}
\newlabel{fig:casa_samuel}{{4.8(b)}{46}{Subfigure 4 4.8(b)}{subfigure.4.8.2}{}}
\newlabel{sub@fig:casa_samuel}{{(b)}{46}{Subfigure 4 4.8(b)\relax }{subfigure.4.8.2}{}}
\@writefile{lof}{\contentsline {figure}{\numberline {4.8}{\ignorespaces Experimento de desvanecimento de RSSI e estimativa de dist\IeC {\^a}ncia}}{46}{figure.4.8}}
\@writefile{lof}{\contentsline {subfigure}{\numberline{(a)}{\ignorespaces {CIC}}}{46}{figure.4.8}}
\@writefile{lof}{\contentsline {subfigure}{\numberline{(b)}{\ignorespaces {Casa}}}{46}{figure.4.8}}
\newlabel{fig:COMNET}{{4.9(a)}{47}{Subfigure 4 4.9(a)}{subfigure.4.9.1}{}}
\newlabel{sub@fig:COMNET}{{(a)}{47}{Subfigure 4 4.9(a)\relax }{subfigure.4.9.1}{}}
\newlabel{fig:COMNET2}{{4.9(b)}{47}{Subfigure 4 4.9(b)}{subfigure.4.9.2}{}}
\newlabel{sub@fig:COMNET2}{{(b)}{47}{Subfigure 4 4.9(b)\relax }{subfigure.4.9.2}{}}
\newlabel{fig:DEP}{{4.9(c)}{47}{Subfigure 4 4.9(c)}{subfigure.4.9.3}{}}
\newlabel{sub@fig:DEP}{{(c)}{47}{Subfigure 4 4.9(c)\relax }{subfigure.4.9.3}{}}
\newlabel{fig:DEP2}{{4.9(d)}{47}{Subfigure 4 4.9(d)}{subfigure.4.9.4}{}}
\newlabel{sub@fig:DEP2}{{(d)}{47}{Subfigure 4 4.9(d)\relax }{subfigure.4.9.4}{}}
\@writefile{lof}{\contentsline {figure}{\numberline {4.9}{\ignorespaces Experimentos de posicionamento}}{47}{figure.4.9}}
\@writefile{lof}{\contentsline {subfigure}{\numberline{(a)}{\ignorespaces {Ambiente COMNET 1}}}{47}{figure.4.9}}
\@writefile{lof}{\contentsline {subfigure}{\numberline{(b)}{\ignorespaces {Ambiente COMNET 2}}}{47}{figure.4.9}}
\@writefile{lof}{\contentsline {subfigure}{\numberline{(c)}{\ignorespaces {Ambiente departamento 1}}}{47}{figure.4.9}}
\@writefile{lof}{\contentsline {subfigure}{\numberline{(d)}{\ignorespaces {Ambiente departamento 2}}}{47}{figure.4.9}}
\@writefile{toc}{\contentsline {section}{\numberline {4.5}Resultados}{47}{section.4.5}}
\newlabel{Resultados}{{4.5}{47}{Resultados}{section.4.5}{}}
\@writefile{toc}{\contentsline {subsection}{\numberline {4.5.1}Calibra\IeC {\c c}\IeC {\~a}o dos Modelos de Propaga\IeC {\c c}\IeC {\~a}o}{48}{subsection.4.5.1}}
\@writefile{lot}{\contentsline {table}{\numberline {4.1}{\ignorespaces Compara\IeC {\c c}\IeC {\~a}o entre os modelos \textit  {Frii's Transmission Model}, \acrshort {LDPLM} e \acrshort {RPLM}}}{48}{table.4.1}}
\newlabel{tab:modelos-comp2}{{4.1}{48}{Comparação entre os modelos \textit {Frii's Transmission Model}, \acrshort {LDPLM} e \acrshort {RPLM}}{table.4.1}{}}
\@writefile{toc}{\contentsline {subsection}{\numberline {4.5.2}Calibra\IeC {\c c}\IeC {\~a}o da Converg\IeC {\^e}ncia de \acrshort {RSSI}}{48}{subsection.4.5.2}}
\newlabel{Cal_Kalman}{{4.5.2}{48}{Calibração da Convergência de \acrshort {RSSI}}{subsection.4.5.2}{}}
\newlabel{fig:3kalmans}{{4.10}{49}{Calibração da Convergência de \acrshort {RSSI}}{figure.4.10}{}}
\@writefile{lof}{\contentsline {figure}{\numberline {4.10}{\ignorespaces Vari\IeC {\^a}ncia no filtro Kalman devido a mudan\IeC {\c c}a de valores iniciais}}{49}{figure.4.10}}
\newlabel{fig:3k_conv}{{4.11}{49}{Calibração da Convergência de \acrshort {RSSI}}{figure.4.11}{}}
\@writefile{lof}{\contentsline {figure}{\numberline {4.11}{\ignorespaces Quantidade de leituras para converg\IeC {\^e}ncia no filtro Kalman}}{49}{figure.4.11}}
\@writefile{lot}{\contentsline {table}{\numberline {4.2}{\ignorespaces Valores iniciais e leituras necess\IeC {\'a}rios para converg\IeC {\^e}ncia do filtro de Kalman}}{50}{table.4.2}}
\newlabel{tab:3kalmans}{{4.2}{50}{Valores iniciais e leituras necessários para convergência do filtro de Kalman}{table.4.2}{}}
\@writefile{toc}{\contentsline {subsection}{\numberline {4.5.3}Estimativa de Dist\IeC {\^a}ncia}{50}{subsection.4.5.3}}
\newlabel{Estimativa}{{4.5.3}{50}{Estimativa de Distância}{subsection.4.5.3}{}}
\newlabel{fig:max_dist}{{4.12}{51}{Estimativa de Distância}{figure.4.12}{}}
\@writefile{lof}{\contentsline {figure}{\numberline {4.12}{\ignorespaces Dist\IeC {\^a}ncia m\IeC {\'a}xima devido ao desvanecimento do sinal}}{51}{figure.4.12}}
\newlabel{fig:conv2}{{4.13}{52}{Estimativa de Distância}{figure.4.13}{}}
\@writefile{lof}{\contentsline {figure}{\numberline {4.13}{\ignorespaces Quantidade de leituras para converg\IeC {\^e}ncias - M\IeC {\'e}dia M\IeC {\'o}vel e Filtro Duplo}}{52}{figure.4.13}}
\@writefile{lot}{\contentsline {table}{\numberline {4.3}{\ignorespaces Estimativa de dist\IeC {\^a}ncia - Ion}}{52}{table.4.3}}
\newlabel{tab:distanciaIon}{{4.3}{52}{Estimativa de distância - Ion}{table.4.3}{}}
\newlabel{fig:distanciaIon}{{4.14}{52}{Estimativa de Distância}{figure.4.14}{}}
\@writefile{lof}{\contentsline {figure}{\numberline {4.14}{\ignorespaces Compara\IeC {\c c}\IeC {\~a}o de estimativa de dist\IeC {\^a}ncia - Ion}}{52}{figure.4.14}}
\@writefile{lot}{\contentsline {table}{\numberline {4.4}{\ignorespaces Varia\IeC {\c c}\IeC {\~a}o e desvio padr\IeC {\~a}o para cada metro e filtragem}}{53}{table.4.4}}
\newlabel{tab:dist_var}{{4.4}{53}{Variação e desvio padrão para cada metro e filtragem}{table.4.4}{}}
\@writefile{toc}{\contentsline {subsection}{\numberline {4.5.4}Posicionamento}{53}{subsection.4.5.4}}
\newlabel{Posicionamento}{{4.5.4}{53}{Posicionamento}{subsection.4.5.4}{}}
\newlabel{fig:Trilaterar}{{4.15}{54}{Posicionamento}{figure.4.15}{}}
\@writefile{lof}{\contentsline {figure}{\numberline {4.15}{\ignorespaces Trilatera\IeC {\c c}\IeC {\~a}o real e estimada}}{54}{figure.4.15}}
\@writefile{lot}{\contentsline {table}{\numberline {4.5}{\ignorespaces Posi\IeC {\c c}\IeC {\~a}o real e estimada}}{54}{table.4.5}}
\newlabel{tab:Pos_Real-Estimada}{{4.5}{54}{Posição real e estimada}{table.4.5}{}}
\@writefile{toc}{\contentsline {section}{\numberline {4.6}Prova de Conceito}{54}{section.4.6}}
\newlabel{Interface}{{4.6}{54}{Prova de Conceito}{section.4.6}{}}
\newlabel{fig:FluxoReal}{{4.16}{55}{Prova de Conceito}{figure.4.16}{}}
\@writefile{lof}{\contentsline {figure}{\numberline {4.16}{\ignorespaces Fluxograma para interface caso de uso}}{55}{figure.4.16}}
\newlabel{fig:APP_FOOD}{{4.17}{56}{Prova de Conceito}{figure.4.17}{}}
\@writefile{lof}{\contentsline {figure}{\numberline {4.17}{\ignorespaces Tela da aplica\IeC {\c c}\IeC {\~a}o \textit  {food truck}}}{56}{figure.4.17}}
\@writefile{lot}{\contentsline {table}{\numberline {4.6}{\ignorespaces Checagem de desencadeamento de eventos}}{57}{table.4.6}}
\newlabel{tab:APP_funciona}{{4.6}{57}{Checagem de desencadeamento de eventos}{table.4.6}{}}
\@writefile{toc}{\contentsline {chapter}{\numberline {5}Conclus\IeC {\~a}o}{58}{chapter.5}}
\@writefile{lof}{\addvspace {10\p@ }}
\@writefile{lot}{\addvspace {10\p@ }}
\newlabel{5_Conclusao}{{5}{58}{Conclusão}{chapter.5}{}}
\bibstyle{babunsrt}
\@writefile{toc}{\contentsline {subsubsection}{Trabalhos Futuros}{59}{section*.16}}
\bibdata{bibliografia}
\bibcite{2015:EnablingIot}{1}
\bibcite{2016:turco}{2}
\bibcite{2015:smartcities}{3}
\bibcite{2000:webpresence}{4}
\bibcite{PhyGoogle}{5}
\bibcite{1999:Triggers}{6}
\bibcite{BKON}{7}
\bibcite{Levine:2016}{8}
\bibcite{2012:context_browser}{9}
\bibcite{Brookwood:2016}{10}
\bibcite{eddystone_PW:2016}{11}
\bibcite{ABI}{12}
\bibcite{Eddystone}{13}
\bibcite{ibeacon}{14}
\bibcite{2011:Fingerlateration}{15}
\@writefile{toc}{\contentsline {chapter}{Refer\^encias}{60}{section*.17}}
\select@language{american}
\@writefile{toc}{\select@language{american}}
\@writefile{lof}{\select@language{american}}
\@writefile{lot}{\select@language{american}}
\select@language{american}
\@writefile{toc}{\select@language{american}}
\@writefile{lof}{\select@language{american}}
\@writefile{lot}{\select@language{american}}
\bibcite{Combined:2013}{16}
\bibcite{Comparison:2011}{17}
\bibcite{kurose}{18}
\bibcite{TanenbaumBook}{19}
\bibcite{garcia}{20}
\bibcite{IEEE802.15}{21}
\bibcite{IEEE802.15.4}{22}
\bibcite{IEEE802.15.1}{23}
\bibcite{bsig}{24}
\bibcite{BluetoothBook}{25}
\bibcite{TIReport}{26}
\bibcite{2005:802.15.4}{27}
\bibcite{2010:interference}{28}
\bibcite{ZBLE}{29}
\bibcite{ibeacon:2014}{30}
\bibcite{LOSComparison:2008}{31}
\bibcite{AccuracyTOA:2012}{32}
\bibcite{GPSperformance}{33}
\bibcite{Phone_Limitations:2011}{34}
\bibcite{Recursive_estimation:2001}{35}
\bibcite{navstar}{36}
\bibcite{positioning:2013}{37}
\bibcite{2015:Dfilter}{38}
\bibcite{Calibration:2002}{39}
\bibcite{glomoman}{40}
\bibcite{Kalman_intro}{41}
\bibcite{2015:Kalman_explained}{42}
\bibcite{1999:GUIDE}{43}
\bibcite{ble-arduino}{44}
\bibcite{ocupacao-BLE}{45}
\bibcite{KST}{46}
\bibcite{2014:Ion}{47}
\bibcite{2015:Particle}{48}
\bibcite{ZPLAYspec}{49}
\newlabel{TotPaginas}{{76}{62}{}{page.62}{}}
\providecommand\totalcount@set[2]{}
\totalcount@set{figure}{40}
\totalcount@set{table}{12}
\select@language{american}
\@writefile{toc}{\select@language{american}}
\@writefile{lof}{\select@language{american}}
\@writefile{lot}{\select@language{american}}
\select@language{brazil}
\@writefile{toc}{\select@language{brazil}}
\@writefile{lof}{\select@language{brazil}}
\@writefile{lot}{\select@language{brazil}}
