\beamer@endinputifotherversion {3.36pt}
\select@language {brazil}
\beamer@sectionintoc {1}{Cap\IeC {\'\i }tulo 4}{3}{0}{1}
\beamer@subsectionintoc {1}{1}{Fundamentos}{5}{0}{1}
\beamer@subsectionintoc {1}{2}{T\IeC {\'e}cnicas}{20}{0}{1}
\beamer@subsectionintoc {1}{3}{M\IeC {\'e}tricas}{26}{0}{1}
\beamer@subsectionintoc {1}{4}{Processo}{27}{0}{1}
\beamer@subsectionintoc {1}{5}{Ferramentas de aux\IeC {\'\i }lio}{32}{0}{1}
\beamer@sectionintoc {2}{Fichamento}{33}{0}{2}
\beamer@subsectionintoc {2}{1}{Artigo Mutation Testing}{33}{0}{2}
\beamer@sectionintoc {3}{Atividade}{40}{0}{3}
