\beamer@endinputifotherversion {3.36pt}
\headcommand {\slideentry {0}{0}{1}{1/1}{}{0}}
\headcommand {\beamer@framepages {1}{1}}
\headcommand {\slideentry {0}{0}{2}{2/2}{}{0}}
\headcommand {\beamer@framepages {2}{2}}
\headcommand {\sectionentry {1}{Cap\IeC {\'\i }tulo 4}{3}{Cap\IeC {\'\i }tulo 4}{0}}
\headcommand {\beamer@sectionpages {1}{2}}
\headcommand {\beamer@subsectionpages {1}{2}}
\headcommand {\slideentry {1}{0}{1}{3/4}{}{0}}
\headcommand {\beamer@framepages {3}{4}}
\headcommand {\beamer@subsectionentry {0}{1}{1}{5}{Fundamentos}}\headcommand {\beamer@subsectionpages {3}{4}}
\headcommand {\slideentry {1}{1}{1}{5/8}{Fundamentos}{0}}
\headcommand {\beamer@framepages {5}{8}}
\headcommand {\slideentry {1}{1}{2}{9/10}{Fundamentos}{0}}
\headcommand {\beamer@framepages {9}{10}}
\headcommand {\slideentry {1}{1}{3}{11/12}{Fundamentos}{0}}
\headcommand {\beamer@framepages {11}{12}}
\headcommand {\slideentry {1}{1}{4}{13/13}{Fundamentos}{0}}
\headcommand {\beamer@framepages {13}{13}}
\headcommand {\slideentry {1}{1}{5}{14/17}{Fundamentos}{0}}
\headcommand {\beamer@framepages {14}{17}}
\headcommand {\slideentry {1}{1}{6}{18/18}{Fundamentos}{0}}
\headcommand {\beamer@framepages {18}{18}}
\headcommand {\slideentry {1}{1}{7}{19/19}{Fundamentos}{0}}
\headcommand {\beamer@framepages {19}{19}}
\headcommand {\beamer@subsectionentry {0}{1}{2}{20}{T\IeC {\'e}cnicas}}\headcommand {\beamer@subsectionpages {5}{19}}
\headcommand {\slideentry {1}{2}{1}{20/25}{T\IeC {\'e}cnicas}{0}}
\headcommand {\beamer@framepages {20}{25}}
\headcommand {\beamer@subsectionentry {0}{1}{3}{26}{M\IeC {\'e}tricas}}\headcommand {\beamer@subsectionpages {20}{25}}
\headcommand {\slideentry {1}{3}{1}{26/26}{M\IeC {\'e}tricas}{0}}
\headcommand {\beamer@framepages {26}{26}}
\headcommand {\beamer@subsectionentry {0}{1}{4}{27}{Processo}}\headcommand {\beamer@subsectionpages {26}{26}}
\headcommand {\slideentry {1}{4}{1}{27/31}{Processo}{0}}
\headcommand {\beamer@framepages {27}{31}}
\headcommand {\beamer@subsectionentry {0}{1}{5}{32}{Ferramentas de aux\IeC {\'\i }lio}}\headcommand {\beamer@subsectionpages {27}{31}}
\headcommand {\slideentry {1}{5}{1}{32/32}{Ferramentas de aux\IeC {\'\i }lio}{0}}
\headcommand {\beamer@framepages {32}{32}}
\headcommand {\sectionentry {2}{Fichamento}{33}{Fichamento}{0}}
\headcommand {\beamer@sectionpages {3}{32}}
\headcommand {\beamer@subsectionpages {32}{32}}
\headcommand {\beamer@subsectionentry {0}{2}{1}{33}{Artigo Mutation Testing}}\headcommand {\beamer@subsectionpages {33}{32}}
\headcommand {\slideentry {2}{1}{1}{33/33}{Artigo Mutation Testing}{0}}
\headcommand {\beamer@framepages {33}{33}}
\headcommand {\slideentry {2}{1}{2}{34/34}{Artigo Mutation Testing}{0}}
\headcommand {\beamer@framepages {34}{34}}
\headcommand {\slideentry {2}{1}{3}{35/35}{Artigo Mutation Testing}{0}}
\headcommand {\beamer@framepages {35}{35}}
\headcommand {\slideentry {2}{1}{4}{36/36}{Artigo Mutation Testing}{0}}
\headcommand {\beamer@framepages {36}{36}}
\headcommand {\slideentry {2}{1}{5}{37/38}{Artigo Mutation Testing}{0}}
\headcommand {\beamer@framepages {37}{38}}
\headcommand {\slideentry {2}{1}{6}{39/39}{Artigo Mutation Testing}{0}}
\headcommand {\beamer@framepages {39}{39}}
\headcommand {\sectionentry {3}{Atividade}{40}{Atividade}{0}}
\headcommand {\beamer@sectionpages {33}{39}}
\headcommand {\beamer@subsectionpages {33}{39}}
\headcommand {\slideentry {3}{0}{1}{40/40}{}{0}}
\headcommand {\beamer@framepages {40}{40}}
\headcommand {\slideentry {3}{0}{2}{41/41}{}{0}}
\headcommand {\beamer@framepages {41}{41}}
\headcommand {\beamer@partpages {1}{41}}
\headcommand {\beamer@subsectionpages {40}{41}}
\headcommand {\beamer@sectionpages {40}{41}}
\headcommand {\beamer@documentpages {41}}
\headcommand {\def \inserttotalframenumber {22}}
