\relax 
\providecommand\hyper@newdestlabel[2]{}
\providecommand\HyperFirstAtBeginDocument{\AtBeginDocument}
\HyperFirstAtBeginDocument{\ifx\hyper@anchor\@undefined
\global\let\oldcontentsline\contentsline
\gdef\contentsline#1#2#3#4{\oldcontentsline{#1}{#2}{#3}}
\global\let\oldnewlabel\newlabel
\gdef\newlabel#1#2{\newlabelxx{#1}#2}
\gdef\newlabelxx#1#2#3#4#5#6{\oldnewlabel{#1}{{#2}{#3}}}
\AtEndDocument{\ifx\hyper@anchor\@undefined
\let\contentsline\oldcontentsline
\let\newlabel\oldnewlabel
\fi}
\fi}
\global\let\hyper@last\relax 
\gdef\HyperFirstAtBeginDocument#1{#1}
\providecommand\HyField@AuxAddToFields[1]{}
\providecommand\HyField@AuxAddToCoFields[2]{}
\catcode `"\active 
\@writefile{toc}{\beamer@endinputifotherversion {3.36pt}}
\@writefile{nav}{\beamer@endinputifotherversion {3.36pt}}
\select@language{brazil}
\@writefile{toc}{\select@language{brazil}}
\@writefile{lof}{\select@language{brazil}}
\@writefile{lot}{\select@language{brazil}}
\@writefile{nav}{\headcommand {\slideentry {0}{0}{1}{1/1}{}{0}}}
\@writefile{nav}{\headcommand {\beamer@framepages {1}{1}}}
\@writefile{nav}{\headcommand {\slideentry {0}{0}{2}{2/2}{}{0}}}
\@writefile{nav}{\headcommand {\beamer@framepages {2}{2}}}
\@writefile{toc}{\beamer@sectionintoc {1}{Cap\IeC {\'\i }tulo 4}{3}{0}{1}}
\@writefile{nav}{\headcommand {\sectionentry {1}{Cap\IeC {\'\i }tulo 4}{3}{Cap\IeC {\'\i }tulo 4}{0}}}
\@writefile{nav}{\headcommand {\beamer@sectionpages {1}{2}}}
\@writefile{nav}{\headcommand {\beamer@subsectionpages {1}{2}}}
\newlabel{fig:problema}{{1}{3}{Capítulo 4}{Doc-Start}{}}
\@writefile{snm}{\beamer@slide {fig:problema}{3}}
\@writefile{nav}{\headcommand {\slideentry {1}{0}{1}{3/4}{}{0}}}
\@writefile{nav}{\headcommand {\beamer@framepages {3}{4}}}
\@writefile{toc}{\beamer@subsectionintoc {1}{1}{Fundamentos}{5}{0}{1}}
\@writefile{nav}{\headcommand {\beamer@subsectionentry {0}{1}{1}{5}{Fundamentos}}\headcommand {\beamer@subsectionpages {3}{4}}}
\@writefile{nav}{\headcommand {\slideentry {1}{1}{1}{5/8}{Fundamentos}{0}}}
\@writefile{nav}{\headcommand {\beamer@framepages {5}{8}}}
\@writefile{nav}{\headcommand {\slideentry {1}{1}{2}{9/10}{Fundamentos}{0}}}
\@writefile{nav}{\headcommand {\beamer@framepages {9}{10}}}
\@writefile{nav}{\headcommand {\slideentry {1}{1}{3}{11/12}{Fundamentos}{0}}}
\@writefile{nav}{\headcommand {\beamer@framepages {11}{12}}}
\@writefile{nav}{\headcommand {\slideentry {1}{1}{4}{13/13}{Fundamentos}{0}}}
\@writefile{nav}{\headcommand {\beamer@framepages {13}{13}}}
\@writefile{nav}{\headcommand {\slideentry {1}{1}{5}{14/17}{Fundamentos}{0}}}
\@writefile{nav}{\headcommand {\beamer@framepages {14}{17}}}
\@writefile{nav}{\headcommand {\slideentry {1}{1}{6}{18/18}{Fundamentos}{0}}}
\@writefile{nav}{\headcommand {\beamer@framepages {18}{18}}}
\@writefile{nav}{\headcommand {\slideentry {1}{1}{7}{19/19}{Fundamentos}{0}}}
\@writefile{nav}{\headcommand {\beamer@framepages {19}{19}}}
\@writefile{toc}{\beamer@subsectionintoc {1}{2}{T\IeC {\'e}cnicas}{20}{0}{1}}
\@writefile{nav}{\headcommand {\beamer@subsectionentry {0}{1}{2}{20}{T\IeC {\'e}cnicas}}\headcommand {\beamer@subsectionpages {5}{19}}}
\@writefile{nav}{\headcommand {\slideentry {1}{2}{1}{20/25}{T\IeC {\'e}cnicas}{0}}}
\@writefile{nav}{\headcommand {\beamer@framepages {20}{25}}}
\@writefile{toc}{\beamer@subsectionintoc {1}{3}{M\IeC {\'e}tricas}{26}{0}{1}}
\@writefile{nav}{\headcommand {\beamer@subsectionentry {0}{1}{3}{26}{M\IeC {\'e}tricas}}\headcommand {\beamer@subsectionpages {20}{25}}}
\@writefile{nav}{\headcommand {\slideentry {1}{3}{1}{26/26}{M\IeC {\'e}tricas}{0}}}
\@writefile{nav}{\headcommand {\beamer@framepages {26}{26}}}
\@writefile{toc}{\beamer@subsectionintoc {1}{4}{Processo}{27}{0}{1}}
\@writefile{nav}{\headcommand {\beamer@subsectionentry {0}{1}{4}{27}{Processo}}\headcommand {\beamer@subsectionpages {26}{26}}}
\@writefile{nav}{\headcommand {\slideentry {1}{4}{1}{27/31}{Processo}{0}}}
\@writefile{nav}{\headcommand {\beamer@framepages {27}{31}}}
\@writefile{toc}{\beamer@subsectionintoc {1}{5}{Ferramentas de aux\IeC {\'\i }lio}{32}{0}{1}}
\@writefile{nav}{\headcommand {\beamer@subsectionentry {0}{1}{5}{32}{Ferramentas de aux\IeC {\'\i }lio}}\headcommand {\beamer@subsectionpages {27}{31}}}
\@writefile{nav}{\headcommand {\slideentry {1}{5}{1}{32/32}{Ferramentas de aux\IeC {\'\i }lio}{0}}}
\@writefile{nav}{\headcommand {\beamer@framepages {32}{32}}}
\@writefile{toc}{\beamer@sectionintoc {2}{Fichamento}{33}{0}{2}}
\@writefile{nav}{\headcommand {\sectionentry {2}{Fichamento}{33}{Fichamento}{0}}}
\@writefile{nav}{\headcommand {\beamer@sectionpages {3}{32}}}
\@writefile{nav}{\headcommand {\beamer@subsectionpages {32}{32}}}
\@writefile{toc}{\beamer@subsectionintoc {2}{1}{Artigo Mutation Testing}{33}{0}{2}}
\@writefile{nav}{\headcommand {\beamer@subsectionentry {0}{2}{1}{33}{Artigo Mutation Testing}}\headcommand {\beamer@subsectionpages {33}{32}}}
\@writefile{nav}{\headcommand {\slideentry {2}{1}{1}{33/33}{Artigo Mutation Testing}{0}}}
\@writefile{nav}{\headcommand {\beamer@framepages {33}{33}}}
\@writefile{nav}{\headcommand {\slideentry {2}{1}{2}{34/34}{Artigo Mutation Testing}{0}}}
\@writefile{nav}{\headcommand {\beamer@framepages {34}{34}}}
\@writefile{nav}{\headcommand {\slideentry {2}{1}{3}{35/35}{Artigo Mutation Testing}{0}}}
\@writefile{nav}{\headcommand {\beamer@framepages {35}{35}}}
\@writefile{nav}{\headcommand {\slideentry {2}{1}{4}{36/36}{Artigo Mutation Testing}{0}}}
\@writefile{nav}{\headcommand {\beamer@framepages {36}{36}}}
\@writefile{nav}{\headcommand {\slideentry {2}{1}{5}{37/38}{Artigo Mutation Testing}{0}}}
\@writefile{nav}{\headcommand {\beamer@framepages {37}{38}}}
\@writefile{nav}{\headcommand {\slideentry {2}{1}{6}{39/39}{Artigo Mutation Testing}{0}}}
\@writefile{nav}{\headcommand {\beamer@framepages {39}{39}}}
\@writefile{toc}{\beamer@sectionintoc {3}{Atividade}{40}{0}{3}}
\@writefile{nav}{\headcommand {\sectionentry {3}{Atividade}{40}{Atividade}{0}}}
\@writefile{nav}{\headcommand {\beamer@sectionpages {33}{39}}}
\@writefile{nav}{\headcommand {\beamer@subsectionpages {33}{39}}}
\@writefile{nav}{\headcommand {\slideentry {3}{0}{1}{40/40}{}{0}}}
\@writefile{nav}{\headcommand {\beamer@framepages {40}{40}}}
\@writefile{nav}{\headcommand {\slideentry {3}{0}{2}{41/41}{}{0}}}
\@writefile{nav}{\headcommand {\beamer@framepages {41}{41}}}
\@writefile{nav}{\headcommand {\beamer@partpages {1}{41}}}
\@writefile{nav}{\headcommand {\beamer@subsectionpages {40}{41}}}
\@writefile{nav}{\headcommand {\beamer@sectionpages {40}{41}}}
\@writefile{nav}{\headcommand {\beamer@documentpages {41}}}
\@writefile{nav}{\headcommand {\def \inserttotalframenumber {22}}}
