\relax 
\providecommand\hyper@newdestlabel[2]{}
\providecommand\HyperFirstAtBeginDocument{\AtBeginDocument}
\HyperFirstAtBeginDocument{\ifx\hyper@anchor\@undefined
\global\let\oldcontentsline\contentsline
\gdef\contentsline#1#2#3#4{\oldcontentsline{#1}{#2}{#3}}
\global\let\oldnewlabel\newlabel
\gdef\newlabel#1#2{\newlabelxx{#1}#2}
\gdef\newlabelxx#1#2#3#4#5#6{\oldnewlabel{#1}{{#2}{#3}}}
\AtEndDocument{\ifx\hyper@anchor\@undefined
\let\contentsline\oldcontentsline
\let\newlabel\oldnewlabel
\fi}
\fi}
\global\let\hyper@last\relax 
\gdef\HyperFirstAtBeginDocument#1{#1}
\providecommand\HyField@AuxAddToFields[1]{}
\providecommand\HyField@AuxAddToCoFields[2]{}
\catcode `"\active 
\select@language{brazilian}
\@writefile{toc}{\select@language{brazilian}}
\@writefile{lof}{\select@language{brazilian}}
\@writefile{lot}{\select@language{brazilian}}
\@writefile{nav}{\headcommand {\slideentry {0}{0}{1}{1/1}{}{0}}}
\@writefile{nav}{\headcommand {\beamer@framepages {1}{1}}}
\newlabel{fig:pw_uso}{{2}{2}{}{Doc-Start}{}}
\@writefile{snm}{\beamer@slide {fig:pw_uso}{2}}
\@writefile{nav}{\headcommand {\slideentry {0}{0}{2}{2/3}{}{0}}}
\@writefile{nav}{\headcommand {\beamer@framepages {2}{3}}}
\@writefile{nav}{\headcommand {\slideentry {0}{0}{3}{4/6}{}{0}}}
\@writefile{nav}{\headcommand {\beamer@framepages {4}{6}}}
\@writefile{nav}{\headcommand {\slideentry {0}{0}{4}{7/8}{}{0}}}
\@writefile{nav}{\headcommand {\beamer@framepages {7}{8}}}
\newlabel{fig:eddy}{{5}{9}{}{Doc-Start}{}}
\@writefile{snm}{\beamer@slide {fig:eddy}{9}}
\@writefile{nav}{\headcommand {\slideentry {0}{0}{5}{9/9}{}{0}}}
\@writefile{nav}{\headcommand {\beamer@framepages {9}{9}}}
\newlabel{fig:flut}{{6}{10}{}{Doc-Start}{}}
\@writefile{snm}{\beamer@slide {fig:flut}{10}}
\@writefile{nav}{\headcommand {\slideentry {0}{0}{6}{10/10}{}{0}}}
\@writefile{nav}{\headcommand {\beamer@framepages {10}{10}}}
\newlabel{tab:modelos-comp}{{7}{11}{}{Doc-Start}{}}
\@writefile{snm}{\beamer@slide {tab:modelos-comp}{11}}
\@writefile{nav}{\headcommand {\slideentry {0}{0}{7}{11/11}{}{0}}}
\@writefile{nav}{\headcommand {\beamer@framepages {11}{11}}}
\@writefile{nav}{\headcommand {\slideentry {0}{0}{8}{12/12}{}{0}}}
\@writefile{nav}{\headcommand {\beamer@framepages {12}{12}}}
\newlabel{fig:dist_4m}{{1(a)}{13}{Subfigure 1(a)}{Doc-Start}{}}
\@writefile{snm}{\beamer@slide {fig:dist_4m}{13}}
\newlabel{sub@fig:dist_4m}{{(a)}{13}{Subfigure 1(a)\relax }{Doc-Start}{}}
\newlabel{fig:casa_samuel}{{1(b)}{13}{Subfigure 1(b)}{Doc-Start}{}}
\@writefile{snm}{\beamer@slide {fig:casa_samuel}{13}}
\newlabel{sub@fig:casa_samuel}{{(b)}{13}{Subfigure 1(b)\relax }{Doc-Start}{}}
\newlabel{fig:COMNET2}{{1(c)}{13}{Subfigure 1(c)}{Doc-Start}{}}
\@writefile{snm}{\beamer@slide {fig:COMNET2}{13}}
\newlabel{sub@fig:COMNET2}{{(c)}{13}{Subfigure 1(c)\relax }{Doc-Start}{}}
\newlabel{fig:DEP}{{1(d)}{13}{Subfigure 1(d)}{Doc-Start}{}}
\@writefile{snm}{\beamer@slide {fig:DEP}{13}}
\newlabel{sub@fig:DEP}{{(d)}{13}{Subfigure 1(d)\relax }{Doc-Start}{}}
\@writefile{nav}{\headcommand {\slideentry {0}{0}{9}{13/13}{}{0}}}
\@writefile{nav}{\headcommand {\beamer@framepages {13}{13}}}
\@writefile{nav}{\headcommand {\slideentry {0}{0}{10}{14/14}{}{0}}}
\@writefile{nav}{\headcommand {\beamer@framepages {14}{14}}}
\newlabel{tab:modelos-comp2}{{11}{15}{}{Doc-Start}{}}
\@writefile{snm}{\beamer@slide {tab:modelos-comp2}{15}}
\@writefile{nav}{\headcommand {\slideentry {0}{0}{11}{15/15}{}{0}}}
\@writefile{nav}{\headcommand {\beamer@framepages {15}{15}}}
\newlabel{fig:teste}{{12}{16}{}{Doc-Start}{}}
\@writefile{snm}{\beamer@slide {fig:teste}{16}}
\@writefile{nav}{\headcommand {\slideentry {0}{0}{12}{16/16}{}{0}}}
\@writefile{nav}{\headcommand {\beamer@framepages {16}{16}}}
\newlabel{fig:conv}{{13}{17}{}{Doc-Start}{}}
\@writefile{snm}{\beamer@slide {fig:conv}{17}}
\@writefile{nav}{\headcommand {\slideentry {0}{0}{13}{17/17}{}{0}}}
\@writefile{nav}{\headcommand {\beamer@framepages {17}{17}}}
\newlabel{fig:max_dist}{{14}{18}{}{Doc-Start}{}}
\@writefile{snm}{\beamer@slide {fig:max_dist}{18}}
\@writefile{nav}{\headcommand {\slideentry {0}{0}{14}{18/18}{}{0}}}
\@writefile{nav}{\headcommand {\beamer@framepages {18}{18}}}
\newlabel{tab:dist_var}{{15}{19}{}{Doc-Start}{}}
\@writefile{snm}{\beamer@slide {tab:dist_var}{19}}
\newlabel{tab:distanciaIon}{{15}{19}{}{Doc-Start}{}}
\@writefile{snm}{\beamer@slide {tab:distanciaIon}{19}}
\newlabel{fig:comp_dist}{{15}{19}{}{Doc-Start}{}}
\@writefile{snm}{\beamer@slide {fig:comp_dist}{19}}
\@writefile{nav}{\headcommand {\slideentry {0}{0}{15}{19/19}{}{0}}}
\@writefile{nav}{\headcommand {\beamer@framepages {19}{19}}}
\@writefile{nav}{\headcommand {\slideentry {0}{0}{16}{20/20}{}{0}}}
\@writefile{nav}{\headcommand {\beamer@framepages {20}{20}}}
\@writefile{nav}{\headcommand {\beamer@partpages {1}{20}}}
\@writefile{nav}{\headcommand {\beamer@subsectionpages {1}{20}}}
\@writefile{nav}{\headcommand {\beamer@sectionpages {1}{20}}}
\@writefile{nav}{\headcommand {\beamer@documentpages {20}}}
\@writefile{nav}{\headcommand {\def \inserttotalframenumber {16}}}
