\relax 
\providecommand\hyper@newdestlabel[2]{}
\catcode `"\active 
\providecommand\HyperFirstAtBeginDocument{\AtBeginDocument}
\HyperFirstAtBeginDocument{\ifx\hyper@anchor\@undefined
\global\let\oldcontentsline\contentsline
\gdef\contentsline#1#2#3#4{\oldcontentsline{#1}{#2}{#3}}
\global\let\oldnewlabel\newlabel
\gdef\newlabel#1#2{\newlabelxx{#1}#2}
\gdef\newlabelxx#1#2#3#4#5#6{\oldnewlabel{#1}{{#2}{#3}}}
\AtEndDocument{\ifx\hyper@anchor\@undefined
\let\contentsline\oldcontentsline
\let\newlabel\oldnewlabel
\fi}
\fi}
\global\let\hyper@last\relax 
\gdef\HyperFirstAtBeginDocument#1{#1}
\providecommand\HyField@AuxAddToFields[1]{}
\providecommand\HyField@AuxAddToCoFields[2]{}
\select@language{portuges}
\@writefile{toc}{\select@language{portuges}}
\@writefile{lof}{\select@language{portuges}}
\@writefile{lot}{\select@language{portuges}}
\@writefile{toc}{\contentsline {section}{\numberline {1}Introdu\IeC {\c c}\IeC {\~a}o}{1}{section.1}}
\@writefile{toc}{\contentsline {subsection}{\numberline {1.1}Requisitos}{1}{subsection.1.1}}
\@writefile{toc}{\contentsline {subsection}{\numberline {1.2}Instala\IeC {\c c}\IeC {\~a}o}{1}{subsection.1.2}}
\@writefile{toc}{\contentsline {section}{\numberline {2}Tema \tema }{2}{section.2}}
\@writefile{toc}{\contentsline {subsection}{\numberline {2.1}Marca UnB}{2}{subsection.2.1}}
\@writefile{lof}{\contentsline {figure}{\numberline {1}{\ignorespaces Arquivo \texttt  {UnBMarca.pdf}.}}{2}{figure.1}}
\@writefile{toc}{\contentsline {subsection}{\numberline {2.2}Cor}{2}{subsection.2.2}}
\@writefile{toc}{\contentsline {subsection}{\numberline {2.3}Fonte}{3}{subsection.2.3}}
\@writefile{toc}{\contentsline {subsection}{\numberline {2.4}Estrutura Interna}{3}{subsection.2.4}}
\@writefile{toc}{\contentsline {subsection}{\numberline {2.5}Estrutura Externa}{3}{subsection.2.5}}
\@writefile{toc}{\contentsline {section}{\numberline {3}Classe \unbeamer }{3}{section.3}}
\@writefile{toc}{\contentsline {subsection}{\numberline {3.1}Op\IeC {\c c}\IeC {\~o}es}{3}{subsection.3.1}}
\@writefile{toc}{\contentsline {subsection}{\numberline {3.2}Blocos}{4}{subsection.3.2}}
\@writefile{toc}{\contentsline {subsection}{\numberline {3.3}Comandos Auxiliares}{4}{subsection.3.3}}
\@writefile{toc}{\contentsline {subsection}{\numberline {3.4}Exemplo de Apresenta\IeC {\c c}\IeC {\~a}o}{4}{subsection.3.4}}
\@writefile{toc}{\contentsline {subsection}{\numberline {3.5}Exemplo de P\IeC {\^o}ster}{8}{subsection.3.5}}
