\select@language {brazil}
\contentsline {figure}{\numberline {1}{\ignorespaces Logotipo \textit {Physical Web}}}{5}
\contentsline {figure}{\numberline {2}{\ignorespaces Possibilidade para uso de \textit {Physical Web}}}{6}
\contentsline {figure}{\numberline {3}{\ignorespaces Coexist\IeC {\^e}ncia 802.15.4 e 802.11}}{7}
\contentsline {figure}{\numberline {4}{\ignorespaces Arquitetura Zigbee}}{7}
\contentsline {figure}{\numberline {5}{\ignorespaces Canais para anuncia\IeC {\c c}\IeC {\~a}o BLE}}{9}
\contentsline {figure}{\numberline {6}{\ignorespaces Espectro BLE X Wi-Fi}}{9}
\contentsline {figure}{\numberline {7}{\ignorespaces Modelos de dispositivos BLE}}{10}
\contentsline {figure}{\numberline {8}{\ignorespaces Especifica\IeC {\c c}\IeC {\~a}o principal BLE}}{10}
\contentsline {figure}{\numberline {9}{\ignorespaces Especifica\IeC {\c c}\IeC {\~a}o dados iBeacon}}{11}
\contentsline {figure}{\numberline {10}{\ignorespaces Moldura dos pacotes UID,URL e TLM do eddystone}}{13}
\contentsline {figure}{\numberline {11}{\ignorespaces Trilatera\IeC {\c c}\IeC {\~a}o}}{15}
