\begin{thebibliography}{10}

\bibitem{1999:Triggers}
Shankar~Ponnekanti Andrew C.~Huang, Benjamin C.~Ling.
\newblock Pervasive computing: What is it good for?
\newblock {\em International Workshop on Data Engineering for Wireless and
  Mobile Access}, 1999.

\bibitem{ibeacon}
Apple.
\newblock ibeacon.
\newblock https://developer.apple.com/ibeacon/.

\bibitem{ibeacon:2014}
Apple.
\newblock {\em Getting Started with iBeacon}.
\newblock Apple, jun 2014.

\bibitem{BKON}
BKON.
\newblock Bkon.
\newblock https://bkon.com/.

\bibitem{Combined:2013}
Ramon F.~Brenna Carlos E. Galván-Tejada, José C. Carrasco-Jiménez.
\newblock Bluetooth-wifi based combined positioning algorithm, implementation
  and experimental evaluation.
\newblock {\em The 2013 Iberoamerican Conference on Electronics Engineering and
  Computer Science}, 2013.

\bibitem{2010:interference}
Jie Liu Andreas~Terzis Chieh-Jan Mike~Liang, Nissanka Bodhi~Priyantha.
\newblock Surviving wi-fi interference in low power zigbee networks.
\newblock {\em SenSys 2010 ACM}, 2010.

\bibitem{1999:GUIDE}
N.~Davies, K.~Cheverst, K.~Mitchell, and A.~Friday.
\newblock `caches in the air': disseminating tourist information in the guide
  system.
\newblock {\em WMCSA'99}, 1999.

\bibitem{2015:smartcities}
Manfed Sneps-Sneppe Dmitry~Namiot.
\newblock The physical web in smart cities.
\newblock {\em IEEE}, 2015.

\bibitem{Brookwood:2016}
KATIE EVANS.
\newblock Beacons go to school.
\newblock https://www.mobilestrategies360.com/2016/01/14/beacons-go-school,
  janeiro 2016, acessado em 15 de Julho 2016 2016.

\bibitem{2011:Fingerlateration}
Halabi Hasbullah Sheikh Tahir~Bakhsh Fazli~Subhan, Azat~Rozyyev.
\newblock Indoor positioning in bluetooth networks using fingerprinting and
  lateration approach.
\newblock {\em IEEE}, 2011.

\bibitem{Gimbal}
Gimbal.
\newblock Gimbal.
\newblock http://www.gimbal.com/.

\bibitem{PhyGoogle}
Google.
\newblock Physical web.
\newblock https://github.com/google/physical-web, acessado em 10 de Julho 2016.

\bibitem{2005:802.15.4}
José~A. Gutierrez.
\newblock Ieee 802.15.4 enabling pervasive wireless sensor networks.
\newblock
  https://people.eecs.berkeley.edu/~prabal/teaching/cs294-11-f05/slides/day21.pdf,
  acessado em 2 de Julho de 2016.

\bibitem{Recursive_estimation:2001}
Lixia~Zhang Joe~Albowicz, Alvin~Chen.
\newblock Recursive position estimation in sensor networks.
\newblock {\em IEEE}, 2001.

\bibitem{Calibration:2002}
David~Culler Kamin~Whitehouse.
\newblock Calibration as parameter estimation in sensor networks.
\newblock {\em WSNA}, 2002.

\bibitem{KST}
KST.
\newblock Kst.
\newblock https://kstechnologies.com/.

\bibitem{Levine:2016}
Barry Levine.
\newblock With the physical web, you become the search engine.
\newblock
  http://marketingland.com/with-the-physical-web-you-become-the-search-engine-165338,
  fevereiro 2016, acessado em 17 de Julho 2016 2016.

\bibitem{2012:context_browser}
Dmitry Namiot.
\newblock Context-aware browsing – a practical approach.
\newblock {\em IEEE}, 2012.

\bibitem{Comparison:2011}
Adrien Van Den~Bossche Rejane~Dalce, Thierry~Val.
\newblock Comparison of indoor localization systems based on wireless
  communications.
\newblock {\em Wireless Engineering and Technology}, 2011.

\bibitem{2015:EnablingIot}
Bill N.~Schilit Roy~Want and Scott Jenson.
\newblock Enabling internet of things.
\newblock {\em IEEE Computer Society}, 2015.

\bibitem{TanenbaumBook}
Wheterall Tanenbaum.
\newblock {\em Computer Networks}.
\newblock Pearson, 2011.

\bibitem{2000:webpresence}
Jeff Morgan Gene Becker Debbie Caswell Philippe Debaty Gita Gopal Marcos Frid
  Venky Krishnan Howard Morris John Schettino Bill Serra Mirjana~Spasojevic
  Tim~Kindberg, John~Barton.
\newblock People, places, things: Web presence for the real world.
\newblock {\em IEEE}, 2000.

\bibitem{eddystone_PW:2016}
Tomas Trnka.
\newblock Eddystone beacon technology and the physical web.
\newblock
  https://mobiforge.com/design-development/eddystone-beacon-technology-and-the-physical-web,
  acessado em 27 de Julho de 2016.

\bibitem{2016:turco}
Milan~Herrera Vargas.
\newblock Indoor navigation using bluetooth low energy beacons.
\newblock {\em Turkey University}, 2016.

\bibitem{positioning:2013}
Yutian Zhao Yue Liu Laurie~Cuthbert Yapeng~Wang, Xu~Yang.
\newblock Bluetooth positioning using rssi and triangulation methods.
\newblock {\em IEEE Consumer Communications and Networking Conference(CCNC)},
  pages 837--842, 2013.

\end{thebibliography}
