\relax 
\catcode `"\active 
\bibstyle{plain}
\providecommand \oddpage@label [2]{}
\select@language{brazil}
\@writefile{toc}{\select@language{brazil}}
\@writefile{lof}{\select@language{brazil}}
\@writefile{lot}{\select@language{brazil}}
\citation{BKON}
\citation{KST}
\citation{Gimbal}
\citation{eddystone}
\citation{ibeacon}
\@writefile{toc}{\contentsline {section}{\numberline {1}Introdu\IeC {\c c}\IeC {\~a}o}{3}}
\@writefile{toc}{\contentsline {subsection}{\numberline {1.1}Objetivos}{3}}
\@writefile{toc}{\contentsline {subsection}{\numberline {1.2}Metodologia da pesquisa}{3}}
\@writefile{toc}{\contentsline {subsection}{\numberline {1.3}Resultados}{4}}
\@writefile{toc}{\contentsline {subsection}{\numberline {1.4}Estrutura do documento}{4}}
\citation{TanenbaumBook}
\citation{2015:EnablingIot}
\citation{2015:smartcities}
\citation{PhyGoogle}
\citation{2000:webpresence}
\citation{1999:Triggers}
\citation{Levine:2016}
\citation{2012:context_browser}
\citation{Brookwood:2016}
\@writefile{toc}{\contentsline {section}{\numberline {2}Fundamenta\IeC {\c c}\IeC {\~a}o te\IeC {\'o}rica}{5}}
\@writefile{toc}{\contentsline {subsection}{\numberline {2.1}\textit  {Physical Web}}{5}}
\@writefile{lof}{\contentsline {figure}{\numberline {1}{\ignorespaces Logotipo \textit  {Physical Web}}}{5}}
\newlabel{fig:logo_pw}{{1}{5}}
\citation{eddystone_PW:2016}
\citation{2012:context_browser}
\citation{2005:802.15.4}
\citation{2010:interference}
\@writefile{lof}{\contentsline {figure}{\numberline {2}{\ignorespaces Possibilidade para uso de \textit  {Physical Web}}}{6}}
\newlabel{fig:uso_pw}{{2}{6}}
\@writefile{toc}{\contentsline {subsection}{\numberline {2.2}Tecnologias para comunica\IeC {\c c}\IeC {\~a}o sem fio}{6}}
\@writefile{toc}{\contentsline {subsubsection}{\numberline {2.2.1}IEEE 802.15.4}{6}}
\@writefile{lof}{\contentsline {figure}{\numberline {3}{\ignorespaces Coexist\IeC {\^e}ncia 802.15.4 e 802.11}}{7}}
\newlabel{fig:zbchan}{{3}{7}}
\@writefile{lof}{\contentsline {figure}{\numberline {4}{\ignorespaces Arquitetura Zigbee}}{7}}
\newlabel{fig:zbarc}{{4}{7}}
\@writefile{toc}{\contentsline {subsubsection}{\numberline {2.2.2}Bluetooth}{7}}
\@writefile{lot}{\contentsline {table}{\numberline {1}{\ignorespaces Tipos de PDU}}{9}}
\newlabel{tab:PDUt}{{1}{9}}
\@writefile{lof}{\contentsline {figure}{\numberline {5}{\ignorespaces Canais para anuncia\IeC {\c c}\IeC {\~a}o BLE}}{9}}
\newlabel{fig:BLE-chan}{{5}{9}}
\@writefile{lof}{\contentsline {figure}{\numberline {6}{\ignorespaces Espectro BLE X Wi-Fi}}{9}}
\newlabel{fig:BLE-spectrum}{{6}{9}}
\@writefile{toc}{\contentsline {subsection}{\numberline {2.3}BLE Beacons e Protocolos de encapsulamento de dados}{9}}
\@writefile{toc}{\contentsline {subsubsection}{\numberline {2.3.1}BLE Beacons}{9}}
\@writefile{lof}{\contentsline {figure}{\numberline {7}{\ignorespaces Modelos de dispositivos BLE}}{10}}
\newlabel{fig:beacons_modelos}{{7}{10}}
\@writefile{lof}{\contentsline {figure}{\numberline {8}{\ignorespaces Especifica\IeC {\c c}\IeC {\~a}o principal BLE}}{10}}
\newlabel{fig:BLEcore}{{8}{10}}
\@writefile{toc}{\contentsline {subsubsection}{\numberline {2.3.2}Protocolos de encapsulamento de dados}{10}}
\citation{ibeacon:2014}
\@writefile{lof}{\contentsline {figure}{\numberline {9}{\ignorespaces Especifica\IeC {\c c}\IeC {\~a}o dados iBeacon}}{11}}
\newlabel{fig:ib_spec}{{9}{11}}
\@writefile{lot}{\contentsline {table}{\numberline {2}{\ignorespaces Indica\IeC {\c c}\IeC {\~a}o para tipos de moldura}}{11}}
\newlabel{tab:frames}{{2}{11}}
\citation{Comparison:2011}
\citation{Recursive_estimation:2001}
\citation{Comparison:2011}
\citation{positioning:2013}
\citation{2015:Dfilter}
\citation{Calibration:2002}
\@writefile{lot}{\contentsline {table}{\numberline {3}{\ignorespaces Prefixo para terceiro byte Eddystone-URL}}{12}}
\newlabel{tab:URLprefix}{{3}{12}}
\@writefile{toc}{\contentsline {subsection}{\numberline {2.4}Tecnologias para localiza\IeC {\c c}\IeC {\~a}o e posicionamento espacial interno}{12}}
\@writefile{lof}{\contentsline {figure}{\numberline {10}{\ignorespaces Moldura dos pacotes UID,URL e TLM do eddystone}}{13}}
\newlabel{fig:frametypes}{{10}{13}}
\@writefile{toc}{\contentsline {subsubsection}{\numberline {2.4.1}\textit  {Fingerprinting}}{13}}
\@writefile{toc}{\contentsline {subsubsection}{\numberline {2.4.2}Calculando a dist\IeC {\^a}ncia com sinais de frequ\IeC {\^e}ncia}{13}}
\citation{Calibration:2002}
\citation{Comparison:2011}
\citation{positioning:2013}
\citation{2016:turco}
\citation{positioning:2013}
\citation{Comparison:2011}
\@writefile{toc}{\contentsline {subsubsection}{\numberline {2.4.3}Trilatera\IeC {\c c}\IeC {\~a}o}{14}}
\@writefile{lof}{\contentsline {figure}{\numberline {11}{\ignorespaces Trilatera\IeC {\c c}\IeC {\~a}o}}{15}}
\newlabel{fig:trilateration}{{11}{15}}
\citation{2000:webpresence}
\citation{1999:GUIDE}
\citation{1999:Triggers}
\citation{Combined:2013}
\citation{2011:Fingerlateration}
\@writefile{toc}{\contentsline {section}{\numberline {3}Trabalhos relacionados}{16}}
\bibdata{bibtex}
\bibcite{1999:Triggers}{1}
\bibcite{ibeacon}{2}
\bibcite{ibeacon:2014}{3}
\bibcite{BKON}{4}
\bibcite{Combined:2013}{5}
\bibcite{2010:interference}{6}
\bibcite{1999:GUIDE}{7}
\bibcite{2015:smartcities}{8}
\bibcite{Brookwood:2016}{9}
\bibcite{2011:Fingerlateration}{10}
\bibcite{Gimbal}{11}
\bibcite{PhyGoogle}{12}
\bibcite{2005:802.15.4}{13}
\bibcite{Recursive_estimation:2001}{14}
\bibcite{Calibration:2002}{15}
\bibcite{KST}{16}
\bibcite{Levine:2016}{17}
\bibcite{2012:context_browser}{18}
\bibcite{Comparison:2011}{19}
\bibcite{2015:EnablingIot}{20}
\bibcite{TanenbaumBook}{21}
\bibcite{2000:webpresence}{22}
\bibcite{eddystone_PW:2016}{23}
\bibcite{2016:turco}{24}
\bibcite{positioning:2013}{25}
