-61;-61.00;-61.00;-61.00
-60;-60.50;-60.49;-60.00
-61;-60.67;-60.67;-60.67
-59;-60.25;-60.22;-60.33
-68;-61.80;-61.99;-60.97
-59;-61.33;-61.39;-60.43
-61;-61.29;-61.32;-60.71
-59;-61.00;-60.91;-60.45
-58;-60.67;-60.43;-60.39
-68;-61.40;-61.64;-61.01
-69;-62.09;-62.79;-60.97
-70;-62.75;-63.90;-61.24
-62;-62.69;-63.61;-60.84
-61;-62.57;-63.22;-60.88
-59;-62.33;-62.59;-60.63
-59;-62.12;-62.06;-60.67
-68;-62.47;-62.94;-61.05
-58;-62.22;-62.21;-60.56
-61;-62.16;-62.03;-60.83
-66;-62.35;-62.61;-61.01
-66;-62.52;-63.11;-61.15
-67;-62.73;-63.68;-61.34
-57;-62.48;-62.70;-60.36
-58;-62.29;-62.01;-60.46
-66;-62.44;-62.60;-61.32