-72;-72.00;-72.00;-72.00
-70;-71.00;-70.99;-70.00
-69;-70.33;-70.30;-71.26
-67;-69.50;-69.40;-70.51
-80;-71.60;-71.82;-71.48
-70;-71.33;-71.46;-70.84
-68;-70.86;-70.82;-71.04
-68;-70.50;-70.33;-70.81
-70;-70.44;-70.27;-70.96
-70;-70.40;-70.23;-70.88
-68;-70.18;-69.88;-70.84
-68;-70.00;-69.59;-70.78
-67;-69.77;-69.20;-70.73
-74;-70.07;-69.92;-71.01
-68;-69.93;-69.63;-70.73
-72;-70.06;-69.98;-71.01
-67;-69.88;-69.54;-70.68
-66;-69.67;-69.02;-70.67
-76;-70.00;-70.05;-71.05
-66;-69.80;-69.45;-70.61
-70;-69.81;-69.53;-70.89
-73;-69.95;-70.04;-70.96
-70;-69.96;-70.04;-70.85
-67;-69.83;-69.59;-70.71
-70;-69.84;-69.65;-70.83