-58;-58.00;-58.00;-58.00
-57;-57.50;-57.49;-57.00
-58;-57.67;-57.67;-57.70
-59;-58.00;-58.03;-57.44
-59;-58.20;-58.25;-57.66
-59;-58.33;-58.40;-57.59
-55;-57.86;-57.77;-57.48
-59;-58.00;-57.99;-57.63
-58;-58.00;-57.99;-57.55
-56;-57.80;-57.67;-57.51
-57;-57.73;-57.57;-57.53
-55;-57.50;-57.17;-57.42
-57;-57.46;-57.15;-57.51
-58;-57.50;-57.27;-57.52
-59;-57.60;-57.53;-57.60
-59;-57.69;-57.75;-57.60
-53;-57.41;-57.05;-57.35
-53;-57.17;-56.45;-57.35
-60;-57.32;-56.97;-57.58
-60;-57.45;-57.42;-57.58
-59;-57.52;-57.65;-57.63
-56;-57.45;-57.41;-57.48
-57;-57.43;-57.35;-57.54
-61;-57.58;-57.88;-57.67
-59;-57.64;-58.05;-57.61