-57;-57,00;-57,00;-57,00
-56;-56,00;-56,00;-56,51
-56;-56,00;-56,00;-56,44
-55;-55,67;-55,65;-56,07
-56;-55,75;-55,75;-56,15
-52;-55,00;-54,89;-55,46
-52;-54,50;-54,31;-55,18
-53;-54,29;-54,06;-54,74
-57;-54,62;-54,57;-55,09
-54;-54,56;-54,48;-54,86
-52;-54,30;-54,08;-54,62
-52;-54,09;-53,76;-54,32
-54;-54,08;-53,79;-54,40
-51;-53,85;-53,37;-54,04
-53;-53,79;-53,32;-54,09
-51;-53,60;-52,97;-53,78
-55;-53,69;-53,27;-54,01
-57;-53,88;-53,82;-54,18
-54;-53,89;-53,85;-54,03
-52;-53,79;-53,58;-53,89
-56;-53,90;-53,93;-54,15
-57;-54,05;-54,38;-54,30
-54;-54,05;-54,33;-54,16
-53;-54,00;-54,13;-54,09
-55;-54,04;-54,26;-54,20
