\relax 
\catcode `"\active 
\select@language{brazil}
\@writefile{toc}{\select@language{brazil}}
\@writefile{lof}{\select@language{brazil}}
\@writefile{lot}{\select@language{brazil}}
\@writefile{toc}{\contentsline {section}{\numberline {1}Introdu\IeC {\c c}\IeC {\~a}o}{1}}
\@writefile{toc}{\contentsline {section}{\numberline {2}Justificativa}{1}}
\@writefile{toc}{\contentsline {section}{\numberline {3}Objetivos}{2}}
\@writefile{toc}{\contentsline {subsection}{\numberline {3.1}Geral}{2}}
\@writefile{toc}{\contentsline {subsection}{\numberline {3.2}Espec\IeC {\'\i }ficos}{2}}
\@writefile{toc}{\contentsline {section}{\numberline {4}Metodologia da Pesquisa}{2}}
\@writefile{toc}{\contentsline {section}{\numberline {5}Bibliogr\IeC {\'a}fia Consultada}{2}}
