-51;-51,00;-51,00;-51,00
-58;-54,50;-54,54;-58,00
-59;-56,00;-56,09;-53,76
-59;-56,75;-56,88;-55,81
-51;-55,60;-55,54;-54,18
-50;-54,67;-54,42;-54,80
-52;-54,29;-53,97;-54,33
-51;-53,88;-53,45;-54,49
-51;-53,56;-53,05;-54,31
-50;-53,20;-52,56;-54,31
-50;-52,91;-52,16;-54,23
-59;-53,42;-53,21;-54,61
-51;-53,23;-52,87;-54,24
-51;-53,07;-52,59;-54,33
-52;-53,00;-52,50;-54,24
-50;-52,81;-52,13;-54,17
-51;-52,71;-51,97;-54,19
-50;-52,56;-51,68;-54,11
-50;-52,42;-51,43;-54,10
-58;-52,70;-52,39;-54,54
-57;-52,90;-53,07;-54,54
-59;-53,18;-53,94;-54,72
-50;-53,04;-53,36;-54,23
-50;-52,92;-52,87;-54,22
-51;-52,84;-52,60;-54,17
-56;-53,04;-53,09;-54,41
-58;-53,04;-53,81;-54,49
-57;-52,96;-54,28;-54,52
-52;-52,68;-53,94;-54,28
-56;-52,88;-54,24;-54,51
