-63;-63,00;-63,00;-63,00
-64;-63,50;-63,51;-64,00
-70;-65,67;-65,76;-63,61
-76;-68,25;-68,54;-64,27
-68;-68,20;-68,41;-63,92
-66;-67,83;-67,93;-64,02
-66;-67,57;-67,57;-63,96
-65;-67,25;-67,12;-63,95
-66;-67,11;-66,94;-63,99
-64;-66,80;-66,47;-63,89
-72;-67,27;-67,33;-64,52
-69;-67,42;-67,59;-64,23
-67;-67,38;-67,50;-64,28
-65;-67,21;-67,12;-64,09
-67;-67,20;-67,11;-64,26
-70;-67,38;-67,53;-64,55
-67;-67,35;-67,46;-64,29
-70;-67,50;-67,83;-64,54
-64;-67,32;-67,27;-64,11
-68;-67,35;-67,37;-64,43
-64;-67,19;-66,88;-64,10
-66;-67,14;-66,75;-64,30
-64;-67,00;-66,35;-64,10
-70;-67,12;-66,88;-64,49
-70;-67,24;-67,34;-64,52
-66;-67,36;-67,14;-64,34
-63;-67,32;-66,54;-64,15
-65;-67,12;-66,31;-64,24
-72;-66,96;-67,14;-64,91
-71;-67,08;-67,71;-64,72
