-61;-61,00;-61,00;-61,00
-61;-61,00;-61,00;-61,00
-61;-61,00;-61,00;-61,00
-66;-62,25;-62,36;-61,23
-64;-62,60;-62,73;-61,17
-64;-62,83;-62,99;-61,27
-63;-62,86;-62,99;-61,22
-60;-62,50;-62,47;-61,13
-67;-63,00;-63,22;-61,43
-62;-62,90;-63,03;-61,19
-61;-62,73;-62,71;-61,25
-69;-63,25;-63,67;-61,54
-67;-63,54;-64,18;-61,49
-61;-63,36;-63,70;-61,32
-60;-63,13;-63,15;-61,27
-60;-62,94;-62,68;-61,21
-59;-62,71;-62,14;-61,14
-59;-62,50;-61,68;-61,12
-61;-62,42;-61,58;-61,18
-68;-62,70;-62,52;-61,49
-60;-62,57;-62,15;-61,16
-60;-62,45;-61,84;-61,27
-60;-62,35;-61,57;-61,15
-64;-62,42;-61,92;-61,37
-57;-62,20;-61,20;-61,01
-59;-62,12;-60,88;-61,17
-63;-62,20;-61,19;-61,23
-66;-62,40;-61,89;-61,42
-64;-62,32;-62,20;-61,36
-62;-62,24;-62,17;-61,33
