-70;-70,00;-70,00;-70,00
-70;-70,00;-70,00;-70,00
-70;-70,00;-70,00;-70,00
-70;-70,00;-70,00;-70,00
-71;-70,20;-70,23;-70,04
-70;-70,17;-70,18;-70,01
-70;-70,14;-70,15;-70,02
-72;-70,38;-70,47;-70,10
-72;-70,56;-70,72;-70,11
-68;-70,30;-70,29;-69,94
-70;-70,27;-70,24;-70,04
-71;-70,33;-70,36;-70,09
-69;-70,23;-70,15;-69,97
-70;-70,21;-70,13;-70,03
-70;-70,20;-70,11;-70,02
-72;-70,31;-70,39;-70,17
-74;-70,53;-70,92;-70,27
-71;-70,56;-70,93;-70,14
-72;-70,63;-71,09;-70,23
-70;-70,60;-70,93;-70,07
-71;-70,62;-70,94;-70,16
-71;-70,64;-70,95;-70,13
-74;-70,78;-71,40;-70,32
-74;-70,92;-71,78;-70,28
-73;-71,00;-71,96;-70,31
-71;-71,04;-71,82;-70,20
-70;-71,04;-71,55;-70,17
-72;-71,12;-71,62;-70,23
-72;-71,20;-71,67;-70,23
-72;-71,24;-71,72;-70,24
