-70;-70,00;-70,00;-70,00
-74;-72,00;-72,02;-74,00
-71;-71,67;-71,67;-71,36
-70;-71,25;-71,22;-72,51
-67;-70,40;-70,25;-71,52
-74;-71,00;-71,01;-72,20
-73;-71,29;-71,38;-71,83
-70;-71,12;-71,14;-71,94
-70;-71,00;-70,95;-71,80
-71;-71,00;-70,96;-71,88
-73;-71,18;-71,28;-71,92
-71;-71,17;-71,24;-71,85
-72;-71,23;-71,35;-71,91
-73;-71,36;-71,60;-71,93
-73;-71,47;-71,81;-71,95
-69;-71,31;-71,39;-71,79
-67;-71,06;-70,74;-71,70
-67;-70,83;-70,19;-71,64
-73;-70,95;-70,60;-71,86
-72;-71,00;-70,81;-71,79
-71;-71,00;-70,84;-71,83
-67;-70,82;-70,28;-71,58
-71;-70,83;-70,38;-71,80
-70;-70,79;-70,33;-71,67
-75;-70,96;-71,01;-72,08
-71;-71,00;-71,01;-71,75
-70;-70,84;-70,86;-71,75
-70;-70,80;-70,73;-71,71
-69;-70,76;-70,48;-71,61
-70;-70,88;-70,41;-71,69
