-62;-62,00;-62,00;-62,00
-63;-62,50;-62,51;-63,00
-61;-62,00;-61,98;-62,25
-62;-62,00;-61,99;-62,61
-65;-62,60;-62,68;-62,51
-63;-62,67;-62,74;-62,54
-64;-62,86;-62,97;-62,56
-63;-62,88;-62,98;-62,54
-62;-62,78;-62,82;-62,50
-70;-63,50;-63,97;-62,93
-61;-63,27;-63,50;-62,43
-62;-63,17;-63,27;-62,62
-60;-62,92;-62,78;-62,39
-62;-62,86;-62,66;-62,54
-61;-62,73;-62,41;-62,41
-62;-62,69;-62,35;-62,51
-70;-63,12;-63,48;-62,81
-71;-63,56;-64,59;-62,90
-65;-63,63;-64,65;-62,76
-71;-64,00;-65,58;-63,06
-69;-64,24;-66,08;-62,94
-69;-64,45;-66,51;-63,06
-62;-64,35;-65,85;-62,72
-62;-64,25;-65,29;-62,76
-63;-64,20;-64,95;-62,68
-66;-64,36;-65,10;-62,83
-71;-64,68;-65,97;-63,03
-62;-64,72;-65,39;-62,70
-62;-64,72;-64,89;-62,77
-71;-64,96;-65,78;-63,05
