-51;-51;-51;-51;-61;-61;-61;-61;-61;-61;-61;-61;-63;-63;-63;-63;-72;-72;-72;-72;-68;-68;-68;-68
-58;-54.5;-54.54;-58;-61;-61;-61;-61;-60;-60.5;-60.49;-60;-64;-63.5;-63.51;-64;-70;-71;-70.99;-70;-72;-70;-70.02;-72
-59;-56;-56.09;-53.76;-61;-61;-61;-61;-61;-60.67;-60.67;-60.67;-70;-65.67;-65.76;-63.61;-69;-70.33;-70.3;-71.26;-66;-68.67;-68.63;-69.16
-59;-56.75;-56.88;-55.81;-66;-62.25;-62.36;-61.23;-59;-60.25;-60.22;-60.33;-76;-68.25;-68.54;-64.27;-67;-69.5;-69.4;-70.51;-67;-68.25;-68.19;-70.29
-51;-55.6;-55.54;-54.18;-64;-62.6;-62.73;-61.17;-68;-61.8;-61.99;-60.97;-68;-68.2;-68.41;-63.92;-80;-71.6;-71.82;-71.48;-66;-67.8;-67.69;-69.44
-50;-54.67;-54.42;-54.8;-64;-62.83;-62.99;-61.27;-59;-61.33;-61.39;-60.43;-66;-67.83;-67.93;-64.02;-70;-71.33;-71.46;-70.84;-67;-67.67;-67.55;-69.8
-52;-54.29;-53.97;-54.33;-63;-62.86;-62.99;-61.22;-61;-61.29;-61.32;-60.71;-66;-67.57;-67.57;-63.96;-68;-70.86;-70.82;-71.04;-69;-67.86;-67.82;-69.63
-51;-53.88;-53.45;-54.49;-60;-62.5;-62.47;-61.13;-59;-61;-60.91;-60.45;-65;-67.25;-67.12;-63.95;-68;-70.5;-70.33;-70.81;-68;-67.88;-67.85;-69.66
-51;-53.56;-53.05;-54.31;-67;-63;-63.22;-61.43;-58;-60.67;-60.43;-60.39;-66;-67.11;-66.94;-63.99;-70;-70.44;-70.27;-70.96;-67;-67.78;-67.71;-69.52
-50;-53.2;-52.56;-54.31;-62;-62.9;-63.03;-61.19;-68;-61.4;-61.64;-61.01;-64;-66.8;-66.47;-63.89;-70;-70.4;-70.23;-70.88;-71;-68.1;-68.24;-69.79
-50;-52.91;-52.16;-54.23;-61;-62.73;-62.71;-61.25;-69;-62.09;-62.79;-60.97;-72;-67.27;-67.33;-64.52;-68;-70.18;-69.88;-70.84;-70;-68.27;-68.51;-69.67
-59;-53.42;-53.21;-54.61;-69;-63.25;-63.67;-61.54;-70;-62.75;-63.9;-61.24;-69;-67.42;-67.59;-64.23;-68;-70;-69.59;-70.78;-67;-68.17;-68.28;-69.57
-51;-53.23;-52.87;-54.24;-67;-63.54;-64.18;-61.49;-62;-62.69;-63.61;-60.84;-67;-67.38;-67.5;-64.28;-67;-69.77;-69.2;-70.73;-67;-68.08;-68.09;-69.5
-51;-53.07;-52.59;-54.33;-61;-63.36;-63.7;-61.32;-61;-62.57;-63.22;-60.88;-65;-67.21;-67.12;-64.09;-74;-70.07;-69.92;-71.01;-68;-68.07;-68.07;-69.56
-52;-53;-52.5;-54.24;-60;-63.13;-63.15;-61.27;-59;-62.33;-62.59;-60.63;-67;-67.2;-67.11;-64.26;-68;-69.93;-69.63;-70.73;-66;-67.93;-67.76;-69.39
-50;-52.81;-52.13;-54.17;-60;-62.94;-62.68;-61.21;-59;-62.12;-62.06;-60.67;-70;-67.38;-67.53;-64.55;-72;-70.06;-69.98;-71.01;-68;-67.94;-67.8;-69.54
-51;-52.71;-51.97;-54.19;-59;-62.71;-62.14;-61.14;-68;-62.47;-62.94;-61.05;-67;-67.35;-67.46;-64.29;-67;-69.88;-69.54;-70.68;-67;-67.88;-67.68;-69.44
-50;-52.56;-51.68;-54.11;-59;-62.5;-61.68;-61.12;-58;-62.22;-62.21;-60.56;-70;-67.5;-67.83;-64.54;-66;-69.67;-69.02;-70.67;-66;-67.78;-67.43;-69.41
-50;-52.42;-51.43;-54.1;-61;-62.42;-61.58;-61.18;-61;-62.16;-62.03;-60.83;-64;-67.32;-67.27;-64.11;-76;-70;-70.05;-71.05;-66;-67.68;-67.22;-69.39
-58;-52.7;-52.39;-54.54;-68;-62.7;-62.52;-61.49;-66;-62.35;-62.61;-61.01;-68;-67.35;-67.37;-64.43;-66;-69.8;-69.45;-70.61;-66;-67.6;-67.04;-69.38
-57;-52.9;-53.07;-54.54;-60;-62.57;-62.15;-61.16;-66;-62.52;-63.11;-61.15;-64;-67.19;-66.88;-64.1;-70;-69.81;-69.53;-70.89;-67;-67.57;-67.04;-69.4
-59;-53.18;-53.94;-54.72;-60;-62.45;-61.84;-61.27;-67;-62.73;-63.68;-61.34;-66;-67.14;-66.75;-64.3;-73;-69.95;-70.04;-70.96;-72;-67.77;-67.76;-69.71
-50;-53.04;-53.36;-54.23;-60;-62.35;-61.57;-61.15;-57;-62.48;-62.7;-60.36;-64;-67;-66.35;-64.1;-70;-69.96;-70.04;-70.85;-67;-67.74;-67.65;-69.36
-50;-52.92;-52.87;-54.22;-64;-62.42;-61.92;-61.37;-58;-62.29;-62.01;-60.46;-70;-67.12;-66.88;-64.49;-67;-69.83;-69.59;-70.71;-67;-67.71;-67.56;-69.34
-51;-52.84;-52.6;-54.17;-57;-62.2;-61.2;-61.01;-66;-62.44;-62.6;-61.32;-70;-67.24;-67.34;-64.52;-70;-69.84;-69.65;-70.83;-66;-67.64;-67.33;-69.26
