-63,00;-73,00;-85,00;9,93;-45,85
-63,00;-73,00;-78,93;9,93;-27,93
-65,53;-73,00;-78,93;9,79;-21,96
-65,53;-69,46;-78,93;8,61;-19,70
-65,53;-69,46;-75,48;7,90;-16,68
-63,96;-69,46;-75,48;7,47;-14,66
-63,96;-65,83;-75,48;6,83;-13,45
-63,96;-65,83;-75,62;6,34;-12,57
-62,89;-65,83;-75,62;5,98;-11,88
-62,89;-65,83;-72,97;5,69;-10,96
-64,05;-65,83;-72,97;4,99;-6,64
-64,05;-65,06;-72,97;4,26;-5,92
-65,26;-65,06;-72,97;3,54;-5,21
-65,26;-65,06;-74,19;3,28;-4,35
-66,50;-65,06;-74,19;2,98;-4,33
-66,50;-64,82;-74,19;2,65;-4,31
-66,50;-64,82;-74,52;2,56;-4,19
-66,76;-64,82;-74,52;2,46;-4,04
-66,76;-64,25;-74,52;2,33;-3,90
-66,76;-64,25;-73,91;2,20;-4,06
-67,30;-64,25;-73,91;2,07;-4,21
-67,30;-64,57;-73,91;1,98;-4,34
-67,30;-64,57;-73,76;1,92;-4,45
-68,05;-64,57;-73,76;1,83;-4,40
-68,05;-64,99;-73,76;1,79;-4,35
-68,05;-64,99;-73,32;1,75;-4,23
-68,36;-64,99;-73,32;1,71;-4,07
-68,36;-64,99;-73,42;1,67;-3,92
-69,38;-64,99;-73,42;1,62;-3,75
-69,38;-64,99;-74,74;1,56;-3,85
-68,56;-64,99;-74,74;1,55;-3,95
-68,56;-64,83;-74,74;1,52;-4,06
-68,56;-64,83;-74,17;1,49;-4,11
-68,18;-64,83;-74,17;1,50;-4,16
-68,18;-64,83;-74,90;1,49;-4,32
-68,60;-64,83;-74,90;1,47;-4,54
-68,60;-64,83;-74,62;1,45;-4,72
-68,81;-64,83;-74,62;1,43;-4,88
-64,06;-68,81;-74,62;1,42;-5,07
-68,54;-64,06;-74,62;1,41;-5,07
-63,74;-68,54;-74,62;1,37;-5,08
-63,74;-68,54;-74,08;1,33;-5,01
-67,58;-63,74;-74,08;1,32;-5,02
-67,58;-64,08;-74,08;1,31;-5,03
-67,58;-64,08;-71,12;1,30;-4,62
-64,08;-70,58;-71,12;1,19;-4,20
-64,68;-70,58;-71,12;1,11;-3,82
-64,68;-65,80;-70,58;1,03;-3,17
-68,59;-64,68;-65,80;1,06;-2,50
-68,59;-65,47;-65,80;1,11;-1,80
-68,59;-64,36;-65,47;1,17;-1,07
-68,21;-64,36;-65,47;1,25;-0,40
-68,21;-64,36;-67,64;1,41;0,33
-63,43;-68,21;-67,64;1,56;1,08
-67,59;-63,43;-67,64;1,73;1,52
-62,63;-67,59;-67,64;2,01;1,98
-67,07;-62,63;-67,64;2,29;2,42
-67,07;-62,63;-67,99;2,59;2,60
-67,07;-63,27;-67,99;2,81;2,78
-63,27;-68,52;-67,99;2,95;2,93
-63,38;-68,52;-67,99;3,09;3,04
-63,38;-69,47;-67,99;3,18;3,15
-63,38;-68,23;-67,99;3,21;3,19
-63,38;-68,23;-67,25;3,18;3,18
-68,23;-63,76;-67,25;3,14;3,15
-68,23;-64,09;-67,25;3,09;3,11
-66,59;-64,09;-67,25;3,08;3,06
-66,59;-64,09;-68,83;3,16;3,08
-66,59;-63,35;-68,83;3,23;3,12
-65,48;-63,35;-68,83;3,37;3,16
-65,48;-63,35;-70,91;3,72;3,33
-65,48;-63,29;-70,91;4,10;3,51
-65,41;-63,29;-70,91;4,43;3,68
-65,41;-63,29;-69,90;4,71;3,82
-65,41;-63,69;-69,90;4,99;3,95
-63,74;-63,69;-69,90;5,29;4,09
-63,74;-63,69;-69,77;5,53;4,23
-63,74;-64,47;-69,77;5,67;4,27
-63,34;-64,47;-69,77;5,81;4,30
-63,34;-64,47;-69,80;5,93;4,33
-63,34;-65,57;-69,80;5,85;4,20
-63,34;-65,57;-71,15;5,91;4,17
-63,34;-64,90;-71,15;5,97;4,15
-62,85;-64,90;-71,15;6,14;4,20
-62,85;-64,90;-70,98;6,30;4,25
-62,85;-64,62;-70,98;6,43;4,31
-62,44;-64,62;-70,98;6,57;4,37
-62,44;-64,62;-70,54;6,67;4,42
-62,44;-64,24;-70,54;6,76;4,47
-62,44;-64,24;-70,46;6,84;4,52
-62,44;-65,08;-70,46;6,92;4,58
-61,79;-65,08;-70,46;6,86;4,54
-61,79;-65,08;-70,40;6,79;4,48
-61,79;-65,80;-70,40;6,71;4,40
-61,79;-65,80;-70,92;6,72;4,37
-61,79;-65,97;-70,92;6,72;4,33
-61,79;-65,97;-71,52;6,80;4,34
-61,79;-65,25;-71,52;6,92;4,40
-61,79;-65,25;-70,57;6,93;4,37
-61,79;-64,92;-70,57;6,95;4,36
-61,79;-63,91;-70,57;6,97;4,40
-61,79;-63,91;-69,31;6,85;4,35
-61,79;-63,34;-69,31;6,75;4,32
-62,40;-63,34;-69,31;6,64;4,32
-62,40;-63,34;-68,83;6,43;4,24
-62,40;-63,29;-68,83;6,22;4,18
-61,47;-63,29;-68,83;5,94;4,06
-61,47;-63,29;-69,15;5,69;3,94
-61,47;-63,10;-69,15;5,56;3,90
-60,67;-63,10;-69,15;5,43;3,85
-60,67;-63,10;-69,27;5,32;3,79
-60,67;-63,96;-69,27;5,32;3,78
-60,57;-63,96;-69,27;5,33;3,77
-58,00;-63,00;-70,47;5,32;3,85
-58,00;-61,48;-70,47;5,35;3,98
-58,00;-61,48;-69,27;5,31;4,03
-57,49;-61,48;-69,27;5,27;4,08
-57,49;-61,66;-69,27;5,20;4,12
-58,36;-61,66;-69,27;5,12;4,15
-58,36;-61,75;-69,27;5,04;4,18
-58,36;-61,75;-70,01;4,99;4,24
-58,36;-61,75;-70,23;4,95;4,34
-58,26;-61,75;-70,23;4,92;4,44
-58,26;-61,35;-70,23;4,90;4,45
-58,26;-61,35;-69,38;4,84;4,38
-58,43;-61,35;-69,38;4,84;4,39
-58,43;-60,67;-69,38;4,85;4,41
-58,43;-60,67;-69,68;4,86;4,45
-58,43;-60,73;-69,68;4,89;4,48
-58,43;-60,73;-70,78;4,97;4,59
-58,55;-60,73;-70,78;5,02;4,66
-58,55;-60,43;-70,78;5,05;4,72
-58,55;-60,43;-69,98;5,03;4,72
-59,00;-60,43;-69,98;5,02;4,71
-59,00;-60,36;-69,98;5,05;4,76
-59,00;-60,36;-70,31;5,10;4,83
-59,00;-60,62;-70,31;5,15;4,89
-59,00;-60,62;-71,67;5,27;5,04
-59,00;-60,62;-71,67;5,40;5,19
-59,00;-62,25;-71,67;5,46;5,24
-59,00;-62,25;-71,72;5,52;5,29
-59,00;-62,05;-71,72;5,59;5,35
-58,84;-62,05;-71,72;5,70;5,46
-58,84;-61,89;-71,72;5,81;5,57
-58,84;-61,89;-71,91;5,94;5,70
-58,00;-60,00;-68,00;5,84;5,27
-58,00;-60,51;-68,00;5,73;4,84
-59,01;-60,51;-68,00;5,52;4,31
-59,01;-60,51;-69,01;5,36;3,81
-60,51;-65,60;-69,01;5,16;3,38
-57,21;-65,60;-69,01;4,95;3,00
-57,21;-65,60;-71,09;4,86;2,68
-57,21;-62,73;-71,09;4,80;2,33
-56,88;-62,73;-71,09;4,73;1,98
-56,88;-62,73;-67,81;4,48;1,52
-56,88;-62,79;-67,81;4,45;1,59
-55,54;-62,79;-67,81;4,43;1,68
-55,54;-62,79;-68,54;4,43;1,78
-55,54;-61,62;-68,54;4,40;1,84
-55,54;-61,62;-67,62;4,37;1,83
-55,54;-60,95;-67,62;4,35;1,77
-55,63;-60,95;-67,62;4,21;1,63
-55,63;-60,95;-66,77;4,01;1,51
-59,58;-60,00;-60,82;2,45;-0,12
-59,58;-60,00;-62,57;2,56;-0,06
-59,32;-60,00;-62,57;2,60;-0,04
-59,32;-60,00;-62,57;2,62;-0,03
-58,79;-60,00;-62,57;2,64;-0,03
-58,79;-60,00;-61,71;2,63;-0,04
-59,13;-60,00;-61,71;2,62;-0,05
-59,13;-60,00;-61,15;2,61;-0,06
-59,13;-60,69;-61,15;2,60;-0,08
-59,11;-60,69;-61,15;2,59;-0,10
-59,11;-60,08;-60,69;2,58;-0,12
-59,11;-60,08;-60,23;2,55;-0,14
-59,11;-59,17;-60,23;2,52;-0,17
-59,11;-59,17;-60,41;2,48;-0,20
-59,11;-60,41;-61,81;2,47;-0,21
-58,79;-60,41;-61,81;2,47;-0,22
-58,79;-60,53;-61,81;2,47;-0,23
-58,79;-60,53;-60,66;2,47;-0,24
-58,79;-60,43;-60,66;2,46;-0,24
-58,79;-60,12;-60,43;2,45;-0,24
-58,97;-60,12;-60,43;2,46;-0,24
-58,97;-60,12;-60,36;2,46;-0,24
-58,97;-59,66;-60,36;2,46;-0,24
-59,13;-59,66;-60,36;2,47;-0,24
-59,13;-59,66;-62,78;2,44;-0,31
-59,13;-61,91;-62,78;2,44;-0,36
-59,13;-61,91;-62,34;2,44;-0,40
-59,13;-62,34;-63,54;2,48;-0,42
-58,96;-62,34;-63,54;2,52;-0,44
-58,96;-62,60;-63,54;2,56;-0,47
-58,96;-62,60;-64,48;2,63;-0,48
-58,82;-62,60;-64,48;2,69;-0,50
-58,82;-62,60;-63,24;2,73;-0,53
-58,40;-62,60;-63,24;2,78;-0,56
-58,40;-62,33;-62,60;2,81;-0,54
-58,64;-62,33;-62,60;2,82;-0,53
-58,64;-61,89;-62,33;2,83;-0,52
-58,64;-61,40;-61,89;2,80;-0,53
-58,54;-61,40;-61,89;2,77;-0,53
-58,54;-61,40;-62,67;2,74;-0,56
-58,54;-62,67;-62,81;2,71;-0,58
-58,32;-62,67;-62,81;2,68;-0,60
-58,32;-62,67;-63,71;2,69;-0,60
-58,32;-61,82;-63,71;2,70;-0,57
-58,86;-61,82;-63,71;2,72;-0,54
-58,86;-61,82;-62,15;2,72;-0,52
-58,86;-62,15;-63,03;2,71;-0,55
-60,19;-62,15;-63,03;2,72;-0,57
-60,19;-61,54;-63,03;2,71;-0,59
-60,19;-61,54;-62,88;2,71;-0,59
-62,21;-61,54;-62,88;2,67;-0,58
-62,21;-61,75;-62,88;2,64;-0,57
-62,21;-61,75;-62,31;2,60;-0,56
-62,91;-61,75;-62,31;2,54;-0,56
-62,91;-61,64;-62,31;2,49;-0,56
-62,91;-61,38;-61,64;2,47;-0,53
-63,95;-61,38;-61,64;2,43;-0,45
-63,95;-61,38;-61,70;2,40;-0,38
-63,95;-60,59;-61,70;2,38;-0,29
-64,54;-60,59;-61,70;2,36;-0,19
-64,54;-60,59;-61,89;2,34;-0,11
-59,77;-64,54;-61,89;2,33;-0,01
-59,77;-65,49;-61,89;2,30;0,08
-59,77;-65,49;-62,93;2,30;0,18
-59,77;-66,15;-62,93;2,28;0,28
-59,77;-66,15;-65,57;2,32;0,40
-61,27;-66,15;-65,57;2,37;0,47
-64,96;-61,27;-65,57;2,43;0,53
-64,96;-61,27;-63,88;2,46;0,54
-64,96;-61,52;-63,88;2,49;0,55
-63,94;-61,52;-63,88;2,52;0,54
-63,94;-61,52;-62,43;2,54;0,50
-63,94;-61,30;-62,43;2,56;0,45
-63,51;-61,30;-62,43;2,57;0,40
-63,51;-61,30;-61,64;2,58;0,32
-63,51;-61,11;-61,64;2,53;0,22
-62,70;-61,11;-61,64;2,49;0,14
-62,70;-61,11;-63,88;2,48;0,09
-62,70;-62,70;-63,88;2,49;0,03
-62,02;-62,70;-63,88;2,52;-0,03
-62,02;-62,70;-66,09;2,58;-0,05
-62,02;-62,31;-66,09;2,67;-0,04
-62,02;-62,31;-64,76;2,72;-0,06
-62,02;-62,12;-64,76;2,78;-0,07
-61,87;-62,12;-64,76;2,84;-0,08
-61,87;-62,12;-63,78;2,88;-0,10
-61,87;-61,81;-63,78;2,92;-0,10
-61,89;-61,81;-63,78;2,92;-0,13
-61,89;-61,54;-63,78;2,93;-0,10
-60,88;-61,54;-63,78;2,93;-0,08
-60,88;-61,54;-65,27;2,92;-0,07
-60,88;-61,02;-65,27;2,90;-0,06
-61,19;-61,02;-65,27;2,92;-0,03
-61,19;-61,02;-63,48;2,90;-0,02
-61,19;-61,02;-63,48;2,87;-0,02
-61,19;-61,02;-62,68;2,86;-0,01
-61,19;-61,02;-62,68;2,85;-0,01
-61,19;-61,02;-62,14;2,82;-0,01
-61,02;-61,02;-62,14;2,80;-0,02
-61,02;-60,80;-61,02;2,76;-0,03
-61,02;-60,80;-61,16;2,68;-0,06
-61,02;-61,16;-63,32;2,64;-0,09
-61,02;-62,75;-63,32;2,61;-0,15
-61,02;-62,54;-62,75;2,59;-0,21
-61,02;-62,54;-64,24;2,58;-0,31
-61,02;-62,54;-65,08;2,58;-0,44
-61,02;-64,51;-65,08;2,61;-0,55
-61,02;-64,51;-65,80;2,65;-0,69
-61,02;-65,80;-66,19;2,73;-0,81
-60,58;-65,80;-66,19;2,83;-0,92
-60,58;-64,99;-65,80;2,90;-1,04
-60,58;-65,80;-66,45;2,97;-1,16
-60,58;-66,42;-66,45;3,05;-1,28
-60,58;-64,63;-66,42;3,09;-1,41
-60,58;-64,63;-65,77;3,13;-1,46
-59,91;-64,63;-65,77;3,17;-1,48
-59,91;-62,93;-65,77;3,14;-1,53
-59,91;-62,93;-65,51;3,12;-1,54
-59,48;-62,93;-65,51;3,06;-1,58
-59,48;-61,92;-65,51;2,98;-1,62
-59,48;-61,92;-64,71;2,93;-1,60
-59,12;-61,92;-64,71;2,84;-1,61
-59,12;-60,47;-64,71;2,74;-1,60
-59,12;-60,47;-64,17;2,68;-1,54
-58,81;-60,47;-64,17;2,63;-1,51
-58,81;-59,38;-64,17;2,56;-1,49
-59,42;-59,38;-64,17;2,52;-1,45
-59,42;-59,38;-65,16;2,48;-1,46
-59,21;-59,38;-65,16;2,44;-1,47
-59,21;-59,38;-64,26;2,42;-1,43
-59,21;-60,64;-64,26;2,40;-1,42
-58,89;-60,64;-64,26;2,39;-1,41
-58,89;-61,71;-64,26;2,40;-1,39
-58,76;-61,71;-64,26;2,42;-1,38
-58,76;-61,71;-63,93;2,43;-1,37
-58,76;-60,44;-63,93;2,44;-1,35
-59,23;-60,44;-63,93;2,45;-1,34
-59,23;-60,23;-63,93;2,46;-1,29
-58,91;-60,23;-63,93;2,47;-1,23
-58,91;-60,23;-63,65;2,48;-1,21
-58,91;-59,32;-63,65;2,47;-1,20
-58,91;-59,32;-63,41;2,45;-1,17
-58,91;-58,40;-63,41;2,42;-1,16
-58,91;-58,40;-63,06;2,39;-1,14
-58,91;-57,75;-63,06;2,35;-1,13
-59,80;-57,75;-63,06;2,33;-1,10
-59,80;-57,75;-62,76;2,31;-1,08
-59,80;-58,67;-62,76;2,29;-1,04
-65,00;-61,00;-63,00;2,12;-0,35
-60,47;-65,00;-61,00;2,12;-0,04
-60,47;-65,00;-67,07;2,53;0,30
-62,47;-60,47;-67,07;2,79;0,40
-62,47;-59,96;-67,07;2,94;0,48
-62,47;-59,96;-62,54;2,87;0,44
-61,27;-59,96;-62,54;2,83;0,39
-61,27;-59,70;-62,54;2,80;0,36
-61,27;-59,68;-59,70;2,74;0,32
-60,11;-59,68;-59,70;2,70;0,28
-60,11;-59,68;-60,45;2,72;0,29
-60,11;-59,07;-60,45;2,73;0,23
-59,63;-59,07;-60,45;2,63;0,10
-59,63;-59,07;-60,16;2,50;0,01
-59,63;-60,16;-62,49;2,41;-0,07
-59,90;-60,16;-62,49;2,43;-0,09
-59,90;-62,49;-62,72;2,43;-0,17
-59,90;-62,72;-65,36;2,49;-0,21
-59,37;-62,72;-65,36;2,59;-0,24
-59,37;-64,68;-65,36;2,68;-0,33
-59,37;-63,39;-64,68;2,73;-0,43
-59,30;-63,39;-64,68;2,78;-0,53
-59,30;-63,39;-63,90;2,83;-0,59
-59,30;-62,50;-63,90;2,87;-0,67
-59,25;-62,50;-63,90;2,87;-0,77
-59,25;-62,50;-63,44;2,87;-0,86
-59,25;-61,78;-63,44;2,87;-0,89
-59,25;-61,78;-63,21;2,81;-0,94
-59,21;-61,78;-63,21;2,74;-1,00
-59,21;-61,78;-63,03;2,68;-0,98
-59,21;-63,03;-63,69;2,68;-0,91
-59,18;-63,03;-63,69;2,69;-0,85
-59,18;-63,02;-63,69;2,69;-0,82
-59,18;-63,02;-65,27;2,75;-0,76
-59,46;-63,02;-65,27;2,80;-0,70
-59,46;-62,42;-65,27;2,85;-0,64
-59,46;-62,42;-63,56;2,88;-0,59
-58,94;-62,42;-63,56;2,90;-0,55
-58,94;-61,91;-63,56;2,93;-0,50
-58,94;-61,91;-62,73;2,95;-0,47
-58,94;-61,92;-62,73;2,93;-0,45
-58,94;-61,92;-64,41;2,95;-0,41
-58,79;-61,92;-64,41;2,96;-0,37
-58,79;-63,56;-64,41;2,94;-0,40
-58,79;-63,56;-65,83;2,96;-0,41
-58,79;-65,10;-65,83;2,98;-0,50
-58,79;-64,08;-65,10;2,99;-0,60
-58,79;-64,08;-64,35;3,00;-0,65
-58,79;-63,19;-64,35;2,99;-0,74
-58,38;-63,19;-64,35;3,00;-0,81
-58,38;-63,19;-64,15;3,01;-0,88
-58,38;-62,72;-64,15;2,98;-0,97
-58,38;-62,72;-64,71;2,95;-1,08
-58,47;-62,72;-64,71;2,93;-1,14
-58,47;-62,72;-65,49;2,86;-1,25
-58,47;-61,44;-65,49;2,78;-1,32
-58,70;-61,44;-65,49;2,74;-1,36
-58,70;-60,20;-65,49;2,69;-1,44
-58,45;-60,20;-65,49;2,65;-1,52
-58,45;-60,20;-64,68;2,62;-1,55
-58,45;-59,88;-64,68;2,57;-1,60
-58,23;-59,88;-64,68;2,54;-1,64
-58,23;-59,88;-64,15;2,51;-1,63
-58,23;-62,09;-64,15;2,50;-1,62
-58,05;-62,09;-64,15;2,49;-1,57
-58,05;-60,91;-64,15;2,49;-1,52
-58,48;-60,91;-64,15;2,48;-1,46
-58,48;-62,82;-64,15;2,51;-1,39
-58,56;-62,82;-64,15;2,55;-1,31
-58,56;-62,82;-63,39;2,58;-1,25
-58,56;-63,39;-64,46;2,64;-1,16
-59,21;-63,39;-64,46;2,70;-1,07
-59,21;-63,04;-64,46;2,76;-0,99
-59,21;-62,93;-63,04;2,77;-0,94
-60,20;-62,93;-63,04;2,78;-0,89
-60,20;-62,01;-62,93;2,80;-0,80
-60,20;-62,16;-62,93;2,82;-0,71
-59,73;-62,16;-62,93;2,81;-0,64
-59,73;-61,26;-62,93;2,81;-0,55
-60,50;-61,26;-62,93;2,81;-0,48
-60,50;-61,26;-63,38;2,78;-0,42
-61,89;-61,26;-63,38;2,75;-0,36
-61,89;-61,07;-63,38;2,71;-0,30
-61,89;-61,06;-63,38;2,71;-0,23
-61,89;-61,06;-63,03;2,70;-0,17
-61,89;-61,06;-64,05;2,71;-0,12
-63,22;-61,06;-64,05;2,72;-0,06
-63,22;-61,06;-64,77;2,73;0,01
-63,92;-61,06;-64,77;2,74;0,07
-63,92;-60,91;-64,77;2,75;0,12
-63,92;-60,91;-64,51;2,75;0,17
-63,92;-60,92;-64,51;2,76;0,21
-63,92;-60,92;-64,88;2,78;0,25
-63,64;-60,92;-64,88;2,79;0,29
-63,64;-61,52;-64,88;2,82;0,31
-63,64;-61,52;-64,31;2,81;0,32
-64,72;-61,52;-64,31;2,80;0,33
-58,48;-63,06;-74,00;8,32;2,46
-57,97;-63,06;-74,00;8,32;2,45
-57,97;-67,20;-74,00;8,33;1,81
-57,71;-67,20;-74,00;8,33;1,49
-57,71;-66,88;-74,00;8,33;1,34
-58,69;-66,88;-74,00;8,33;1,24
-58,69;-68,73;-74,00;8,33;0,98
-59,15;-68,73;-74,00;8,32;0,79
-59,15;-68,38;-74,00;8,32;0,67
-59,15;-66,09;-74,00;8,32;0,72
-59,15;-67,29;-74,00;8,31;0,53
-59,15;-67,29;-71,47;8,07;0,20
-59,15;-68,07;-71,47;7,84;0,01
-59,15;-68,07;-75,12;7,97;0,04
-58,76;-68,07;-75,12;8,12;0,05
-58,76;-68,07;-68,85;7,73;-0,26
-58,76;-65,66;-68,85;7,34;-0,28
-58,76;-65,66;-70,49;7,04;-0,25
-58,76;-63,68;-70,49;6,74;-0,17
-58,45;-63,68;-70,49;6,44;-0,24
-58,45;-63,68;-67,96;6,02;-0,32
-58,45;-66,34;-67,96;5,83;-0,37
-59,37;-66,34;-67,96;5,64;-0,37
-59,37;-65,01;-66,34;4,97;-0,63
-58,99;-65,01;-66,34;4,31;-0,90
-58,99;-66,34;-66,57;4,23;-0,83
-58,84;-66,34;-66,57;4,14;-0,92
-58,84;-64,98;-66,34;3,93;-1,08
-58,84;-64,98;-65,23;3,71;-1,26
-59,01;-64,98;-65,23;3,50;-1,44
-59,01;-65,23;-65,79;3,42;-1,54
-58,71;-65,23;-65,79;3,35;-1,53
-58,71;-63,09;-65,79;3,29;-1,43
-58,44;-63,00;-74,00;8,10;3,72
-59,46;-58,44;-74,00;8,19;3,60
-59,46;-57,25;-74,00;8,22;3,61
-59,46;-57,25;-72,99;7,97;3,45
-58,26;-57,25;-72,99;7,82;3,35
-58,73;-57,25;-72,99;7,73;3,29
-58,73;-57,45;-72,99;7,66;3,24
-58,73;-57,45;-72,30;7,53;3,16
-58,33;-57,45;-72,30;7,43;3,09
-58,33;-57,45;-72,22;7,34;3,03
-57,86;-57,45;-72,22;7,19;2,91
-57,86;-57,81;-72,22;7,01;2,81
-57,86;-57,81;-67,60;6,58;2,55
-58,44;-57,81;-67,60;6,25;2,34
-58,44;-57,81;-65,86;5,86;2,11
-59,06;-57,81;-65,86;5,47;1,89
-59,06;-57,81;-66,44;5,10;1,67
-58,89;-57,81;-66,44;4,79;1,49
-58,89;-56,83;-66,44;4,48;1,32
-58,89;-56,83;-66,71;4,19;1,16
-58,58;-56,83;-66,71;3,89;1,00
-58,18;-56,83;-66,71;3,60;0,84
-58,18;-60,01;-66,71;3,57;0,79
-58,18;-60,01;-65,93;3,52;0,73
-58,61;-60,01;-65,93;3,52;0,70
-58,61;-59,49;-65,93;3,52;0,67
-58,67;-59,49;-65,93;3,51;0,64
-58,42;-59,49;-65,93;3,50;0,61
-58,42;-59,91;-65,93;3,48;0,56
-58,42;-59,91;-64,50;3,43;0,48
-58,42;-59,76;-64,50;3,37;0,41
-58,42;-59,76;-63,48;3,29;0,33
-58,66;-59,76;-63,48;3,22;0,29
-58,66;-59,76;-63,87;3,17;0,27
-58,66;-59,17;-63,87;3,12;0,26
-58,11;-59,17;-63,87;3,08;0,23
-58,11;-59,17;-64,19;3,04;0,21
-58,11;-58,53;-64,19;3,00;0,20
-57,51;-58,53;-64,19;2,96;0,20
-57,51;-58,00;-64,19;2,96;0,22
-57,29;-58,00;-64,19;2,96;0,23
-57,29;-58,00;-64,01;2,97;0,26
-57,24;-58,00;-64,01;2,98;0,29
-57,24;-58,00;-63,57;2,98;0,30
-57,24;-58,00;-63,33;2,97;0,31
-57,24;-58,30;-63,33;2,97;0,31
-57,65;-58,30;-63,33;2,95;0,32
-57,65;-58,30;-62,69;2,93;0,30
-57,65;-58,40;-62,69;2,90;0,29
-58,14;-58,40;-62,69;2,87;0,27
-58,14;-58,40;-62,00;2,84;0,25
-58,14;-57,90;-62,00;2,80;0,23
-58,12;-57,90;-62,00;2,77;0,22
-58,12;-57,90;-63,18;2,76;0,22
-58,12;-57,62;-63,18;2,75;0,23
-57,95;-57,62;-63,18;2,75;0,24
-57,95;-57,62;-63,30;2,75;0,25
-57,95;-57,09;-63,30;2,76;0,27
-57,96;-57,09;-63,30;2,77;0,29
-57,96;-57,09;-63,55;2,78;0,31
-57,96;-56,63;-63,55;2,80;0,34
-57,82;-56,63;-63,55;2,83;0,37
-57,82;-56,63;-63,61;2,85;0,40
-57,82;-56,83;-63,61;2,86;0,41
-57,55;-56,83;-63,61;2,87;0,42
-57,55;-56,56;-63,61;2,88;0,44
-57,77;-56,56;-63,61;2,89;0,45
-57,77;-56,56;-64,26;2,90;0,47
-57,77;-57,21;-64,26;2,92;0,47
-58,82;-57,21;-64,26;2,93;0,48
-58,82;-57,21;-63,63;2,93;0,48
-58,82;-57,21;-64,27;2,94;0,49
-58,82;-57,33;-64,27;2,95;0,49
-59,43;-57,33;-64,27;2,96;0,50
-59,43;-57,33;-63,65;2,95;0,50
-59,43;-56,84;-63,65;2,95;0,51
-59,81;-56,84;-63,65;2,94;0,52
-59,81;-58,18;-63,65;2,92;0,50
-61,00;-79,00;-75,00;-4,34;-4,74
-56,95;-79,00;-75,00;-4,50;-4,83
-56,95;-77,99;-75,00;-4,16;-5,39
-56,95;-69,43;-77,99;-3,99;-3,32
-52,11;-69,43;-77,99;-3,93;-2,10
-52,11;-69,43;-76,95;-3,72;-1,51
-50,45;-69,43;-76,95;-3,57;-1,09
-50,45;-69,28;-76,95;-3,46;-0,76
-48,52;-69,28;-76,95;-3,38;-0,50
-48,52;-69,28;-77,51;-3,36;-0,23
-48,52;-69,75;-77,51;-3,25;0,42
-48,01;-69,75;-77,51;-3,11;1,09
-48,01;-69,75;-76,71;-3,01;1,82
-48,01;-72,09;-76,71;-2,91;1,31
-48,01;-76,56;-72,09;-2,79;0,80
-48,01;-71,06;-76,56;-2,76;0,56
-46,90;-71,06;-76,56;-2,73;0,33
-66,96;-72,05;-82,00;-2,28;-9,92
-62,12;-72,05;-82,00;-1,92;-19,96
-62,12;-72,05;-77,95;-1,52;-24,05
-62,12;-74,81;-77,95;-1,24;-27,29
-58,02;-74,81;-77,95;-1,01;-30,45
-58,02;-74,81;-75,19;-0,84;-31,32
-58,02;-75,13;-75,19;-0,70;-31,76
-54,36;-75,13;-75,19;-0,58;-32,16
-54,36;-74,87;-75,19;-0,45;-32,80
-54,36;-74,87;-73,78;-0,32;-32,68
-54,36;-75,71;-73,78;-0,67;-22,23
-53,48;-75,71;-73,78;-0,91;-11,96
-53,48;-75,71;-73,83;-1,16;-7,75
-53,39;-75,71;-73,83;-1,28;-4,34
-53,39;-75,71;-72,05;-1,35;-0,28
-53,39;-73,72;-72,05;-1,32;0,87
-56,62;-73,72;-72,05;-1,25;1,87
-56,62;-73,72;-71,48;-1,16;3,03
-56,62;-72,56;-71,48;-1,04;3,96
-58,84;-72,56;-71,48;-0,90;4,10
-58,84;-72,56;-71,40;-0,71;3,94
-58,84;-73,13;-71,40;-0,54;3,92
-59,51;-73,13;-71,40;-0,36;3,90
-59,51;-73,13;-70,34;-0,19;4,19
-59,51;-74,23;-70,34;-0,06;4,08
-62,71;-74,23;-70,34;-0,02;4,62
-62,71;-74,23;-70,28;0,01;5,20
-62,71;-74,51;-70,28;0,02;5,68
-62,60;-74,51;-70,28;-0,02;6,49
-62,60;-69,62;-74,51;-0,07;7,48
-62,60;-69,62;-75,19;-0,16;8,71
-61,60;-69,62;-75,19;-0,24;9,81
-61,60;-69,06;-75,19;-0,33;11,04
-61,60;-69,06;-75,92;-0,47;12,28
-60,16;-69,06;-75,92;-0,57;13,22
-60,16;-69,06;-75,78;-0,70;14,17
-58,20;-69,06;-75,78;-0,84;15,14
-58,20;-68,29;-75,78;-0,97;16,15
-58,20;-68,29;-77,31;-1,22;17,94
-58,17;-68,29;-77,31;-1,47;19,56
-58,17;-68,29;-76,52;-1,61;20,51
-58,29;-68,29;-76,52;-1,74;21,42
-58,84;-68,29;-76,52;-1,86;22,21
-58,84;-68,29;-77,77;-2,05;23,40
-59,60;-68,29;-77,77;-2,21;24,55
-59,60;-68,29;-78,98;-2,52;26,61
-59,60;-68,29;-79,72;-2,92;29,26
-59,36;-68,29;-79,72;-3,32;31,77
-59,36;-68,29;-79,61;-3,58;33,41
-59,36;-72,00;-79,08;-3,76;33,68
-59,36;-72,00;-77,75;-3,87;33,43
-59,36;-68,96;-77,75;-3,97;33,98
-62,39;-68,96;-77,75;-4,05;34,48
-62,39;-68,96;-76,33;-3,88;33,48
-62,39;-67,94;-76,33;-3,72;32,68
-62,39;-67,94;-76,13;-3,41;30,93
-62,39;-67,68;-76,13;-2,99;28,61
-63,94;-67,68;-76,13;-2,55;26,23
-63,94;-67,68;-77,58;-2,25;24,72
-58,00;-77,00;-73,00;-3,29;18,21
-65,00;-73,00;-80,00;3,69;14,61
-64,89;-76,00;-77,54;-5,30;5,36
-63,83;-76,00;-77,54;-5,36;5,33
-63,83;-76,00;-76,31;-4,76;4,87
-63,83;-76,00;-75,96;-4,34;4,56
-63,83;-74,99;-75,96;-4,11;4,50
-63,41;-74,99;-75,96;-3,96;4,45
-63,41;-74,99;-77,11;-4,09;4,58
-63,53;-74,99;-77,11;-4,18;4,68
-63,53;-74,99;-78,91;-4,63;5,02
-63,62;-74,99;-78,91;-4,99;5,30
-63,62;-75,34;-78,91;-5,27;5,51
-64,38;-75,34;-78,91;-5,54;5,75
-64,38;-75,25;-78,91;-5,99;6,12
-64,38;-75,25;-77,44;-6,21;6,32
-64,38;-75,42;-77,44;-6,42;6,45
-63,82;-75,42;-77,44;-6,63;6,58
-63,82;-75,42;-77,19;-6,63;6,57
-63,82;-75,74;-77,19;-6,63;6,54
-63,82;-75,74;-77,33;-6,32;6,28
-63,82;-75,60;-77,33;-6,02;6,04
-63,82;-75,60;-78,08;-5,84;5,90
-63,69;-75,60;-78,08;-5,68;5,76
-63,69;-75,60;-77,28;-5,38;5,52
-63,69;-75,84;-77,28;-5,35;5,46
-63,69;-75,84;-76,32;-5,19;5,31
-63,69;-75,84;-76,42;-5,03;5,17
-63,69;-74,71;-76,42;-4,92;5,13
-63,69;-74,71;-74,86;-4,63;4,97
-63,69;-74,60;-74,86;-4,31;4,81
-63,69;-74,60;-73,69;-3,88;4,55
-63,69;-73,10;-73,69;-3,34;4,28
-63,69;-73,10;-72,70;-2,71;3,94
-63,69;-72,16;-72,70;-2,23;3,74
-67,17;-72,16;-72,70;-1,69;3,59
-67,17;-72,16;-72,00;-1,26;3,51
-71,53;-67,17;-72,00;-0,81;3,43
-71,53;-68,84;-72,00;-0,31;3,31
-71,53;-68,84;-71,41;0,04;3,30
-70,25;-68,84;-71,41;0,38;3,32
-70,25;-70,07;-71,41;0,65;3,44
-70,25;-70,07;-70,62;0,97;3,46
-70,25;-70,62;-71,71;1,28;3,58
-70,25;-70,82;-71,71;1,59;3,66
-69,62;-70,82;-71,71;1,84;3,73
-69,62;-70,82;-72,35;2,08;3,86
-69,62;-71,58;-72,35;2,28;3,99
-69,38;-71,58;-72,35;2,44;4,10
-69,38;-71,58;-73,48;2,63;4,28
-69,38;-71,50;-73,48;2,84;4,42
-68,88;-71,50;-73,48;3,00;4,54
-68,88;-71,50;-74,59;3,20;4,74
-68,88;-71,57;-74,59;3,32;4,91
-69,49;-71,57;-74,59;3,46;5,06
-69,49;-71,57;-73,62;3,53;5,15
-70,44;-71,57;-73,62;3,57;5,20
-70,44;-71,57;-73,82;3,67;5,23
-70,44;-70,90;-73,82;3,80;5,23
-70,82;-70,90;-73,82;3,87;5,19
-70,82;-70,90;-74,14;3,95;5,16
-70,82;-70,48;-74,14;4,06;5,10
-72,60;-70,48;-74,14;4,09;4,95
-72,60;-70,48;-73,98;4,12;4,79
-72,81;-70,48;-73,98;4,14;4,63
-72,81;-70,11;-73,98;4,26;4,49
-73,13;-70,11;-73,98;4,37;4,37
-73,13;-70,54;-73,98;4,45;4,25
-72,96;-70,54;-73,98;4,49;4,17
-72,96;-70,54;-74,27;4,55;4,11
-72,96;-71,48;-74,27;4,54;4,07
-73,41;-71,48;-74,27;4,51;4,02
-73,41;-73,60;-74,27;4,33;4,14
-73,35;-73,60;-74,27;4,16;4,26
-73,35;-73,50;-73,60;3,93;4,37
-73,35;-73,22;-73,50;3,71;4,46
-73,35;-72,70;-73,22;3,44;4,53
-74,03;-72,70;-73,22;3,20;4,57
-74,03;-72,70;-75,24;2,77;4,73
-74,03;-70,99;-75,24;2,23;4,83
-74,03;-70,99;-76,08;1,63;4,96
-74,17;-70,99;-76,08;1,04;5,11
-69,53;-74,17;-76,08;0,54;5,13
-69,53;-74,17;-77,53;-0,18;5,29
-69,53;-74,29;-77,53;-0,84;5,48
-68,28;-74,29;-77,53;-1,57;5,67
-68,28;-74,29;-77,45;-2,23;5,88
-68,28;-74,25;-77,45;-2,90;6,13
-68,28;-74,25;-76,36;-3,22;6,12
-67,95;-74,25;-76,36;-3,45;6,15
-67,95;-74,25;-76,46;-3,60;6,12
-67,95;-74,07;-76,46;-3,75;6,11
-67,22;-74,07;-76,46;-3,87;6,11
-67,22;-74,07;-77,41;-3,91;6,07
-67,22;-74,20;-77,41;-3,95;6,03
-67,22;-74,20;-77,94;-4,05;6,07
-66,75;-74,20;-77,94;-4,17;6,11
-66,75;-74,20;-76,19;-4,02;5,96
-66,75;-73,88;-76,19;-4,03;5,94
-67,67;-73,88;-76,19;-4,02;5,94
-62,23;-69,63;-81,00;2,46;-5,26
-62,59;-69,63;-81,00;2,47;-5,25
-62,59;-69,50;-81,00;2,50;-5,26
-62,59;-69,50;-82,01;2,58;-5,72
-62,85;-69,50;-82,01;2,64;-5,99
-62,85;-70,89;-82,01;2,57;-6,10
-62,85;-70,89;-78,19;2,40;-5,40
-62,53;-70,89;-78,19;2,26;-4,88
-62,53;-70,89;-76,51;2,13;-4,31
-62,28;-70,89;-76,51;2,03;-3,86
-62,28;-69,87;-76,51;1,94;-3,35
-62,28;-69,87;-76,17;1,84;-2,82
-61,75;-69,87;-76,17;1,73;-2,29
-61,75;-68,73;-76,17;1,64;-1,60
-61,75;-68,73;-74,92;1,53;-0,84
-61,95;-68,73;-74,92;1,49;-0,13
-61,95;-68,61;-74,92;1,54;0,04
-61,95;-68,61;-73,27;1,58;0,29
-61,95;-68,61;-73,27;1,64;0,40
-61,95;-67,89;-73,27;1,72;0,50
-61,95;-67,89;-72,88;1,76;0,64
-61,81;-67,89;-72,88;1,80;0,76
-61,81;-67,45;-72,88;1,86;0,87
-61,81;-67,45;-72,73;1,87;1,01
-61,99;-67,45;-72,73;1,89;1,09
-61,99;-72,73;-68,29;1,89;1,17
-61,99;-71,81;-68,29;1,88;1,30
-62,44;-71,81;-68,29;1,89;1,34
-62,67;-71,81;-68,29;1,90;1,39
-62,67;-71,81;-67,94;1,90;1,45
-62,72;-71,81;-67,94;1,90;1,49
-62,72;-66,91;-71,81;1,92;1,51
-62,61;-66,91;-71,81;1,94;1,54
-62,61;-70,90;-66,91;1,95;1,59
-62,61;-66,33;-70,90;1,98;1,63
-62,61;-66,33;-71,07;2,03;1,65
-62,96;-66,33;-71,07;2,08;1,64
-62,96;-66,28;-71,07;2,14;1,63
-62,96;-66,28;-71,06;2,19;1,61
-62,67;-66,28;-71,06;2,23;1,60
-62,67;-66,24;-71,06;2,27;1,59
-62,67;-66,24;-71,95;2,29;1,58
-62,72;-66,24;-71,95;2,31;1,56
-62,72;-66,35;-71,95;2,32;1,52
-62,72;-66,35;-71,21;2,33;1,52
-62,76;-66,35;-71,21;2,33;1,51
-62,76;-66,45;-71,21;2,32;1,51
-62,80;-66,45;-71,21;2,32;1,51
-62,80;-66,38;-71,21;2,32;1,51
-62,80;-66,38;-72,22;2,32;1,47
-62,53;-66,38;-72,22;2,32;1,44
-62,53;-66,38;-71,30;2,31;1,46
-62,75;-66,38;-71,30;2,31;1,48
-62,75;-71,30;-66,91;2,29;1,51
-62,75;-70,67;-66,91;2,28;1,54
-62,64;-70,67;-66,91;2,26;1,56
-62,64;-70,67;-66,34;2,26;1,57
-62,25;-70,67;-66,34;2,25;1,58
-62,25;-70,67;-66,29;2,25;1,59
-62,25;-66,29;-71,60;2,24;1,61
-62,25;-66,29;-71,07;2,24;1,64
-62,36;-66,29;-71,07;2,24;1,64
-62,36;-65,66;-71,07;2,25;1,64
-62,46;-65,66;-71,07;2,27;1,62
-62,46;-65,66;-70,62;2,30;1,60
-62,46;-64,98;-70,62;2,34;1,57
-62,68;-64,98;-70,62;2,36;1,56
-62,68;-64,98;-71,12;2,40;1,53
-62,68;-64,84;-71,12;2,43;1,50
-62,73;-64,84;-71,12;2,46;1,49
-62,73;-64,84;-71,25;2,49;1,47
-62,73;-64,84;-70,77;2,52;1,46
-62,91;-64,84;-70,77;2,54;1,46
-62,91;-65,88;-70,77;2,54;1,47
-62,91;-65,88;-71,10;2,54;1,47
-63,07;-65,88;-71,10;2,54;1,47
-63,07;-71,10;-66,78;2,50;1,49
-63,07;-70,50;-66,78;2,47;1,53
-63,21;-70,50;-66,78;2,43;1,58
-63,21;-70,50;-67,25;2,38;1,63
-63,21;-69,99;-67,25;2,33;1,70
-63,21;-69,99;-68,09;2,25;1,78
-63,21;-70,72;-68,09;2,18;1,84
-63,32;-70,72;-68,09;2,13;1,88
-63,32;-70,72;-67,49;2,09;1,92
-63,32;-70,91;-67,49;2,05;1,95
-62,98;-70,91;-67,49;2,03;1,97
-62,98;-70,91;-67,57;2,01;1,97
-62,84;-70,91;-67,57;1,99;1,98
-62,84;-70,91;-67,48;1,98;1,97
-62,86;-70,91;-67,48;1,98;1,95
-62,86;-66,39;-70,91;2,02;1,89
-62,86;-66,39;-71,21;2,07;1,85
-62,88;-66,39;-71,21;2,11;1,80
-62,88;-70,60;-66,39;2,13;1,78
-62,90;-70,60;-66,39;2,15;1,76
-62,90;-70,60;-66,63;2,17;1,76
-62,90;-70,80;-66,63;2,20;1,74
-63,06;-70,80;-66,63;2,22;1,73
-63,06;-70,80;-66,83;2,24;1,72
-63,06;-70,98;-66,83;2,26;1,71
-63,20;-70,98;-66,83;2,26;1,71
-63,20;-70,98;-67,29;2,24;1,74
-63,20;-67,29;-71,86;2,22;1,74
-63,17;-67,29;-71,86;2,21;1,72
-63,17;-66,37;-71,86;2,21;1,68
-63,17;-66,37;-72,61;2,23;1,62
-63,17;-66,46;-72,61;2,25;1,56
-63,17;-66,46;-72,52;2,26;1,51
-63,14;-66,46;-72,52;2,28;1,45
-63,14;-65,96;-72,52;2,31;1,39
-63,14;-65,96;-72,88;2,34;1,32
-63,27;-65,96;-72,88;2,38;1,23
-63,27;-65,96;-72,88;2,42;1,18
-63,27;-65,96;-73,48;2,46;1,10
-62,94;-65,96;-73,48;2,48;1,03
-62,94;-65,96;-72,68;2,48;1,02
-62,65;-65,96;-72,68;2,49;1,00
-62,65;-66,26;-72,68;2,49;0,99
-62,65;-66,26;-72,14;2,49;1,00
-62,65;-65,64;-72,14;2,49;1,01
-62,56;-65,64;-72,14;2,48;1,02
-62,56;-65,64;-71,39;2,48;1,06
-62,19;-65,64;-71,39;2,46;1,10
-62,19;-65,64;-71,63;2,45;1,16
-62,19;-65,69;-71,63;2,44;1,22
-62,30;-65,69;-71,63;2,43;1,25
-62,30;-65,69;-71,68;2,43;1,27
-62,30;-65,74;-71,68;2,43;1,30
-62,26;-65,74;-71,68;2,44;1,30
-62,26;-65,74;-71,00;2,42;1,34
-62,26;-65,19;-71,00;2,43;1,36
-62,51;-65,19;-71,00;2,43;1,37
-62,51;-65,19;-70,41;2,44;1,39
-62,51;-64,87;-70,41;2,45;1,41
-62,73;-64,87;-70,41;2,47;1,44
-62,73;-64,87;-70,06;2,48;1,47
-62,73;-64,60;-70,06;2,50;1,50
-62,48;-64,60;-70,06;2,51;1,53
-62,48;-64,22;-70,06;2,53;1,55
-62,12;-64,22;-70,06;2,55;1,56
-62,12;-64,22;-70,20;2,57;1,57
-62,12;-64,04;-70,20;2,58;1,57
-61,81;-64,04;-70,20;2,59;1,56
-61,81;-64,04;-70,32;2,60;1,55
-61,81;-64,03;-70,32;2,60;1,54
-62,13;-64,03;-70,32;2,61;1,52
-62,13;-64,03;-70,71;2,62;1,49
-62,13;-63,88;-70,71;2,63;1,47
-62,11;-63,88;-70,71;2,63;1,45
-62,11;-63,88;-70,17;2,64;1,44
-62,11;-64,34;-70,17;2,64;1,44
-62,11;-64,34;-70,73;2,63;1,43
-62,11;-64,87;-70,73;2,62;1,43
-62,11;-64,87;-71,06;2,62;1,42
-62,11;-64,89;-71,06;2,61;1,42
-62,68;-64,89;-71,06;2,60;1,41
-62,68;-64,89;-72,07;2,60;1,38
-62,68;-65,64;-72,07;2,58;1,37
-62,87;-65,64;-72,07;2,56;1,35
-62,87;-65,64;-72,65;2,55;1,30
-62,87;-65,69;-72,65;2,55;1,25
-62,87;-65,69;-73,72;2,55;1,17
-62,87;-65,15;-73,72;2,57;1,08
-62,60;-65,15;-73,72;2,58;0,99
-62,60;-65,15;-72,88;2,59;0,94
-62,22;-65,15;-72,88;2,59;0,88
-62,22;-65,15;-72,17;2,58;0,88
-62,22;-65,71;-72,17;2,58;0,87
-62,62;-65,71;-72,17;2,57;0,87
-62,62;-65,71;-72,44;2,57;0,88
-62,62;-65,32;-72,44;2,57;0,88
-62,53;-65,32;-72,44;2,57;0,92
-62,53;-65,32;-72,96;2,56;0,95
-62,53;-65,27;-72,96;2,55;0,99
-62,31;-65,27;-72,96;2,54;0,98
-62,31;-65,27;-73,70;2,55;0,95
-62,31;-66,69;-73,70;2,53;0,92
-62,85;-66,69;-73,70;2,52;0,88
-62,85;-66,69;-72,72;2,50;0,87
-62,85;-66,59;-72,72;2,49;0,88
-62,87;-66,59;-72,72;2,46;0,89
-62,87;-66,59;-72,17;2,44;0,92
-62,87;-66,50;-72,17;2,41;0,97
-62,74;-66,50;-72,17;2,39;1,01
-62,74;-66,50;-73,17;2,36;1,03
-62,74;-65,99;-73,17;2,35;1,06
-62,63;-65,99;-73,17;2,37;1,07
-62,63;-65,99;-72,85;2,37;1,09
-62,63;-72,85;-68,92;2,31;1,13
-62,63;-72,58;-68,92;2,24;1,19
-62,63;-72,58;-68,78;2,17;1,23
-62,98;-72,58;-68,78;2,11;1,27
-62,98;-68,78;-74,84;2,06;1,20
-62,98;-69,25;-74,84;2,00;1,15
-63,13;-69,25;-74,84;1,94;1,13
-63,13;-69,25;-74,13;1,85;1,16
-63,13;-69,07;-74,13;1,78;1,18
-63,13;-69,07;-74,55;1,71;1,17
-63,13;-68,77;-74,55;1,73;1,09
-63,11;-68,77;-74,55;1,75;1,01
-63,11;-68,77;-75,05;1,77;0,90
-63,11;-68,36;-75,05;1,81;0,78
-63,09;-68,36;-75,05;1,83;0,76
-63,09;-68,36;-74,31;1,85;0,76
-63,09;-67,87;-74,31;1,90;0,75
-63,09;-67,87;-74,12;1,94;0,72
-63,09;-67,74;-74,12;1,99;0,69
-63,23;-67,74;-74,12;2,03;0,68
-63,23;-67,74;-74,54;2,06;0,66
-63,23;-67,05;-74,54;2,11;0,62
-63,23;-66,17;-74,54;2,18;0,60
-63,23;-66,17;-75,78;2,25;0,52
-63,23;-66,17;-75,96;2,32;0,42
-63,23;-66,17;-76,40;2,40;0,26
-63,23;-66,43;-76,40;2,46;0,11
-63,23;-65,93;-76,40;2,53;-0,06
-63,23;-65,93;-75,76;2,59;-0,18
-65,93;-68,00;-75,76;2,73;-0,26
-65,94;-68,00;-75,76;2,86;-0,32
-65,94;-68,00;-75,21;2,97;-0,33
-65,94;-67,49;-75,21;3,05;-0,33
-65,80;-67,49;-75,21;3,12;-0,26
-65,80;-67,49;-74,74;3,18;-0,16
-65,80;-67,32;-74,74;3,24;-0,03
-65,25;-67,32;-74,74;3,31;0,09
-65,25;-67,32;-75,51;3,38;0,18
-65,25;-66,42;-75,51;3,43;0,21
-64,48;-66,42;-75,51;3,42;0,19
-64,48;-66,42;-76,46;3,42;0,10
-64,48;-65,87;-76,46;3,42;-0,02
-63,83;-65,87;-76,46;3,44;-0,14
-63,83;-65,87;-75,66;3,45;-0,21
-63,83;-66,50;-75,66;3,47;-0,30
-63,85;-66,50;-75,66;3,49;-0,39
-63,85;-66,50;-74,98;3,50;-0,43
-63,85;-66,96;-74,98;3,51;-0,42
-63,44;-66,96;-74,98;3,55;-0,40
-63,44;-66,96;-76,74;3,59;-0,49
-64,39;-66,96;-76,74;3,60;-0,50
-64,39;-66,96;-75,46;3,61;-0,43
-64,48;-66,96;-75,46;3,61;-0,34
-64,48;-66,96;-74,66;3,61;-0,27
-64,27;-66,96;-74,66;3,61;-0,20
-64,27;-66,96;-74,13;3,60;-0,11
-64,23;-66,96;-74,13;3,59;-0,06
-64,23;-66,96;-74,98;3,59;-0,05
-64,63;-66,96;-74,98;3,57;-0,04
-64,63;-66,96;-73,82;3,52;0,14
-65,71;-66,96;-73,82;3,47;0,33
-65,71;-67,00;-73,82;3,44;0,44
-67,00;-67,21;-73,82;3,37;0,56
-67,00;-67,21;-74,28;3,31;0,62
-67,21;-69,53;-74,28;3,31;0,72
-68,93;-69,53;-74,28;3,26;0,83
-68,93;-69,53;-74,97;3,22;0,90
-68,93;-70,39;-74,97;3,21;1,04
-68,65;-70,39;-74,97;3,21;1,16
-68,65;-69,47;-74,97;3,18;1,21
-69,47;-70,46;-74,97;3,11;1,30
-69,47;-74,25;-70,46;3,02;1,42
-74,25;-69,82;-70,46;2,99;1,52
-74,25;-69,82;-70,83;2,93;1,66
-74,21;-69,82;-70,83;2,80;1,77
-69,65;-74,21;-70,83;2,72;1,83
-69,65;-74,21;-70,71;2,65;1,92
-69,65;-74,76;-70,71;2,54;1,97
-68,61;-74,76;-70,71;2,40;2,01
-68,61;-74,76;-72,94;2,15;2,17
-67,81;-74,76;-72,94;1,95;2,26
-67,81;-74,80;-72,94;1,76;2,31
-67,81;-74,80;-71,63;1,64;2,29
-67,01;-74,80;-71,63;1,53;2,25
-67,01;-73,51;-71,63;1,40;2,27
-65,73;-73,51;-71,63;1,26;2,28
-65,73;-73,51;-72,27;1,07;2,33
-64,68;-73,51;-72,27;0,86;2,39
-64,68;-72,41;-72,27;0,68;2,51
-64,68;-72,41;-72,67;0,61;2,56
-64,11;-72,41;-72,67;0,54;2,61
-64,11;-72,41;-73,16;0,45;2,69
-67,00;-74,00;-76,00;-2,81;5,06
-67,00;-74,00;-74,48;-1,96;4,45
-67,00;-78,56;-74,48;-1,50;3,16
-67,00;-78,56;-75,01;-1,40;2,61
-66,49;-78,56;-75,01;-1,36;2,27
-66,49;-77,67;-75,01;-1,36;2,19
-66,49;-71,48;-77,67;-0,96;1,85
-65,63;-71,48;-77,67;-0,68;1,58
-65,63;-71,48;-78,03;-0,45;1,33
-65,63;-70,69;-78,03;-0,23;1,10
-64,92;-70,69;-78,03;0,22;0,50
-64,92;-70,69;-75,28;0,47;0,22
-64,92;-68,73;-75,28;0,74;0,22
-65,39;-68,73;-75,28;1,08;0,17
-65,39;-68,73;-74,62;1,41;0,17
-65,39;-67,48;-74,62;1,81;0,06
-65,31;-67,48;-74,62;1,91;0,14
-65,31;-67,48;-73,95;2,03;0,27
-65,31;-66,70;-73,95;2,17;0,41
-65,63;-66,70;-73,95;2,26;0,59
-65,63;-66,70;-73,09;2,36;0,81
-65,63;-67,58;-73,09;2,47;0,84
-65,69;-67,58;-73,09;2,50;0,93
-65,69;-67,58;-72,58;2,53;1,03
-65,69;-72,58;-68,61;2,52;1,12
-64,75;-72,58;-68,61;2,46;1,22
-64,75;-71,04;-68,61;2,40;1,38
-64,63;-71,04;-68,61;2,34;1,50
-64,63;-71,04;-69,76;2,21;1,67
-64,22;-71,04;-69,76;2,08;1,83
-64,22;-71,19;-69,76;1,95;1,95
-64,22;-71,19;-71,18;1,77;2,10
-63,72;-71,19;-71,18;1,59;2,25
-63,72;-71,93;-71,18;1,42;2,36
-63,72;-71,93;-73,12;1,15;2,54
-63,31;-71,93;-73,12;0,89;2,71
-63,31;-72,85;-73,12;0,65;2,81
-68,00;-76,00;-75,00;-1,23;3,24
-65,47;-76,00;-75,00;-1,48;3,10
-65,47;-77,52;-75,00;-1,50;2,66
-65,47;-77,52;-75,00;-1,51;2,45
-65,47;-76,99;-75,00;-1,53;2,41
-65,47;-76,99;-73,96;-1,38;2,26
-65,47;-76,72;-73,96;-1,27;2,18
-65,47;-71,80;-76,72;-0,99;1,98
-65,47;-71,80;-77,01;-0,77;1,80
-65,47;-70,93;-77,01;-0,54;1,63
-67,04;-70,93;-77,01;-0,24;1,32
-67,04;-74,38;-70,93;0,08;1,21
-67,04;-74,38;-70,34;0,42;1,20
-67,84;-74,38;-70,34;0,77;1,19
-67,84;-72,46;-70,34;1,12;1,22
-67,84;-72,46;-70,65;1,35;1,34
-67,42;-72,46;-70,65;1,57;1,43
-67,42;-72,03;-70,65;1,63;1,64
-67,42;-72,03;-69,49;1,74;1,84
-66,33;-72,03;-69,49;1,78;2,07
-66,33;-72,69;-69,49;1,79;2,25
-66,33;-72,69;-68,58;1,86;2,24
-65,52;-72,69;-68,58;1,89;2,25
-65,52;-68,58;-73,70;1,91;2,21
-65,52;-68,58;-73,28;1,94;2,10
-65,52;-73,28;-68,81;1,98;1,99
-67,00;-73,28;-68,81;2,05;1,90
-67,00;-68,81;-74,00;2,13;1,77
-67,00;-69,15;-74,00;2,15;1,68
-67,99;-69,15;-74,00;2,21;1,61
-67,99;-69,15;-74,76;2,27;1,53
-67,99;-70,05;-74,76;2,27;1,50
-69,43;-70,05;-74,76;2,31;1,50
-69,43;-69,89;-74,76;2,36;1,53
-69,89;-74,76;-70,30;2,44;1,56
-69,89;-70,30;-75,40;2,54;1,55
-69,91;-70,30;-75,40;2,61;1,53
-69,91;-70,87;-75,40;2,69;1,55
-69,91;-70,87;-76,53;2,80;1,49
-70,22;-70,87;-76,53;2,87;1,43
-70,22;-71,34;-76,53;2,96;1,41
-70,22;-71,34;-76,75;3,09;1,35
-71,34;-71,37;-76,75;3,12;1,31
-71,37;-71,89;-76,75;3,16;1,29
-71,89;-76,75;-72,64;3,10;1,31
-76,75;-72,36;-72,64;3,05;1,38
-72,36;-72,64;-78,11;3,03;1,33
-71,96;-72,36;-78,11;3,03;1,24
-71,96;-78,11;-74,38;3,14;1,29
-71,96;-76,48;-74,38;3,25;1,48
-71,96;-76,48;-75,06;3,40;1,68
-61,00;-65,00;-70,00;2,38;1,60
-61,00;-70,00;-67,02;2,17;1,75
-61,00;-67,02;-72,53;2,13;1,56
-61,00;-66,32;-72,53;2,16;1,44
-61,00;-66,23;-72,53;2,18;1,36
-61,00;-66,23;-71,65;2,18;1,36
-63,02;-66,23;-71,65;2,21;1,37
-63,02;-65,27;-71,65;2,26;1,36
-63,02;-68,77;-65,27;2,28;1,43
-63,02;-68,77;-67,24;2,25;1,52
-63,02;-68,82;-67,24;2,22;1,58
-68,82;-64,40;-67,24;2,24;1,63
-68,82;-64,40;-67,75;2,24;1,76
-68,25;-64,40;-67,75;2,22;1,91
-68,25;-65,38;-67,75;2,21;2,07
-68,25;-65,38;-68,66;2,18;2,22
-67,83;-65,38;-68,66;2,13;2,36
-68,73;-65,38;-68,66;2,06;2,51
-68,73;-65,38;-69,21;1,98;2,60
-68,44;-65,38;-69,21;1,95;2,67
-68,44;-66,21;-69,21;1,93;2,74
-68,44;-66,21;-68,70;1,91;2,80
-68,05;-66,21;-68,70;1,90;2,85
-68,05;-66,21;-68,59;1,90;2,88
-68,04;-66,21;-68,59;1,89;2,91
-68,04;-66,97;-68,59;1,92;2,93
-68,04;-66,97;-69,27;1,93;2,96
-67,88;-66,97;-69,27;1,93;3,00
-67,88;-65,31;-69,27;1,93;3,02
-67,88;-65,31;-70,13;1,89;3,05
-66,99;-65,31;-70,13;1,83;3,09
-66,99;-64,22;-70,13;1,74;3,14
-66,99;-64,22;-70,86;1,62;3,20
-66,09;-64,22;-70,86;1,49;3,28
-66,09;-64,51;-70,86;1,36;3,36
-66,09;-64,51;-70,14;1,26;3,40
-66,08;-64,51;-70,14;1,17;3,43
-66,08;-65,87;-70,14;1,11;3,47
-66,08;-65,87;-70,42;1,07;3,53
-66,07;-65,87;-70,42;1,06;3,57
-66,07;-65,89;-70,42;1,06;3,60
-66,07;-65,89;-72,13;0,97;3,70
-65,47;-65,89;-72,13;0,92;3,78
-65,47;-65,91;-72,13;0,87;3,85
-65,47;-65,91;-72,11;0,82;3,92
-65,69;-65,91;-72,11;0,74;4,01
-65,47;-61,00;-62,94;0,99;3,91
-64,61;-61,00;-62,94;1,23;3,80
-64,61;-61,00;-62,96;1,47;3,68
-63,00;-63,00;-67,00;1,40;3,70
-63,00;-62,49;-67,00;1,31;3,71
-63,00;-62,49;-65,48;1,42;3,62
-64,52;-62,49;-65,48;1,53;3,51
-64,52;-60,93;-65,48;1,59;3,41
-63,99;-60,93;-65,48;1,77;3,30
-63,99;-60,93;-67,74;1,90;3,26
-63,99;-62,31;-67,74;1,71;3,40
-73,00;-69,00;-76,00;0,79;14,54
-68,49;-73,00;-76,00;0,68;14,58
-68,49;-73,00;-72,96;0,95;12,14
-68,49;-76,54;-72,96;0,67;10,10
-68,32;-76,54;-72,96;0,50;8,88
-70,80;-68,32;-72,96;0,75;8,82
-70,80;-66,61;-72,96;0,84;8,80
-70,80;-66,61;-71,94;0,94;8,58
-67,88;-66,61;-71,94;1,07;8,52
-67,88;-66,61;-73,31;1,14;8,70
-66,08;-66,61;-73,31;1,27;8,33
-66,08;-66,93;-73,31;1,42;7,94
-66,08;-66,93;-72,55;1,50;8,15
-65,86;-66,93;-72,55;1,75;8,70
-65,86;-68,36;-72,55;2,05;9,23
-65,86;-68,36;-75,27;2,06;9,89
-67,37;-68,36;-75,27;2,12;10,51
-67,37;-67,74;-75,27;2,13;11,30
-67,37;-67,74;-74,30;2,11;11,74
-66,96;-67,74;-74,30;2,14;11,96
-66,96;-66,74;-74,30;2,11;12,15
-66,96;-66,74;-73,55;2,09;12,18
-66,13;-66,74;-73,55;2,06;12,36
-66,13;-65,13;-73,55;1,98;12,56
-66,13;-65,13;-74,12;1,84;12,89
-66,59;-65,13;-74,12;1,76;12,63
-66,59;-65,91;-74,12;1,72;12,39
-68,06;-65,91;-74,12;1,69;12,10
-68,06;-65,76;-74,12;1,63;12,07
-68,06;-65,76;-72,82;1,59;11,76
-67,75;-65,76;-72,82;1,59;11,45
-67,75;-66,57;-72,82;1,59;11,30
-67,75;-66,57;-72,85;1,58;11,13
-68,24;-66,57;-72,85;1,61;10,94
-68,24;-66,48;-72,85;1,66;10,62
-68,24;-66,48;-71,64;1,73;10,12
-68,24;-65,81;-71,64;1,76;9,64
-68,24;-65,81;-70,64;1,83;9,05
-67,45;-65,81;-70,64;1,91;8,49
-67,45;-64,94;-70,64;1,94;8,19
-67,45;-64,94;-69,19;1,98;7,74
-67,45;-64,80;-69,19;2,00;7,29
-67,45;-64,80;-68,12;2,03;6,75
-60,00;-62,00;-71,74;1,35;-0,50
-60,00;-62,00;-71,42;1,39;-0,42
-60,35;-62,00;-71,42;1,40;-0,37
-60,35;-62,00;-72,04;1,37;-0,43
-60,52;-62,00;-72,04;1,35;-0,45
-60,52;-62,00;-71,37;1,36;-0,41
-61,55;-62,00;-71,37;1,37;-0,35
-61,55;-71,37;-69,59;1,64;-0,40
-61,55;-70,83;-69,59;1,87;-0,41
-62,04;-70,83;-69,59;2,05;-0,40
-62,04;-70,83;-66,96;2,18;-0,35
-62,04;-66,96;-71,64;2,27;-0,35
-62,04;-66,43;-71,64;2,35;-0,36
-62,04;-66,43;-71,54;2,45;-0,32
-62,59;-66,43;-71,54;2,55;-0,28
-62,59;-66,10;-71,54;2,62;-0,27
-62,59;-66,10;-70,70;2,71;-0,23
-63,36;-66,10;-70,70;2,59;-0,11
-64,79;-66,10;-70,70;2,44;0,04
-64,79;-66,10;-71,65;2,27;0,14
-64,79;-66,08;-71,65;2,22;0,20
-65,94;-66,08;-71,65;2,17;0,35
-66,08;-71,65;-67,20;2,14;0,57
-66,08;-67,20;-72,00;2,09;0,76
-66,08;-72,00;-67,94;2,03;0,99
-66,08;-72,00;-69,01;1,98;1,30
-66,08;-72,00;-69,61;1,90;1,63
-66,07;-72,00;-69,61;1,82;1,94
-66,07;-72,00;-69,52;1,75;2,19
-66,07;-72,00;-69,52;1,70;2,48
-66,05;-72,00;-69,52;1,65;2,77
-66,05;-72,00;-70,18;1,60;3,07
-66,05;-71,85;-70,18;1,56;3,32
-66,05;-71,85;-70,30;1,53;3,59
-66,05;-71,58;-70,30;1,51;3,83
-66,05;-71,58;-70,30;1,51;3,98
-66,05;-71,58;-70,26;1,51;4,07
-66,05;-71,35;-70,26;1,51;4,17
-66,04;-71,35;-70,26;1,52;4,29
-66,04;-70,85;-70,26;1,54;4,42
-65,56;-70,85;-70,26;1,54;4,56
-65,56;-70,85;-70,51;1,56;4,66
-65,56;-70,73;-70,51;1,56;4,76
-65,56;-70,73;-71,32;1,56;4,94
-65,17;-70,73;-71,32;1,54;5,11
-65,17;-71,21;-71,32;1,52;5,26
-65,17;-71,21;-71,27;1,49;5,41
-64,99;-71,21;-71,27;1,45;5,55
-64,99;-71,18;-71,27;1,41;5,69
-64,99;-71,18;-71,67;1,35;5,87
-64,84;-71,18;-71,67;1,31;6,04
-64,84;-71,30;-71,67;1,26;6,17
-64,84;-71,30;-71,43;1,22;6,27
-64,57;-71,30;-71,43;1,18;6,26
-64,57;-71,25;-71,43;1,15;6,26
-64,57;-71,25;-71,80;1,13;6,33
-64,78;-71,25;-71,80;1,11;6,40
-64,78;-71,07;-71,80;1,10;6,48
-64,78;-71,07;-72,86;1,06;6,74
-64,67;-71,07;-72,86;1,04;6,93
-64,67;-70,48;-72,86;1,02;7,16
-64,67;-70,48;-72,73;1,02;7,36
-66,00;-74,00;-71,00;0,64;3,84
-66,00;-74,00;-70,49;0,68;3,53
-66,00;-72,99;-70,49;0,81;3,67
-65,49;-72,99;-70,49;0,84;3,76
-65,49;-71,95;-70,49;0,93;3,93
-65,67;-71,95;-70,49;0,99;4,05
-65,67;-71,95;-68,93;1,06;3,90
-65,67;-72,24;-68,93;1,11;3,77
-65,76;-72,24;-68,93;1,15;3,67
-65,76;-73,10;-68,93;1,15;3,54
-65,76;-67,87;-73,10;1,21;3,30
-66,73;-67,87;-73,10;1,30;3,12
-66,73;-67,44;-73,10;1,35;2,83
-66,73;-67,44;-72,87;1,42;2,56
-67,44;-67,79;-72,87;1,50;2,21
-67,55;-67,79;-72,87;1,57;1,86
-67,55;-67,79;-73,08;1,62;1,67
-67,55;-73,08;-68,76;1,71;1,47
-66,53;-73,08;-68,76;1,81;1,21
-66,53;-72,89;-68,76;1,95;1,02
-66,53;-68,28;-72,89;2,05;0,92
-65,74;-68,28;-72,89;2,13;0,78
-65,74;-72,41;-68,28;2,22;0,71
-65,74;-67,90;-72,41;2,28;0,63
-65,12;-67,90;-72,41;2,32;0,53
-65,12;-72,41;-69,84;2,44;0,39
-64,30;-72,41;-69,84;2,58;0,24
-64,30;-72,19;-69,84;2,68;0,11
-64,30;-72,19;-70,49;2,81;0,03
-64,10;-72,19;-70,49;2,94;-0,07
-64,10;-71,69;-70,49;3,10;-0,15
-64,10;-71,69;-73,64;3,52;-0,27
-64,10;-71,69;-72,03;3,77;-0,38
-64,10;-70,20;-72,03;4,07;-0,42
-57,00;-65,00;-66,00;3,21;0,91
-57,00;-69,56;-66,00;2,93;0,35
-57,00;-69,56;-68,02;3,06;0,09
-57,00;-70,40;-68,02;3,09;-0,12
-63,58;-70,40;-68,02;3,07;0,01
-63,73;-70,40;-68,02;3,06;0,10
-63,73;-70,40;-67,67;3,03;0,18
-63,73;-70,02;-67,67;3,02;0,25
-63,26;-70,02;-67,67;3,01;0,29
-63,26;-70,02;-67,49;3,00;0,33
-63,26;-70,47;-67,49;2,96;0,28
-62,97;-70,47;-67,49;2,98;0,34
-62,97;-70,47;-69,20;3,00;0,40
-62,97;-71,59;-69,20;3,01;0,43
-64,19;-71,59;-69,20;3,03;0,38
-64,19;-71,59;-67,75;2,99;0,35
-64,19;-72,04;-67,75;2,95;0,28
-63,78;-72,04;-67,75;2,91;0,19
-63,78;-72,03;-67,75;2,86;0,11
-63,30;-72,03;-67,75;2,82;0,02
-63,30;-67,42;-72,03;2,78;-0,06
-62,92;-67,42;-72,03;2,75;-0,13
-62,92;-72,03;-68,57;2,68;-0,20
-62,92;-71,53;-68,57;2,65;-0,19
-62,92;-71,53;-67,97;2,60;-0,21
-62,92;-71,28;-67,97;2,63;-0,24
-63,89;-71,28;-67,97;2,65;-0,22
-63,89;-71,28;-67,66;2,67;-0,17
-63,89;-71,55;-67,66;2,68;-0,14
-64,22;-71,55;-67,66;2,68;-0,08
-64,22;-71,16;-67,66;2,71;-0,01
-63,88;-71,16;-67,66;2,74;0,07
-63,88;-71,16;-68,49;2,75;0,14
-63,88;-70,98;-68,49;2,76;0,20
-63,90;-70,98;-68,49;2,79;0,25
-63,90;-70,98;-70,11;2,90;0,26
-63,90;-70,84;-70,11;3,01;0,25
-63,61;-70,84;-70,11;3,13;0,23
-63,61;-70,84;-69,79;3,25;0,22
-63,61;-70,71;-69,79;3,37;0,20
-63,52;-70,71;-69,79;3,48;0,17
-63,52;-70,71;-69,07;3,55;0,16
-63,52;-70,90;-69,07;3,58;0,15
-63,52;-70,90;-68,61;3,59;0,14
-63,52;-70,62;-68,61;3,60;0,14
-63,45;-70,62;-68,61;3,54;0,17
-63,45;-70,62;-69,85;3,53;0,17
-63,38;-70,62;-69,85;3,52;0,17
-63,38;-70,62;-68,84;3,48;0,19
-63,38;-71,41;-68,84;3,42;0,16
-63,38;-71,41;-68,28;3,33;0,15
-63,38;-71,21;-68,28;3,28;0,13
-63,47;-71,21;-68,28;3,24;0,13
-63,47;-71,21;-67,65;3,20;0,13
-63,47;-71,03;-67,65;3,15;0,12
-63,40;-71,03;-67,65;3,10;0,11
-62,00;-64,00;-70,00;2,01;0,61
-62,00;-64,51;-70,00;2,06;0,59
-62,51;-64,51;-70,00;2,07;0,63
-62,51;-70,00;-68,49;2,39;0,55
-62,51;-68,49;-80,63;1,34;-2,00
-65,80;-68,49;-80,63;0,61;-3,50
-65,80;-67,82;-80,63;0,06;-4,55
-65,80;-67,82;-77,29;0,05;-4,51
-65,80;-68,32;-77,29;0,06;-4,49
-65,80;-68,32;-77,48;0,06;-4,50
-65,85;-68,32;-77,48;-0,13;-5,01
-65,85;-67,44;-77,48;-0,37;-5,52
-65,85;-67,44;-75,54;-0,49;-5,79
-65,20;-67,44;-75,54;-0,73;-6,05
-65,20;-67,92;-75,54;-0,33;-5,06
-65,20;-67,92;-76,65;0,02;-4,33
-65,77;-67,92;-76,65;0,40;-3,59
-65,77;-67,76;-76,65;0,44;-3,50
-65,77;-67,76;-75,97;0,50;-3,32
-66,00;-67,76;-75,97;0,58;-3,11
-76,00;-72,56;-74,56;5,01;2,34
-76,00;-72,56;-76,44;6,46;1,85
-72,56;-78,02;-76,44;6,48;0,76
-69,59;-78,02;-76,44;6,61;-0,75
-69,59;-72,80;-78,02;5,72;-1,34
-69,59;-72,80;-79,40;4,92;-2,17
-69,59;-71,02;-79,40;4,14;-2,69
-69,59;-71,02;-77,13;3,80;-2,58
-70,24;-71,02;-77,13;3,53;-2,42
-70,24;-70,81;-77,13;3,29;-2,29
-70,24;-70,81;-76,87;2,93;-2,60
-70,81;-71,33;-76,87;2,26;-2,68
-69,74;-71,33;-76,87;1,66;-2,46
-69,74;-70,05;-76,87;1,04;-2,01
-69,96;-70,05;-76,87;0,91;-1,72
-69,96;-70,41;-76,87;0,90;-1,13
-68,80;-70,41;-76,87;0,98;-0,57
-68,80;-70,41;-75,08;0,96;-0,20
-68,80;-69,99;-75,08;0,96;0,05
-68,80;-69,99;-74,69;0,99;0,34
-68,80;-69,33;-74,69;1,01;0,52
-68,67;-69,33;-74,69;1,04;0,58
-68,67;-69,33;-74,22;1,16;0,65
-68,67;-74,22;-70,24;1,25;0,97
-67,79;-74,22;-70,24;1,28;1,30
-67,79;-74,35;-70,24;1,32;1,59
-67,79;-74,35;-70,67;1,41;1,90
-66,90;-74,35;-70,67;1,36;2,03
-66,90;-74,46;-70,67;1,31;2,18
-66,90;-69,95;-74,46;1,24;2,22
-67,37;-69,95;-74,46;1,19;2,33
-67,37;-72,82;-69,95;1,20;2,55
