\relax 
\catcode `"\active 
\citation{PhyGoogle}
\citation{Eddystone}
\citation{TanenbaumBook}
\citation{TIReport}
\citation{BLEBook}
\select@language{american}
\@writefile{toc}{\select@language{american}}
\@writefile{lof}{\select@language{american}}
\@writefile{lot}{\select@language{american}}
\@writefile{toc}{\contentsline {section}{\numberline {1}Introdu\IeC {\c c}\IeC {\~a}o}{1}}
\citation{PModel:2015}
\@writefile{lof}{\contentsline {figure}{\numberline {1}{\ignorespaces Autor Google, Exemplo de aplicac\IeC {\~a}o da PW.}}{2}}
\newlabel{fig:PWUSO}{{1}{2}}
\@writefile{toc}{\contentsline {section}{\numberline {2}Mecanismos de Localiza\IeC {\c c}\IeC {\~a}o}{2}}
\newlabel{mec}{{2}{2}}
\citation{Combined:2013}
\citation{positioning:2013}
\citation{Comparison:2011}
\citation{2016:turco}
\citation{Kalman_intro}
\citation{2015:Dfilter}
\citation{2015:Kalman_explained}
\@writefile{toc}{\contentsline {subsection}{\numberline {2.1}Modelos de Propaga\IeC {\c c}\IeC {\~a}o}{3}}
\newlabel{eq:rappa}{{4}{3}}
\@writefile{toc}{\contentsline {subsection}{\numberline {2.2}Filtros}{3}}
\citation{2015:Dfilter}
\citation{KST}
\citation{Eddystone}
\newlabel{fig:APP_FLUX}{{2(a)}{5}}
\newlabel{sub@fig:APP_FLUX}{{(a)}{5}}
\newlabel{fig:max_dist}{{2(b)}{5}}
\newlabel{sub@fig:max_dist}{{(b)}{5}}
\@writefile{lof}{\contentsline {figure}{\numberline {2}{\ignorespaces Dist\IeC {\^a}ncia M\IeC {\'a}xima e Fluxograma}}{5}}
\@writefile{lof}{\contentsline {subfigure}{\numberline{(a)}{\ignorespaces {Fluxograma do sistema}}}{5}}
\@writefile{lof}{\contentsline {subfigure}{\numberline{(b)}{\ignorespaces {Dist\IeC {\^a}ncia m\IeC {\'a}xima devido ao desvanecimento do sinal}}}{5}}
\@writefile{toc}{\contentsline {section}{\numberline {3}Ambiente Experimental}{5}}
\newlabel{expenv}{{3}{5}}
\newlabel{fig:area}{{3(a)}{6}}
\newlabel{sub@fig:area}{{(a)}{6}}
\newlabel{fig:dep}{{3(b)}{6}}
\newlabel{sub@fig:dep}{{(b)}{6}}
\@writefile{lof}{\contentsline {figure}{\numberline {3}{\ignorespaces Experimento de desvanecimento de RSSI e estimativa de dist\IeC {\^a}ncia}}{6}}
\@writefile{lof}{\contentsline {subfigure}{\numberline{(a)}{\ignorespaces {Atr\IeC {\'a}s do departamento}}}{6}}
\@writefile{lof}{\contentsline {subfigure}{\numberline{(b)}{\ignorespaces {Ambiente Lab. COMNET}}}{6}}
\@writefile{toc}{\contentsline {section}{\numberline {4}Resultados}{6}}
\newlabel{result}{{4}{6}}
\@writefile{toc}{\contentsline {subsection}{\numberline {4.1}Flutua\IeC {\c c}\IeC {\~a}o da Intensidade do Sinal}{6}}
\newlabel{Flut}{{4.1}{6}}
\newlabel{FiltrosTrue}{{4.1}{6}}
\@writefile{lof}{\contentsline {figure}{\numberline {4}{\ignorespaces RSSI ao longo do tempo observado a 1m de dist\IeC {\^a}ncia}}{7}}
\newlabel{fig:Rssi_filtros}{{4}{7}}
\@writefile{lot}{\contentsline {table}{\numberline {1}{\ignorespaces Compara\IeC {\c c}\IeC {\~a}o entre os modelos LDPLM e RPLM}}{7}}
\newlabel{tab:modelos-comp2}{{1}{7}}
\@writefile{toc}{\contentsline {subsection}{\numberline {4.2}Calibra\IeC {\c c}\IeC {\~a}o dos Modelos de Propaga\IeC {\c c}\IeC {\~a}o}{7}}
\@writefile{toc}{\contentsline {subsection}{\numberline {4.3}Calibra\IeC {\c c}\IeC {\~a}o da Converg\IeC {\^e}ncia de RSSI}{7}}
\citation{2015:Dfilter}
\newlabel{fig:3kalmans}{{5(a)}{8}}
\newlabel{sub@fig:3kalmans}{{(a)}{8}}
\newlabel{fig:conv2}{{5(b)}{8}}
\newlabel{sub@fig:conv2}{{(b)}{8}}
\@writefile{lof}{\contentsline {figure}{\numberline {5}{\ignorespaces Vari\IeC {\^a}ncia e converg\IeC {\^e}ncia no filtro de Kalman}}{8}}
\@writefile{lof}{\contentsline {subfigure}{\numberline{(a)}{\ignorespaces {Vari\IeC {\^a}ncia no filtro Kalman devido a mudan\IeC {\c c}a de valores iniciais}}}{8}}
\@writefile{lof}{\contentsline {subfigure}{\numberline{(b)}{\ignorespaces {Quantidade de leituras para converg\IeC {\^e}ncia nos filtros}}}{8}}
\@writefile{toc}{\contentsline {subsection}{\numberline {4.4}Estimativa de Dist\IeC {\^a}ncia}{8}}
\@writefile{lot}{\contentsline {table}{\numberline {2}{\ignorespaces Estimativa de dist\IeC {\^a}ncia - Ion}}{9}}
\newlabel{tab:distanciaIon}{{2}{9}}
\@writefile{lot}{\contentsline {table}{\numberline {3}{\ignorespaces Varia\IeC {\c c}\IeC {\~a}o e desvio padr\IeC {\~a}o para cada metro e filtragem}}{9}}
\newlabel{tab:dist_var}{{3}{9}}
\newlabel{fig:app1}{{6(a)}{9}}
\newlabel{sub@fig:app1}{{(a)}{9}}
\newlabel{fig:app2}{{6(b)}{9}}
\newlabel{sub@fig:app2}{{(b)}{9}}
\@writefile{lof}{\contentsline {figure}{\numberline {6}{\ignorespaces Sistema recebendo informa\IeC {\c c}\IeC {\~o}es sobre os produtos de um \textit  {Food Truck}}}{9}}
\@writefile{lof}{\contentsline {subfigure}{\numberline{(a)}{\ignorespaces {Encontrando o sinal e estimativa de dist\IeC {\^a}ncia de \textit {beacons} pr\IeC {\'o}ximos}}}{9}}
\@writefile{lof}{\contentsline {subfigure}{\numberline{(b)}{\ignorespaces {Identificando o sinal e mostrando os produtos de um \textit {Food Truck} em proximidade}}}{9}}
\bibdata{bibliografia}
\bibcite{2015:Kalman_explained}{Bulten 2015}
\bibcite{PModel:2015}{Chowdhury et~al. 2015}
\bibcite{Comparison:2011}{Dalce et~al. 2011}
\bibcite{Combined:2013}{Galv\IeC {\'a}n-Tejada et~al. 2013}
\bibcite{PhyGoogle}{Google }
\bibcite{Eddystone}{Google 2016}
\bibcite{KST}{KST }
\bibcite{TIReport}{Lindh 2016}
\bibcite{TanenbaumBook}{Tanenbaum and Wheterall 2011}
\bibcite{BLEBook}{Townsend et~al. 2014}
\bibcite{2016:turco}{Vargas 2016}
\bibcite{2015:Dfilter}{Viswanathan and Srinivasan 2015}
\bibcite{positioning:2013}{Wang et~al. 2013}
\bibcite{Kalman_intro}{Welch and Bishop 2001}
\bibstyle{sbc}
\@writefile{toc}{\contentsline {section}{\numberline {5}Conclus\IeC {\~a}o}{10}}
\newlabel{concl}{{5}{10}}
